voltage, voltage_on_led, voltage_on_resistor 
1.40, 1.03, 0.38
1.40, 1.03, 0.38
1.40, 1.03, 0.38
1.40, 1.03, 0.38
1.40, 1.03, 0.39
1.41, 1.03, 0.39
1.41, 1.03, 0.39
1.41, 1.03, 0.39
1.41, 1.03, 0.39
1.41, 1.03, 0.39
1.41, 1.03, 0.39
1.41, 1.03, 0.39
1.41, 1.03, 0.39
1.41, 1.03, 0.40
1.42, 1.03, 0.40
1.42, 1.03, 0.40
1.42, 1.03, 0.40
1.42, 1.03, 0.40
1.42, 1.03, 0.40
1.42, 1.03, 0.40
1.42, 1.03, 0.40
1.42, 1.03, 0.40
1.43, 1.03, 0.40
1.43, 1.03, 0.41
1.43, 1.03, 0.41
1.43, 1.03, 0.41
1.43, 1.04, 0.41
1.43, 1.04, 0.41
1.43, 1.04, 0.41
1.43, 1.04, 0.41
1.44, 1.04, 0.41
1.44, 1.04, 0.41
1.44, 1.04, 0.41
1.44, 1.04, 0.42
1.44, 1.04, 0.42
1.40, 1.03, 0.38
1.40, 1.03, 0.38
1.40, 1.03, 0.38
1.40, 1.03, 0.38
1.40, 1.03, 0.39
1.41, 1.03, 0.39
1.41, 1.03, 0.39
1.41, 1.03, 0.39
1.41, 1.03, 0.39
1.41, 1.03, 0.39
1.41, 1.03, 0.39
1.41, 1.03, 0.39
1.41, 1.03, 0.39
1.41, 1.03, 0.39
1.42, 1.03, 0.40
1.42, 1.03, 0.40
1.42, 1.03, 0.40
1.42, 1.03, 0.40
1.42, 1.03, 0.40
1.42, 1.03, 0.40
1.42, 1.03, 0.40
1.42, 1.03, 0.40
1.43, 1.03, 0.40
1.43, 1.04, 0.41
1.43, 1.04, 0.41
1.43, 1.04, 0.41
1.43, 1.04, 0.41
1.43, 1.04, 0.41
1.43, 1.04, 0.41
1.43, 1.04, 0.41
1.44, 1.04, 0.41
1.44, 1.04, 0.41
1.44, 1.04, 0.41
1.44, 1.04, 0.42
1.44, 1.04, 0.42
1.44, 1.04, 0.42
1.44, 1.04, 0.42
1.44, 1.04, 0.42
1.45, 1.04, 0.42
1.45, 1.04, 0.42
1.45, 1.04, 0.42
1.45, 1.04, 0.42
1.45, 1.04, 0.43
1.45, 1.04, 0.43
1.45, 1.04, 0.43
1.45, 1.04, 0.43
1.46, 1.04, 0.43
1.46, 1.04, 0.43
1.46, 1.04, 0.43
1.46, 1.04, 0.43
1.46, 1.04, 0.43
1.46, 1.04, 0.43
1.46, 1.04, 0.44
1.46, 1.04, 0.44
1.46, 1.04, 0.44
1.47, 1.04, 0.44
1.47, 1.04, 0.44
1.47, 1.04, 0.44
1.47, 1.04, 0.44
1.47, 1.04, 0.44
1.47, 1.04, 0.44
1.47, 1.04, 0.44
1.47, 1.04, 0.45
1.48, 1.04, 0.45
1.48, 1.04, 0.45
1.48, 1.04, 0.45
1.48, 1.04, 0.45
1.48, 1.04, 0.45
1.48, 1.04, 0.45
1.48, 1.04, 0.45
1.48, 1.04, 0.45
1.49, 1.04, 0.46
1.49, 1.04, 0.46
1.49, 1.04, 0.46
1.49, 1.04, 0.46
1.49, 1.04, 0.46
1.49, 1.04, 0.46
1.49, 1.04, 0.46
1.49, 1.04, 0.46
1.50, 1.04, 0.47
1.50, 1.04, 0.47
1.50, 1.04, 0.47
1.50, 1.04, 0.47
1.50, 1.04, 0.47
1.50, 1.04, 0.47
1.50, 1.04, 0.47
1.50, 1.04, 0.47
1.51, 1.04, 0.47
1.51, 1.04, 0.48
1.51, 1.04, 0.48
1.51, 1.04, 0.48
1.51, 1.04, 0.48
1.51, 1.04, 0.48
1.51, 1.04, 0.48
1.51, 1.04, 0.48
1.51, 1.04, 0.48
1.52, 1.04, 0.48
1.52, 1.04, 0.49
1.52, 1.04, 0.49
1.52, 1.04, 0.49
1.52, 1.04, 0.49
1.52, 1.04, 0.49
1.52, 1.04, 0.49
1.52, 1.04, 0.49
1.53, 1.04, 0.49
1.53, 1.04, 0.50
1.53, 1.04, 0.50
1.53, 1.04, 0.50
1.53, 1.04, 0.50
1.53, 1.04, 0.50
1.53, 1.04, 0.50
1.53, 1.04, 0.50
1.54, 1.04, 0.50
1.54, 1.04, 0.50
1.54, 1.04, 0.51
1.54, 1.04, 0.51
1.54, 1.04, 0.51
1.54, 1.05, 0.51
1.54, 1.05, 0.51
1.54, 1.05, 0.51
1.55, 1.05, 0.51
1.55, 1.05, 0.51
1.55, 1.05, 0.52
1.55, 1.05, 0.52
1.55, 1.05, 0.52
1.55, 1.05, 0.52
1.55, 1.05, 0.52
1.55, 1.05, 0.52
1.56, 1.05, 0.52
1.56, 1.05, 0.52
1.56, 1.05, 0.52
1.56, 1.05, 0.53
1.56, 1.05, 0.53
1.56, 1.05, 0.53
1.56, 1.05, 0.53
1.56, 1.05, 0.53
1.56, 1.05, 0.53
1.57, 1.05, 0.53
1.57, 1.05, 0.53
1.57, 1.05, 0.53
1.57, 1.05, 0.54
1.57, 1.05, 0.54
1.57, 1.05, 0.54
1.57, 1.05, 0.54
1.57, 1.05, 0.54
1.58, 1.05, 0.54
1.58, 1.05, 0.54
1.58, 1.05, 0.54
1.58, 1.05, 0.54
1.58, 1.05, 0.55
1.58, 1.05, 0.55
1.58, 1.05, 0.55
1.58, 1.05, 0.55
1.59, 1.05, 0.55
1.59, 1.05, 0.55
1.59, 1.05, 0.55
1.59, 1.05, 0.55
1.59, 1.05, 0.55
1.59, 1.05, 0.56
1.59, 1.05, 0.56
1.59, 1.05, 0.56
1.60, 1.05, 0.56
1.60, 1.05, 0.56
1.60, 1.05, 0.56
1.60, 1.05, 0.56
1.60, 1.05, 0.56
1.60, 1.05, 0.56
1.60, 1.05, 0.56
1.60, 1.05, 0.57
1.61, 1.05, 0.57
1.61, 1.05, 0.57
1.61, 1.05, 0.57
1.61, 1.05, 0.57
1.61, 1.05, 0.57
1.61, 1.05, 0.57
1.61, 1.05, 0.57
1.61, 1.05, 0.57
1.61, 1.05, 0.58
1.62, 1.05, 0.58
1.62, 1.05, 0.58
1.62, 1.05, 0.58
1.62, 1.05, 0.58
1.62, 1.05, 0.58
1.62, 1.05, 0.58
1.62, 1.05, 0.58
1.62, 1.05, 0.58
1.63, 1.05, 0.59
1.63, 1.05, 0.59
1.63, 1.05, 0.59
1.63, 1.05, 0.59
1.63, 1.05, 0.59
1.63, 1.05, 0.59
1.63, 1.05, 0.59
1.63, 1.05, 0.59
1.64, 1.05, 0.59
1.64, 1.05, 0.60
1.64, 1.05, 0.60
1.64, 1.05, 0.60
1.64, 1.05, 0.60
1.64, 1.05, 0.60
1.64, 1.05, 0.60
1.64, 1.05, 0.60
1.65, 1.05, 0.60
1.65, 1.05, 0.60
1.65, 1.05, 0.61
1.65, 1.05, 0.61
1.65, 1.05, 0.61
1.65, 1.05, 0.61
1.65, 1.05, 0.61
1.65, 1.05, 0.61
1.66, 1.05, 0.61
1.66, 1.05, 0.61
1.66, 1.05, 0.62
1.66, 1.05, 0.62
1.66, 1.05, 0.62
1.66, 1.05, 0.62
1.66, 1.05, 0.62
1.66, 1.05, 0.62
1.67, 1.05, 0.62
1.67, 1.05, 0.62
1.67, 1.05, 0.63
1.67, 1.05, 0.63
1.67, 1.05, 0.63
1.67, 1.05, 0.63
1.67, 1.05, 0.63
1.67, 1.05, 0.63
1.67, 1.05, 0.63
1.68, 1.05, 0.63
1.68, 1.05, 0.63
1.68, 1.05, 0.64
1.68, 1.05, 0.64
1.68, 1.05, 0.64
1.68, 1.05, 0.64
1.68, 1.05, 0.64
1.68, 1.05, 0.64
1.69, 1.05, 0.64
1.69, 1.06, 0.64
1.69, 1.06, 0.65
1.69, 1.06, 0.65
1.69, 1.06, 0.65
1.69, 1.06, 0.65
1.69, 1.06, 0.65
1.69, 1.06, 0.65
1.70, 1.06, 0.65
1.70, 1.06, 0.65
1.70, 1.06, 0.66
1.70, 1.06, 0.66
1.70, 1.06, 0.66
1.70, 1.06, 0.66
1.70, 1.06, 0.66
1.70, 1.06, 0.66
1.71, 1.06, 0.66
1.71, 1.06, 0.66
1.71, 1.06, 0.67
1.71, 1.06, 0.67
1.71, 1.06, 0.67
1.71, 1.06, 0.67
1.71, 1.06, 0.67
1.71, 1.06, 0.67
1.72, 1.06, 0.67
1.72, 1.06, 0.67
1.72, 1.06, 0.68
1.72, 1.06, 0.68
1.72, 1.06, 0.68
1.72, 1.06, 0.68
1.72, 1.06, 0.68
1.72, 1.06, 0.68
1.72, 1.06, 0.68
1.73, 1.06, 0.68
1.73, 1.06, 0.68
1.73, 1.06, 0.69
1.73, 1.06, 0.69
1.73, 1.06, 0.69
1.73, 1.06, 0.69
1.73, 1.06, 0.69
1.73, 1.06, 0.69
1.74, 1.06, 0.69
1.74, 1.06, 0.69
1.74, 1.06, 0.69
1.74, 1.06, 0.69
1.74, 1.06, 0.70
1.74, 1.06, 0.70
1.74, 1.06, 0.70
1.74, 1.06, 0.70
1.75, 1.06, 0.70
1.75, 1.06, 0.70
1.75, 1.06, 0.70
1.75, 1.06, 0.70
1.75, 1.06, 0.70
1.75, 1.06, 0.71
1.75, 1.06, 0.71
1.75, 1.06, 0.71
1.76, 1.06, 0.71
1.76, 1.06, 0.71
1.76, 1.06, 0.71
1.76, 1.06, 0.71
1.76, 1.06, 0.71
1.76, 1.06, 0.71
1.76, 1.06, 0.72
1.76, 1.06, 0.72
1.77, 1.06, 0.72
1.77, 1.06, 0.72
1.77, 1.06, 0.72
1.77, 1.06, 0.72
1.77, 1.06, 0.72
1.77, 1.06, 0.72
1.77, 1.06, 0.72
1.77, 1.06, 0.73
1.77, 1.06, 0.73
1.78, 1.06, 0.73
1.78, 1.06, 0.73
1.78, 1.06, 0.73
1.78, 1.06, 0.73
1.78, 1.06, 0.73
1.78, 1.06, 0.73
1.78, 1.06, 0.73
1.78, 1.06, 0.74
1.79, 1.06, 0.74
1.79, 1.06, 0.74
1.79, 1.06, 0.74
1.79, 1.06, 0.74
1.79, 1.06, 0.74
1.79, 1.06, 0.74
1.79, 1.06, 0.74
1.79, 1.06, 0.74
1.80, 1.06, 0.74
1.80, 1.06, 0.75
1.80, 1.06, 0.75
1.80, 1.06, 0.75
1.80, 1.06, 0.75
1.80, 1.06, 0.75
1.80, 1.06, 0.75
1.80, 1.06, 0.75
1.81, 1.06, 0.75
1.81, 1.06, 0.76
1.81, 1.06, 0.76
1.81, 1.06, 0.76
1.81, 1.06, 0.76
1.81, 1.06, 0.76
1.81, 1.06, 0.76
1.81, 1.06, 0.76
1.82, 1.06, 0.76
1.82, 1.06, 0.77
1.82, 1.06, 0.77
1.82, 1.06, 0.77
1.82, 1.06, 0.77
1.82, 1.06, 0.77
1.82, 1.06, 0.77
1.82, 1.06, 0.77
1.82, 1.06, 0.77
1.83, 1.06, 0.78
1.83, 1.06, 0.78
1.83, 1.06, 0.78
1.83, 1.06, 0.78
1.83, 1.06, 0.78
1.83, 1.06, 0.78
1.83, 1.06, 0.78
1.83, 1.06, 0.78
1.84, 1.06, 0.79
1.84, 1.06, 0.79
1.84, 1.06, 0.79
1.84, 1.06, 0.79
1.84, 1.06, 0.79
1.84, 1.06, 0.79
1.84, 1.06, 0.79
1.84, 1.06, 0.79
1.85, 1.06, 0.80
1.85, 1.06, 0.80
1.85, 1.06, 0.80
1.85, 1.06, 0.80
1.85, 1.06, 0.80
1.85, 1.06, 0.80
1.85, 1.06, 0.80
1.85, 1.06, 0.80
1.86, 1.06, 0.81
1.86, 1.06, 0.81
1.86, 1.06, 0.81
1.86, 1.06, 0.81
1.86, 1.06, 0.81
1.86, 1.06, 0.81
1.86, 1.06, 0.81
1.86, 1.06, 0.81
1.87, 1.07, 0.82
1.87, 1.07, 0.82
1.87, 1.07, 0.82
1.87, 1.07, 0.82
1.87, 1.07, 0.82
1.87, 1.07, 0.82
1.87, 1.07, 0.82
1.87, 1.07, 0.82
1.88, 1.07, 0.82
1.88, 1.07, 0.83
1.88, 1.07, 0.83
1.88, 1.07, 0.83
1.88, 1.07, 0.83
1.88, 1.07, 0.83
1.88, 1.07, 0.83
1.88, 1.07, 0.83
1.88, 1.07, 0.83
1.89, 1.07, 0.84
1.89, 1.07, 0.84
1.89, 1.07, 0.84
1.89, 1.07, 0.84
1.89, 1.07, 0.84
1.89, 1.07, 0.84
1.89, 1.07, 0.84
1.89, 1.07, 0.84
1.90, 1.07, 0.84
1.90, 1.07, 0.85
1.90, 1.07, 0.85
1.90, 1.07, 0.85
1.90, 1.07, 0.85
1.90, 1.07, 0.85
1.90, 1.07, 0.85
1.90, 1.07, 0.85
1.91, 1.07, 0.85
1.91, 1.07, 0.85
1.91, 1.07, 0.86
1.91, 1.07, 0.86
1.91, 1.07, 0.86
1.91, 1.07, 0.86
1.91, 1.07, 0.86
1.91, 1.07, 0.86
1.92, 1.07, 0.86
1.92, 1.07, 0.86
1.92, 1.07, 0.86
1.92, 1.07, 0.87
1.92, 1.07, 0.87
1.92, 1.07, 0.87
1.92, 1.07, 0.87
1.92, 1.07, 0.87
1.93, 1.07, 0.87
1.93, 1.07, 0.87
1.93, 1.07, 0.87
1.93, 1.07, 0.87
1.93, 1.07, 0.88
1.93, 1.07, 0.88
1.93, 1.07, 0.88
1.93, 1.07, 0.88
1.93, 1.07, 0.88
1.94, 1.07, 0.88
1.94, 1.07, 0.88
1.94, 1.07, 0.88
1.94, 1.07, 0.88
1.94, 1.07, 0.89
1.94, 1.07, 0.89
1.94, 1.07, 0.89
1.94, 1.07, 0.89
1.95, 1.07, 0.89
1.95, 1.07, 0.89
1.95, 1.07, 0.89
1.95, 1.07, 0.89
1.95, 1.07, 0.89
1.95, 1.07, 0.90
1.95, 1.07, 0.90
1.95, 1.07, 0.90
1.96, 1.07, 0.90
1.96, 1.07, 0.90
1.96, 1.07, 0.90
1.96, 1.07, 0.90
1.96, 1.07, 0.90
1.96, 1.07, 0.91
1.96, 1.07, 0.91
1.96, 1.07, 0.91
1.97, 1.07, 0.91
1.97, 1.07, 0.91
1.97, 1.07, 0.91
1.97, 1.07, 0.91
1.97, 1.07, 0.91
1.97, 1.07, 0.91
1.97, 1.07, 0.92
1.97, 1.07, 0.92
1.98, 1.07, 0.92
1.98, 1.07, 0.92
1.98, 1.07, 0.92
1.98, 1.07, 0.92
1.98, 1.07, 0.92
1.98, 1.07, 0.92
1.98, 1.07, 0.93
1.98, 1.07, 0.93
1.98, 1.07, 0.93
1.99, 1.07, 0.93
1.99, 1.07, 0.93
1.99, 1.07, 0.93
1.99, 1.07, 0.93
1.99, 1.07, 0.93
1.99, 1.07, 0.94
1.99, 1.07, 0.94
1.99, 1.07, 0.94
2.00, 1.07, 0.94
2.00, 1.07, 0.94
2.00, 1.07, 0.94
2.00, 1.07, 0.94
2.00, 1.07, 0.94
2.00, 1.07, 0.95
2.00, 1.07, 0.95
2.00, 1.07, 0.95
2.01, 1.07, 0.95
2.01, 1.07, 0.95
2.01, 1.07, 0.95
2.01, 1.07, 0.95
2.01, 1.07, 0.95
2.01, 1.07, 0.96
2.01, 1.07, 0.96
2.01, 1.07, 0.96
2.02, 1.07, 0.96
2.02, 1.07, 0.96
2.02, 1.07, 0.96
2.02, 1.07, 0.96
2.02, 1.07, 0.96
2.02, 1.07, 0.96
2.02, 1.07, 0.97
2.02, 1.07, 0.97
2.03, 1.07, 0.97
2.03, 1.07, 0.97
2.03, 1.07, 0.97
2.03, 1.07, 0.97
2.03, 1.07, 0.97
2.03, 1.07, 0.97
2.03, 1.07, 0.98
2.03, 1.07, 0.98
2.03, 1.07, 0.98
2.04, 1.07, 0.98
2.04, 1.07, 0.98
2.04, 1.07, 0.98
2.04, 1.07, 0.98
2.04, 1.07, 0.98
2.04, 1.07, 0.98
2.04, 1.07, 0.99
2.04, 1.07, 0.99
2.05, 1.07, 0.99
2.05, 1.07, 0.99
2.05, 1.07, 0.99
2.05, 1.07, 0.99
2.05, 1.07, 0.99
2.05, 1.07, 0.99
2.05, 1.07, 0.99
2.05, 1.07, 1.00
2.06, 1.07, 1.00
2.06, 1.07, 1.00
2.06, 1.07, 1.00
2.06, 1.07, 1.00
2.06, 1.07, 1.00
2.06, 1.07, 1.00
2.06, 1.07, 1.00
2.06, 1.07, 1.00
2.07, 1.07, 1.01
2.07, 1.07, 1.01
2.07, 1.07, 1.01
2.07, 1.07, 1.01
2.07, 1.07, 1.01
2.07, 1.07, 1.01
2.07, 1.07, 1.01
2.07, 1.07, 1.01
2.08, 1.07, 1.01
2.08, 1.07, 1.02
2.08, 1.07, 1.02
2.08, 1.07, 1.02
2.08, 1.07, 1.02
2.08, 1.07, 1.02
2.08, 1.07, 1.02
2.08, 1.07, 1.02
2.08, 1.07, 1.02
2.09, 1.07, 1.02
2.09, 1.07, 1.03
2.09, 1.07, 1.03
2.09, 1.07, 1.03
2.09, 1.07, 1.03
2.09, 1.07, 1.03
2.09, 1.07, 1.03
2.09, 1.07, 1.03
2.10, 1.07, 1.03
2.10, 1.07, 1.03
2.10, 1.07, 1.04
2.10, 1.07, 1.04
2.10, 1.07, 1.04
2.10, 1.07, 1.04
2.10, 1.07, 1.04
2.10, 1.07, 1.04
2.11, 1.07, 1.04
2.11, 1.08, 1.04
2.11, 1.08, 1.04
2.11, 1.08, 1.04
2.11, 1.08, 1.05
2.11, 1.08, 1.05
2.11, 1.08, 1.05
2.11, 1.08, 1.05
2.12, 1.08, 1.05
2.12, 1.08, 1.05
2.12, 1.08, 1.05
2.12, 1.08, 1.05
2.12, 1.08, 1.06
2.12, 1.08, 1.06
2.12, 1.08, 1.06
2.12, 1.08, 1.06
2.13, 1.08, 1.06
2.13, 1.08, 1.06
2.13, 1.08, 1.06
2.13, 1.08, 1.06
2.13, 1.08, 1.07
2.13, 1.08, 1.07
2.13, 1.08, 1.07
2.13, 1.08, 1.07
2.14, 1.08, 1.07
2.14, 1.08, 1.07
2.14, 1.08, 1.07
2.14, 1.08, 1.07
2.14, 1.08, 1.08
2.14, 1.08, 1.08
2.14, 1.08, 1.08
2.14, 1.08, 1.08
2.14, 1.08, 1.08
2.15, 1.08, 1.08
2.15, 1.08, 1.08
2.15, 1.08, 1.08
2.15, 1.08, 1.09
2.15, 1.08, 1.09
2.15, 1.08, 1.09
2.15, 1.08, 1.09
2.15, 1.08, 1.09
2.16, 1.08, 1.09
2.16, 1.08, 1.09
2.16, 1.08, 1.09
2.16, 1.08, 1.10
2.16, 1.08, 1.10
2.16, 1.08, 1.10
2.16, 1.08, 1.10
2.16, 1.08, 1.10
2.17, 1.08, 1.10
2.17, 1.08, 1.10
2.17, 1.08, 1.10
2.17, 1.08, 1.11
2.17, 1.08, 1.11
2.17, 1.08, 1.11
2.17, 1.08, 1.11
2.17, 1.08, 1.11
2.18, 1.08, 1.11
2.18, 1.08, 1.11
2.18, 1.08, 1.11
2.18, 1.08, 1.12
2.18, 1.08, 1.12
2.18, 1.08, 1.12
2.18, 1.08, 1.12
2.18, 1.08, 1.12
2.19, 1.08, 1.12
2.19, 1.08, 1.12
2.19, 1.08, 1.12
2.19, 1.08, 1.13
2.19, 1.08, 1.13
2.19, 1.08, 1.13
2.19, 1.08, 1.13
2.19, 1.08, 1.13
2.19, 1.08, 1.13
2.20, 1.08, 1.13
2.20, 1.08, 1.13
2.20, 1.08, 1.13
2.20, 1.08, 1.14
2.20, 1.08, 1.14
2.20, 1.08, 1.14
2.20, 1.08, 1.14
2.20, 1.08, 1.14
2.21, 1.08, 1.14
2.21, 1.08, 1.14
2.21, 1.08, 1.14
2.21, 1.08, 1.14
2.21, 1.08, 1.15
2.21, 1.08, 1.15
2.21, 1.08, 1.15
2.21, 1.08, 1.15
2.22, 1.08, 1.15
2.22, 1.08, 1.15
2.22, 1.08, 1.15
2.22, 1.08, 1.15
2.22, 1.08, 1.15
2.22, 1.08, 1.16
2.22, 1.08, 1.16
2.22, 1.08, 1.16
2.23, 1.08, 1.16
2.23, 1.08, 1.16
2.23, 1.08, 1.16
2.23, 1.08, 1.16
2.23, 1.08, 1.16
2.23, 1.08, 1.16
2.23, 1.08, 1.17
2.23, 1.08, 1.17
2.24, 1.08, 1.17
2.24, 1.08, 1.17
2.24, 1.08, 1.17
2.24, 1.08, 1.17
2.24, 1.08, 1.17
2.24, 1.08, 1.17
2.24, 1.08, 1.17
2.24, 1.08, 1.18
2.24, 1.08, 1.18
2.25, 1.08, 1.18
2.25, 1.08, 1.18
2.25, 1.08, 1.18
2.25, 1.08, 1.18
2.25, 1.08, 1.18
2.25, 1.08, 1.18
2.25, 1.08, 1.18
2.25, 1.08, 1.19
2.26, 1.08, 1.19
2.26, 1.08, 1.19
2.26, 1.08, 1.19
2.26, 1.08, 1.19
2.26, 1.08, 1.19
2.26, 1.08, 1.19
2.26, 1.08, 1.19
2.26, 1.08, 1.20
2.27, 1.08, 1.20
2.27, 1.08, 1.20
2.27, 1.08, 1.20
2.27, 1.08, 1.20
2.27, 1.08, 1.20
2.27, 1.08, 1.20
2.27, 1.08, 1.20
2.27, 1.08, 1.20
2.28, 1.08, 1.21
2.28, 1.08, 1.21
2.28, 1.08, 1.21
2.28, 1.08, 1.21
2.28, 1.08, 1.21
2.28, 1.08, 1.21
2.28, 1.08, 1.21
2.28, 1.08, 1.21
2.29, 1.08, 1.22
2.29, 1.08, 1.22
2.29, 1.08, 1.22
2.29, 1.08, 1.22
2.29, 1.08, 1.22
2.29, 1.08, 1.22
2.29, 1.08, 1.22
2.29, 1.08, 1.22
2.29, 1.08, 1.23
2.30, 1.08, 1.23
2.30, 1.08, 1.23
2.30, 1.08, 1.23
2.30, 1.08, 1.23
2.30, 1.08, 1.23
2.30, 1.08, 1.23
2.30, 1.08, 1.23
2.30, 1.08, 1.24
2.31, 1.08, 1.24
2.31, 1.08, 1.24
2.31, 1.08, 1.24
2.31, 1.08, 1.24
2.31, 1.08, 1.24
2.31, 1.08, 1.24
2.31, 1.08, 1.24
2.31, 1.08, 1.25
2.32, 1.08, 1.25
2.32, 1.08, 1.25
2.32, 1.08, 1.25
2.32, 1.08, 1.25
2.32, 1.08, 1.25
2.32, 1.08, 1.25
2.32, 1.08, 1.25
2.32, 1.08, 1.26
2.33, 1.08, 1.26
2.33, 1.08, 1.26
2.33, 1.08, 1.26
2.33, 1.08, 1.26
2.33, 1.08, 1.26
2.33, 1.08, 1.26
2.33, 1.08, 1.26
2.33, 1.08, 1.27
2.34, 1.08, 1.27
2.34, 1.08, 1.27
2.34, 1.08, 1.27
2.34, 1.08, 1.27
2.34, 1.08, 1.27
2.34, 1.08, 1.27
2.34, 1.08, 1.27
2.34, 1.08, 1.27
2.34, 1.08, 1.28
2.35, 1.08, 1.28
2.35, 1.08, 1.28
2.35, 1.08, 1.28
2.35, 1.08, 1.28
2.35, 1.08, 1.28
2.35, 1.08, 1.28
2.35, 1.08, 1.28
2.35, 1.08, 1.29
2.36, 1.08, 1.29
2.36, 1.08, 1.29
2.36, 1.08, 1.29
2.36, 1.08, 1.29
2.36, 1.08, 1.29
2.36, 1.08, 1.29
2.36, 1.08, 1.29
2.36, 1.08, 1.29
2.37, 1.08, 1.29
2.37, 1.08, 1.30
2.37, 1.08, 1.30
2.37, 1.08, 1.30
2.37, 1.08, 1.30
2.37, 1.08, 1.30
2.37, 1.08, 1.30
2.37, 1.08, 1.30
2.38, 1.08, 1.30
2.38, 1.08, 1.31
2.38, 1.08, 1.31
2.38, 1.08, 1.31
2.38, 1.08, 1.31
2.38, 1.08, 1.31
2.38, 1.08, 1.31
2.38, 1.08, 1.31
2.39, 1.08, 1.31
2.39, 1.08, 1.31
2.39, 1.08, 1.32
2.39, 1.08, 1.32
2.39, 1.08, 1.32
2.39, 1.08, 1.32
2.39, 1.08, 1.32
2.39, 1.08, 1.32
2.40, 1.08, 1.32
2.40, 1.08, 1.32
2.40, 1.08, 1.32
2.40, 1.08, 1.33
2.40, 1.08, 1.33
2.40, 1.08, 1.33
2.40, 1.08, 1.33
2.40, 1.08, 1.33
2.40, 1.08, 1.33
2.41, 1.08, 1.33
2.41, 1.09, 1.33
2.41, 1.09, 1.33
2.41, 1.09, 1.34
2.41, 1.09, 1.34
2.41, 1.09, 1.34
2.41, 1.09, 1.34
2.41, 1.09, 1.34
2.42, 1.09, 1.34
2.42, 1.09, 1.34
2.42, 1.09, 1.34
2.42, 1.09, 1.34
2.42, 1.09, 1.35
2.42, 1.09, 1.35
2.42, 1.09, 1.35
2.42, 1.09, 1.35
2.43, 1.09, 1.35
2.43, 1.09, 1.35
2.43, 1.09, 1.35
2.43, 1.09, 1.35
2.43, 1.09, 1.36
2.43, 1.09, 1.36
2.43, 1.09, 1.36
2.43, 1.09, 1.36
2.44, 1.09, 1.36
2.44, 1.09, 1.36
2.44, 1.09, 1.36
2.44, 1.09, 1.36
2.44, 1.09, 1.37
2.44, 1.09, 1.37
2.44, 1.09, 1.37
2.44, 1.09, 1.37
2.45, 1.09, 1.37
2.45, 1.09, 1.37
2.45, 1.09, 1.37
2.45, 1.09, 1.37
2.45, 1.09, 1.38
2.45, 1.09, 1.38
2.45, 1.09, 1.38
2.45, 1.09, 1.38
2.45, 1.09, 1.38
2.46, 1.09, 1.38
2.46, 1.09, 1.38
2.46, 1.09, 1.38
2.46, 1.09, 1.39
2.46, 1.09, 1.39
2.46, 1.09, 1.39
2.46, 1.09, 1.39
2.46, 1.09, 1.39
2.47, 1.09, 1.39
2.47, 1.09, 1.39
2.47, 1.09, 1.40
2.47, 1.09, 1.40
2.47, 1.09, 1.40
2.47, 1.09, 1.40
2.47, 1.09, 1.40
2.47, 1.09, 1.40
2.48, 1.09, 1.40
2.48, 1.09, 1.40
2.48, 1.09, 1.41
2.48, 1.09, 1.41
2.48, 1.09, 1.41
2.48, 1.09, 1.41
2.48, 1.09, 1.41
2.48, 1.09, 1.41
2.49, 1.09, 1.41
2.49, 1.09, 1.41
2.49, 1.09, 1.41
2.49, 1.09, 1.42
2.49, 1.09, 1.42
2.49, 1.09, 1.42
2.49, 1.09, 1.42
2.49, 1.09, 1.42
2.50, 1.09, 1.42
2.50, 1.09, 1.42
2.50, 1.09, 1.42
2.50, 1.09, 1.43
2.50, 1.09, 1.43
2.50, 1.09, 1.43
2.50, 1.09, 1.43
2.50, 1.09, 1.43
2.50, 1.09, 1.43
2.51, 1.09, 1.44
2.51, 1.09, 1.44
2.51, 1.09, 1.44
2.51, 1.09, 1.44
2.51, 1.09, 1.44
2.51, 1.09, 1.44
2.51, 1.09, 1.44
2.51, 1.09, 1.44
2.52, 1.09, 1.44
2.52, 1.09, 1.45
2.52, 1.09, 1.45
2.52, 1.09, 1.45
2.52, 1.09, 1.45
2.52, 1.09, 1.45
2.52, 1.09, 1.45
2.52, 1.09, 1.45
2.53, 1.09, 1.45
2.53, 1.09, 1.46
2.53, 1.09, 1.46
2.53, 1.09, 1.46
2.53, 1.09, 1.46
2.53, 1.09, 1.46
2.53, 1.09, 1.46
2.53, 1.09, 1.46
2.54, 1.09, 1.46
2.54, 1.09, 1.46
2.54, 1.09, 1.47
2.54, 1.09, 1.47
2.54, 1.09, 1.47
2.54, 1.09, 1.47
2.54, 1.09, 1.47
2.54, 1.09, 1.47
2.55, 1.09, 1.47
2.55, 1.09, 1.47
2.55, 1.09, 1.47
2.55, 1.09, 1.48
2.55, 1.09, 1.48
2.55, 1.09, 1.48
2.55, 1.09, 1.48
2.55, 1.09, 1.48
2.55, 1.09, 1.48
2.56, 1.09, 1.48
2.56, 1.09, 1.48
2.56, 1.09, 1.48
2.56, 1.09, 1.49
2.56, 1.09, 1.49
2.56, 1.09, 1.49
2.56, 1.09, 1.49
2.56, 1.09, 1.49
2.57, 1.09, 1.49
2.57, 1.09, 1.49
2.57, 1.09, 1.49
2.57, 1.09, 1.49
2.57, 1.09, 1.50
2.57, 1.09, 1.50
2.57, 1.09, 1.50
2.57, 1.09, 1.50
2.58, 1.09, 1.50
2.58, 1.09, 1.50
2.58, 1.09, 1.50
2.58, 1.09, 1.50
2.58, 1.09, 1.51
2.58, 1.09, 1.51
2.58, 1.09, 1.51
2.58, 1.09, 1.51
2.59, 1.09, 1.51
2.59, 1.09, 1.51
2.59, 1.09, 1.51
2.59, 1.09, 1.51
2.59, 1.09, 1.52
2.59, 1.09, 1.52
2.59, 1.09, 1.52
2.59, 1.09, 1.52
2.60, 1.09, 1.52
2.60, 1.09, 1.52
2.60, 1.09, 1.52
2.60, 1.09, 1.52
2.60, 1.09, 1.53
2.60, 1.09, 1.53
2.60, 1.09, 1.53
2.60, 1.09, 1.53
2.60, 1.09, 1.53
2.61, 1.09, 1.53
2.61, 1.09, 1.53
2.61, 1.09, 1.53
2.61, 1.09, 1.54
2.61, 1.09, 1.54
2.61, 1.09, 1.54
2.61, 1.09, 1.54
2.61, 1.09, 1.54
2.62, 1.09, 1.54
2.62, 1.09, 1.54
2.62, 1.09, 1.54
2.62, 1.09, 1.55
2.62, 1.09, 1.55
2.62, 1.09, 1.55
2.62, 1.09, 1.55
2.62, 1.09, 1.55
2.63, 1.09, 1.55
2.63, 1.09, 1.55
2.63, 1.09, 1.55
2.63, 1.09, 1.56
2.63, 1.09, 1.56
2.63, 1.09, 1.56
2.63, 1.09, 1.56
2.63, 1.09, 1.56
2.64, 1.09, 1.56
2.64, 1.09, 1.56
2.64, 1.09, 1.56
2.64, 1.09, 1.57
2.64, 1.09, 1.57
2.64, 1.09, 1.57
2.64, 1.09, 1.57
2.64, 1.09, 1.57
2.65, 1.09, 1.57
2.65, 1.09, 1.57
2.65, 1.09, 1.57
2.65, 1.09, 1.58
2.65, 1.09, 1.58
2.65, 1.09, 1.58
2.65, 1.09, 1.58
2.65, 1.09, 1.58
2.66, 1.09, 1.58
2.66, 1.09, 1.58
2.66, 1.09, 1.58
2.66, 1.09, 1.59
2.66, 1.09, 1.59
2.66, 1.09, 1.59
2.66, 1.09, 1.59
2.66, 1.09, 1.59
2.66, 1.09, 1.59
2.67, 1.09, 1.59
2.67, 1.09, 1.59
2.67, 1.09, 1.59
2.67, 1.09, 1.60
2.67, 1.09, 1.60
2.67, 1.09, 1.60
2.67, 1.09, 1.60
2.67, 1.09, 1.60
2.68, 1.09, 1.60
2.68, 1.09, 1.60
2.68, 1.09, 1.60
2.68, 1.09, 1.60
2.68, 1.09, 1.61
2.68, 1.09, 1.61
2.68, 1.09, 1.61
2.68, 1.09, 1.61
2.69, 1.09, 1.61
2.69, 1.09, 1.61
2.69, 1.09, 1.61
2.69, 1.09, 1.61
2.69, 1.09, 1.61
2.69, 1.09, 1.62
2.69, 1.09, 1.62
2.69, 1.09, 1.62
2.70, 1.09, 1.62
2.70, 1.09, 1.62
2.70, 1.09, 1.62
2.70, 1.09, 1.62
2.70, 1.09, 1.62
2.70, 1.09, 1.62
2.70, 1.09, 1.63
2.70, 1.09, 1.63
2.71, 1.09, 1.63
2.71, 1.09, 1.63
2.71, 1.09, 1.63
2.71, 1.09, 1.63
2.71, 1.09, 1.63
2.71, 1.09, 1.63
2.71, 1.09, 1.63
2.71, 1.09, 1.64
2.71, 1.09, 1.64
2.72, 1.09, 1.64
2.72, 1.09, 1.64
2.72, 1.09, 1.64
2.72, 1.09, 1.64
2.72, 1.09, 1.64
2.72, 1.09, 1.64
2.72, 1.09, 1.64
2.72, 1.09, 1.65
2.73, 1.09, 1.65
2.73, 1.09, 1.65
2.73, 1.09, 1.65
2.73, 1.09, 1.65
2.73, 1.09, 1.65
2.73, 1.09, 1.65
2.73, 1.09, 1.65
2.73, 1.09, 1.65
2.74, 1.09, 1.66
2.74, 1.09, 1.66
2.74, 1.09, 1.66
2.74, 1.09, 1.66
2.74, 1.09, 1.66
2.74, 1.09, 1.66
2.74, 1.09, 1.66
2.74, 1.10, 1.66
2.75, 1.10, 1.67
2.75, 1.10, 1.67
2.75, 1.10, 1.67
2.75, 1.10, 1.67
2.75, 1.10, 1.67
2.75, 1.10, 1.67
2.75, 1.10, 1.67
2.75, 1.10, 1.68
2.76, 1.10, 1.68
2.76, 1.10, 1.68
2.76, 1.10, 1.68
2.76, 1.10, 1.68
2.76, 1.10, 1.68
2.76, 1.10, 1.68
2.76, 1.10, 1.68
2.76, 1.10, 1.68
2.76, 1.10, 1.69
2.77, 1.10, 1.69
2.77, 1.10, 1.69
2.77, 1.10, 1.69
2.77, 1.10, 1.69
2.77, 1.10, 1.69
2.77, 1.10, 1.69
2.77, 1.10, 1.70
2.77, 1.10, 1.70
2.78, 1.10, 1.70
2.78, 1.10, 1.70
2.78, 1.10, 1.70
2.78, 1.10, 1.70
2.78, 1.10, 1.70
2.78, 1.10, 1.70
2.78, 1.10, 1.70
2.78, 1.10, 1.71
2.79, 1.10, 1.71
2.79, 1.10, 1.71
2.79, 1.10, 1.71
2.79, 1.10, 1.71
2.79, 1.10, 1.71
2.79, 1.10, 1.71
2.79, 1.10, 1.71
2.79, 1.10, 1.72
2.80, 1.10, 1.72
2.80, 1.10, 1.72
2.80, 1.10, 1.72
2.80, 1.10, 1.72
2.80, 1.10, 1.72
2.80, 1.10, 1.72
2.80, 1.10, 1.73
2.80, 1.10, 1.73
2.81, 1.10, 1.73
2.81, 1.10, 1.73
2.81, 1.10, 1.73
2.81, 1.10, 1.73
2.81, 1.10, 1.73
2.81, 1.10, 1.73
2.81, 1.10, 1.73
2.81, 1.10, 1.74
2.81, 1.10, 1.74
2.82, 1.10, 1.74
2.82, 1.10, 1.74
2.82, 1.10, 1.74
2.82, 1.10, 1.74
2.82, 1.10, 1.74
2.82, 1.10, 1.74
2.82, 1.10, 1.75
2.82, 1.10, 1.75
2.83, 1.10, 1.75
2.83, 1.10, 1.75
2.83, 1.10, 1.75
2.83, 1.10, 1.75
2.83, 1.10, 1.75
2.83, 1.10, 1.75
2.83, 1.10, 1.75
2.83, 1.10, 1.76
2.84, 1.10, 1.76
2.84, 1.10, 1.76
2.84, 1.10, 1.76
2.84, 1.10, 1.76
2.84, 1.10, 1.76
2.84, 1.10, 1.76
2.84, 1.10, 1.76
2.84, 1.10, 1.76
2.85, 1.10, 1.77
2.85, 1.10, 1.77
2.85, 1.10, 1.77
2.85, 1.10, 1.77
2.85, 1.10, 1.77
2.85, 1.10, 1.77
2.85, 1.10, 1.77
2.85, 1.10, 1.77
2.86, 1.10, 1.77
2.86, 1.10, 1.78
2.86, 1.10, 1.78
2.86, 1.10, 1.78
2.86, 1.10, 1.78
2.86, 1.10, 1.78
2.86, 1.10, 1.78
2.86, 1.10, 1.78
2.86, 1.10, 1.78
2.87, 1.10, 1.79
2.87, 1.10, 1.79
2.87, 1.10, 1.79
2.87, 1.10, 1.79
2.87, 1.10, 1.79
2.87, 1.10, 1.79
2.87, 1.10, 1.79
2.87, 1.10, 1.79
2.88, 1.10, 1.79
2.88, 1.10, 1.80
2.88, 1.10, 1.80
2.88, 1.10, 1.80
2.88, 1.10, 1.80
2.88, 1.10, 1.80
2.88, 1.10, 1.80
2.88, 1.10, 1.80
2.89, 1.10, 1.80
2.89, 1.10, 1.80
2.89, 1.10, 1.81
2.89, 1.10, 1.81
2.89, 1.10, 1.81
2.89, 1.10, 1.81
2.89, 1.10, 1.81
2.89, 1.10, 1.81
2.90, 1.10, 1.81
2.90, 1.10, 1.81
2.90, 1.10, 1.82
2.90, 1.10, 1.82
2.90, 1.10, 1.82
2.90, 1.10, 1.82
2.90, 1.10, 1.82
2.90, 1.10, 1.82
2.91, 1.10, 1.82
2.91, 1.10, 1.82
2.91, 1.10, 1.83
2.91, 1.10, 1.83
2.91, 1.10, 1.83
2.91, 1.10, 1.83
2.91, 1.10, 1.83
2.91, 1.10, 1.83
2.92, 1.10, 1.83
2.92, 1.10, 1.83
2.92, 1.10, 1.84
2.92, 1.10, 1.84
2.92, 1.10, 1.84
2.92, 1.10, 1.84
2.92, 1.10, 1.84
2.92, 1.10, 1.84
2.92, 1.10, 1.84
2.93, 1.10, 1.84
2.93, 1.10, 1.85
2.93, 1.10, 1.85
2.93, 1.10, 1.85
2.93, 1.10, 1.85
2.93, 1.10, 1.85
2.93, 1.10, 1.85
2.93, 1.10, 1.85
2.94, 1.10, 1.85
2.94, 1.10, 1.86
2.94, 1.10, 1.86
2.94, 1.10, 1.86
2.94, 1.10, 1.86
2.94, 1.10, 1.86
2.94, 1.10, 1.86
2.94, 1.10, 1.86
2.95, 1.10, 1.86
2.95, 1.10, 1.87
2.95, 1.10, 1.87
2.95, 1.10, 1.87
2.95, 1.10, 1.87
2.95, 1.10, 1.87
2.95, 1.10, 1.87
2.95, 1.10, 1.87
2.96, 1.10, 1.87
2.96, 1.10, 1.88
2.96, 1.10, 1.88
2.96, 1.10, 1.88
2.96, 1.10, 1.88
2.96, 1.10, 1.88
2.96, 1.10, 1.88
2.96, 1.10, 1.88
2.97, 1.10, 1.88
2.97, 1.10, 1.89
2.97, 1.10, 1.89
2.97, 1.10, 1.89
2.97, 1.10, 1.89
2.97, 1.10, 1.89
2.97, 1.10, 1.89
2.97, 1.10, 1.89
2.97, 1.10, 1.89
2.98, 1.10, 1.89
2.98, 1.10, 1.90
2.98, 1.10, 1.90
2.98, 1.10, 1.90
2.98, 1.10, 1.90
2.98, 1.10, 1.90
2.98, 1.10, 1.90
2.98, 1.10, 1.90
2.99, 1.10, 1.90
2.99, 1.10, 1.90
2.99, 1.10, 1.91
2.99, 1.10, 1.91
2.99, 1.10, 1.91
2.99, 1.10, 1.91
2.99, 1.10, 1.91
2.99, 1.10, 1.91
3.00, 1.10, 1.91
3.00, 1.10, 1.91
3.00, 1.10, 1.92
3.00, 1.10, 1.92
3.00, 1.10, 1.92
3.00, 1.10, 1.92
3.00, 1.10, 1.92
3.00, 1.10, 1.92
3.01, 1.10, 1.92
3.01, 1.10, 1.92
3.01, 1.10, 1.92
3.01, 1.10, 1.93
3.01, 1.10, 1.93
3.01, 1.10, 1.93
3.01, 1.10, 1.93
3.01, 1.10, 1.93
3.02, 1.10, 1.93
3.02, 1.10, 1.93
3.02, 1.10, 1.93
3.02, 1.10, 1.93
3.02, 1.10, 1.94
3.02, 1.10, 1.94
3.02, 1.10, 1.94
3.02, 1.10, 1.94
3.02, 1.10, 1.94
3.03, 1.10, 1.94
3.03, 1.10, 1.94
3.03, 1.10, 1.94
3.03, 1.10, 1.94
3.03, 1.10, 1.95
3.03, 1.10, 1.95
3.03, 1.10, 1.95
3.03, 1.10, 1.95
3.04, 1.10, 1.95
3.04, 1.10, 1.95
3.04, 1.10, 1.95
3.04, 1.10, 1.95
3.04, 1.10, 1.96
3.04, 1.10, 1.96
3.04, 1.10, 1.96
3.04, 1.10, 1.96
3.05, 1.10, 1.96
3.05, 1.10, 1.96
3.05, 1.10, 1.96
3.05, 1.10, 1.96
3.05, 1.10, 1.96
3.05, 1.10, 1.97
3.05, 1.10, 1.97
3.05, 1.10, 1.97
3.06, 1.10, 1.97
3.06, 1.10, 1.97
3.06, 1.10, 1.97
3.06, 1.10, 1.97
3.06, 1.10, 1.98
3.06, 1.10, 1.98
3.06, 1.10, 1.98
3.06, 1.10, 1.98
3.07, 1.10, 1.98
3.07, 1.10, 1.98
3.07, 1.10, 1.98
3.07, 1.10, 1.98
3.07, 1.10, 1.99
3.07, 1.10, 1.99
3.07, 1.10, 1.99
3.07, 1.10, 1.99
3.07, 1.10, 1.99
3.08, 1.10, 1.99
3.08, 1.10, 1.99
3.08, 1.10, 1.99
3.08, 1.10, 2.00
3.08, 1.10, 2.00
3.08, 1.10, 2.00
3.08, 1.10, 2.00
3.08, 1.10, 2.00
3.09, 1.10, 2.00
3.09, 1.10, 2.00
3.09, 1.10, 2.01
3.09, 1.10, 2.01
3.09, 1.10, 2.01
3.09, 1.10, 2.01
3.09, 1.10, 2.01
3.09, 1.10, 2.01
3.10, 1.10, 2.01
3.10, 1.10, 2.01
3.10, 1.10, 2.02
3.10, 1.10, 2.02
3.10, 1.10, 2.02
3.10, 1.10, 2.02
3.10, 1.10, 2.02
3.10, 1.10, 2.02
3.11, 1.10, 2.02
3.11, 1.10, 2.02
3.11, 1.10, 2.03
3.11, 1.10, 2.03
3.11, 1.10, 2.03
3.11, 1.10, 2.03
3.11, 1.10, 2.03
3.11, 1.10, 2.03
3.12, 1.10, 2.03
3.12, 1.10, 2.04
3.12, 1.10, 2.04
3.12, 1.10, 2.04
3.12, 1.10, 2.04
3.12, 1.10, 2.04
3.12, 1.10, 2.04
3.12, 1.10, 2.04
3.13, 1.10, 2.04
3.13, 1.10, 2.05
3.13, 1.10, 2.05
3.13, 1.10, 2.05
3.13, 1.10, 2.05
3.13, 1.10, 2.05
3.13, 1.10, 2.05
3.13, 1.10, 2.05
3.13, 1.10, 2.05
3.14, 1.10, 2.05
3.14, 1.10, 2.06
3.14, 1.10, 2.06
3.14, 1.10, 2.06
3.14, 1.10, 2.06
3.14, 1.10, 2.06
3.14, 1.10, 2.06
3.14, 1.10, 2.06
3.15, 1.10, 2.06
3.15, 1.10, 2.06
3.15, 1.10, 2.07
3.15, 1.10, 2.07
3.15, 1.10, 2.07
3.15, 1.10, 2.07
3.15, 1.10, 2.07
3.15, 1.10, 2.07
3.16, 1.10, 2.07
3.16, 1.10, 2.07
3.16, 1.10, 2.07
3.16, 1.10, 2.08
3.16, 1.10, 2.08
3.16, 1.10, 2.08
3.16, 1.10, 2.08
3.16, 1.10, 2.08
3.17, 1.10, 2.08
3.17, 1.10, 2.08
3.17, 1.10, 2.08
3.17, 1.10, 2.08
3.17, 1.10, 2.09
3.17, 1.10, 2.09
3.17, 1.10, 2.09
3.17, 1.11, 2.09
3.18, 1.11, 2.09
3.18, 1.11, 2.09
3.18, 1.11, 2.09
3.18, 1.11, 2.09
3.18, 1.11, 2.10
3.18, 1.11, 2.10
3.18, 1.11, 2.10
3.18, 1.11, 2.10
3.18, 1.11, 2.10
3.19, 1.11, 2.10
3.19, 1.11, 2.10
3.19, 1.11, 2.10
3.19, 1.11, 2.10
3.19, 1.11, 2.11
3.19, 1.11, 2.11
3.19, 1.11, 2.11
3.19, 1.11, 2.11
3.20, 1.11, 2.11
3.20, 1.11, 2.11
3.20, 1.11, 2.11
3.20, 1.11, 2.11
3.20, 1.11, 2.11
3.20, 1.11, 2.12
3.20, 1.11, 2.12
3.20, 1.11, 2.12
3.21, 1.11, 2.12
3.21, 1.11, 2.12
3.21, 1.11, 2.12
3.21, 1.11, 2.12
3.21, 1.11, 2.12
3.21, 1.11, 2.13
3.21, 1.11, 2.13
3.21, 1.11, 2.13
3.22, 1.11, 2.13
3.22, 1.11, 2.13
3.22, 1.11, 2.13
3.22, 1.11, 2.13
3.22, 1.11, 2.13
3.22, 1.11, 2.14
3.22, 1.11, 2.14
3.22, 1.11, 2.14
3.23, 1.11, 2.14
3.23, 1.11, 2.14
3.23, 1.11, 2.14
3.23, 1.11, 2.14
3.23, 1.11, 2.14
3.23, 1.11, 2.15
3.23, 1.11, 2.15
3.23, 1.11, 2.15
3.23, 1.11, 2.15
3.24, 1.11, 2.15
3.24, 1.11, 2.15
3.24, 1.11, 2.15
3.24, 1.11, 2.15
3.24, 1.11, 2.16
3.24, 1.11, 2.16
3.24, 1.11, 2.16
3.24, 1.11, 2.16
3.25, 1.11, 2.16
3.25, 1.11, 2.16
3.25, 1.11, 2.16
3.25, 1.11, 2.16
3.25, 1.11, 2.17
3.25, 1.11, 2.17
3.25, 1.11, 2.17
3.25, 1.11, 2.17
3.26, 1.11, 2.17
3.26, 1.11, 2.17
3.26, 1.11, 2.17
3.26, 1.11, 2.17
3.26, 1.11, 2.18
3.26, 1.11, 2.18
3.26, 1.11, 2.18
3.26, 1.11, 2.18
3.27, 1.11, 2.18
3.27, 1.11, 2.18
3.27, 1.11, 2.18
3.27, 1.11, 2.18
3.27, 1.11, 2.19
3.27, 1.11, 2.19
3.27, 1.11, 2.19
3.27, 1.11, 2.19
3.28, 1.11, 2.19
3.28, 1.11, 2.19
3.28, 1.11, 2.19
3.28, 1.11, 2.19
3.28, 1.11, 2.20
3.28, 1.11, 2.20
3.28, 1.11, 2.20
3.28, 1.11, 2.20
3.28, 1.11, 2.20
3.29, 1.11, 2.20
3.29, 1.11, 2.20
3.29, 1.11, 2.20
3.29, 1.11, 2.20
3.29, 1.11, 2.21
3.29, 1.11, 2.21
3.29, 1.11, 2.21
3.29, 1.11, 2.21
3.30, 1.11, 2.21
3.30, 1.11, 2.21
3.30, 1.11, 2.21
3.30, 1.11, 2.21
3.30, 1.11, 2.21
3.30, 1.11, 2.22
3.30, 1.11, 2.22
3.30, 1.11, 2.22
3.31, 1.11, 2.22
3.31, 1.11, 2.22
3.31, 1.11, 2.22
3.31, 1.11, 2.22
3.31, 1.11, 2.22
3.31, 1.11, 2.22
3.31, 1.11, 2.23
3.31, 1.11, 2.23
3.32, 1.11, 2.23
3.32, 1.11, 2.23
3.32, 1.11, 2.23
3.32, 1.11, 2.23
3.32, 1.11, 2.23
3.32, 1.11, 2.23
3.32, 1.11, 2.23
3.32, 1.11, 2.24
3.33, 1.11, 2.24
3.33, 1.11, 2.24
3.33, 1.11, 2.24
3.33, 1.11, 2.24
3.33, 1.11, 2.24
3.33, 1.11, 2.24
3.33, 1.11, 2.24
3.33, 1.11, 2.25
3.33, 1.11, 2.25
3.34, 1.11, 2.25
3.34, 1.11, 2.25
3.34, 1.11, 2.25
3.34, 1.11, 2.25
3.34, 1.11, 2.25
3.34, 1.11, 2.25
3.34, 1.11, 2.25
3.34, 1.11, 2.26
3.35, 1.11, 2.26
3.35, 1.11, 2.26
3.35, 1.11, 2.26
3.35, 1.11, 2.26
3.35, 1.11, 2.26
3.35, 1.11, 2.26
3.35, 1.11, 2.26
3.35, 1.11, 2.26
3.36, 1.11, 2.27
3.36, 1.11, 2.27
3.36, 1.11, 2.27
3.36, 1.11, 2.27
3.36, 1.11, 2.27
3.36, 1.11, 2.27
3.36, 1.11, 2.27
3.36, 1.11, 2.27
3.37, 1.11, 2.28
3.37, 1.11, 2.28
3.37, 1.11, 2.28
3.37, 1.11, 2.28
3.37, 1.11, 2.28
3.37, 1.11, 2.28
3.37, 1.11, 2.28
3.37, 1.11, 2.28
3.38, 1.11, 2.29
3.38, 1.11, 2.29
3.38, 1.11, 2.29
3.38, 1.11, 2.29
3.38, 1.11, 2.29
3.38, 1.11, 2.29
3.38, 1.11, 2.29
3.38, 1.11, 2.29
3.39, 1.11, 2.30
3.39, 1.11, 2.30
3.39, 1.11, 2.30
3.39, 1.11, 2.30
3.39, 1.11, 2.30
3.39, 1.11, 2.30
3.39, 1.11, 2.30
3.39, 1.11, 2.30
3.39, 1.11, 2.31
3.40, 1.11, 2.31
3.40, 1.11, 2.31
3.40, 1.11, 2.31
3.40, 1.11, 2.31