Buffer No.,Cycle No.,Cycle Time (s),Frequency (Hz),Low Pulse Width (s),High Pulse Width (s),Duty Cycle (High) (%),Duty Cycle (Low) (% ),Rise Time (s),Fall Time (s),Undershoot (%),Overshoot (%),Max Voltage (V),Min Voltage (V),Voltage Pk-Pk (V),Start Time (s),End Time (s)
429,1,0.00901621645708285,110.911268020238,0.00901560606031719,6.1039676565866E-07,0.00676998792746542,99.9932300120725,0.00901655700039797,NaN,48.6550009394887,19.7179455349038,0.1876278,-0.113712,0.3013397,6.51378862969354E-09,0.00901622297087148
403,1,1.39099339972913E-06,718910.672182006,1.20981272133586E-06,1.81180678393265E-07,13.0252723290094,86.9747276709906,1.00490176155745E-05,NaN,123.296518797881,49.8555652572736,0.1801202,-0.4428846,0.6230049,6.5158787223778E-09,1.3975092784515E-06
398,1,5.66352322851102E-05,17656.8535106531,5.64049755625111E-05,2.30256722599115E-07,0.406560922077565,99.5934390779224,5.52908076136059E-07,NaN,100.040095006371,4.25019792993867,0.1586962,-0.1522874,0.3109836,-0.000401653186856543,-0.000345017954571433
397,1,1.42252880680124E-06,702973.46192141,1.23942216311672E-06,1.83106643684517E-07,12.8719111211715,87.1280888788285,1.57512685925727E-05,NaN,127.581944885109,48.3080719615424,0.1790216,-0.441847,0.6208686,9.32088710098488E-09,1.43184969390222E-06
396,1,5.69481665155507E-05,17559.8278432183,5.67511951830116E-05,1.96971332539096E-07,0.345878268943584,99.6541217310564,0.000113454365959974,NaN,131.148786197284,36.0070857924253,0.1543626,-0.3163549,0.4707175,-0.000112936530000122,-5.59883634845715E-05
392,1,0.00703644353838473,142.117249224678,0.00703588082597636,5.6271240836524E-07,0.00799711395814618,99.9920028860419,2.21363113081098E-05,3.50892888974395E-07,79.2191440260304,0,0.242317,-0.1919614,0.4342784,7.25748846070255E-09,0.00703645079587319
383,1,1.46880918559592E-06,680823.628968716,1.22164988980071E-06,2.47159295795208E-07,16.8271888696646,83.1728111303354,4.79565702603992E-06,NaN,124.076484872868,25.1847072693753,0.2101505,-0.3485214,0.5586718,5.94247008623037E-09,1.47475165568215E-06
381,1,1.36560690049981E-06,732275.151534457,1.18585939549015E-06,1.7974750500966E-07,13.1624631468889,86.8375368531111,6.37721739698936E-05,NaN,110.283810733937,50.7345555806074,0.1801202,-0.4032106,0.5833308,5.43605502791201E-09,1.37104295552772E-06
373,1,0.00705532335404736,141.736948091307,0.00705492628157308,3.9707247428215E-07,0.00562798406758161,99.9943720159324,3.22581924056635E-07,NaN,133.363941521622,6.97887616536791,0.1854915,-0.2659383,0.4514298,6.5158787223778E-09,0.00705532986992608
372,1,1.45816305245099E-06,685794.361830198,1.15830922362603E-06,2.99853828824962E-07,20.5638065181356,79.4361934818644,0.000446243148786444,NaN,121.617369145324,45.7471886989025,0.2530595,-0.567278,0.8203375,2.84204134325701E-09,1.46100509379425E-06
371,1,8.83808500030731E-05,11314.6682789906,8.75507219763942E-05,8.30128026678935E-07,0.939262325096523,99.0607376749035,4.74249412502348E-07,NaN,34.4915593372076,9.99214019590082,0.2798547,-0.107242,0.3870968,8.95863769487757E-09,8.8389808640768E-05
348,1,0.00892744207000092,112.014168466052,0.00892706604406016,3.76025940759615E-07,0.00421202330758531,99.9957879766924,7.43583134303844E-06,3.15857534184365E-07,97.7159851221805,0,0.1843928,-0.1801813,0.3645741,7.25748846070255E-09,0.00892744932748938
341,1,1.39969508996481E-06,714441.314518822,1.22764492156196E-06,1.72050168402853E-07,12.2919748476919,87.7080251523081,6.28766078868503E-06,NaN,148.331373174872,7.57754128074549,0.1672414,-0.2305979,0.3978393,5.94246519947306E-09,1.40563755516428E-06
334,1,0.000138187615892847,7236.53848095486,0.000135831852297555,2.35576359529264E-06,1.70475739093677,98.2952426090632,0.000140008943714152,NaN,108.514755391245,11.0466064820604,0.3366802,-0.4107181,0.7473983,3.2916819533253E-08,0.000138220532712381
326,1,0.00586471209554373,170.511353960554,0.00586400056166093,7.11533882796263E-07,0.0121324605744401,99.9878675394256,8.20431935485869E-07,NaN,173.798942687546,131.893410888241,0.3505966,-0.2627644,0.613361,4.06893920869312E-09,0.00586471616448294
325,1,0.00888872857190431,112.502029048431,0.00888813843890072,5.90133003593588E-07,0.00663911603127238,99.9933608839687,1.2393392745464E-06,3.96561550522351E-07,71.7128482187748,0,0.242317,-0.1737724,0.4160894,7.75760216411539E-09,0.00888873632950648
320,1,0.00020861095978411,4793.61199926836,0.000207875810031388,7.35149752722474E-07,0.352402267590962,99.647597732409,3.58334377862486E-05,3.64872463314111E-07,80.5102408825876,0,0.3516953,-0.2831507,0.634846,2.97428905686232E-09,0.000208613934073167
318,1,1.38910741322944E-06,719886.734802725,1.17300766276837E-06,2.16099750461065E-07,15.5567343751099,84.4432656248901,9.16119973879514E-05,NaN,104.707849611351,46.3272098699255,0.196234,-0.3828242,0.5790582,5.00923943682246E-09,1.39411665266626E-06
314,1,0.00937787012674489,106.634020996738,0.00937714617200348,7.23954741416689E-07,0.00771982050969154,99.9922801794903,3.02718151021655E-07,6.15808361899346E-07,40.2770794735283,0,0.242317,-0.0975982,0.3399152,1.30256199591567E-08,0.00937788315236485
312,1,0.000106810821508944,9362.34724040826,0.000106307223408467,5.03598100476614E-07,0.471486028627207,99.5285139713728,3.36676923095066E-07,4.66709721897084E-07,48.8680494879757,0,0.1887265,-0.09222694,0.2809534,1.18979744965482E-08,0.00010682271948344
311,1,1.43514281024876E-06,696794.766944945,1.33130757216328E-06,1.0383523808548E-07,7.2351850522445,92.7648149477555,1.80166346043153E-06,NaN,128.098714692942,27.5939423207658,0.1575976,-0.2788171,0.4364147,1.42017167329612E-08,1.44934452698172E-06
299,1,1.45015584637244E-06,689581.056064765,1.20329418020572E-06,2.46861666166723E-07,17.0231128457156,82.9768871542844,6.5230047272075E-06,NaN,124.41314437401,34.3701144713275,0.2047792,-0.3881955,0.5929747,4.34594217864778E-09,1.45450178855109E-06
405,1,8.03312890001368E-05,12448.4495698594,7.97139116219426E-05,6.17377378194155E-07,0.768539115802192,99.2314608841978,0.000484231955547261,NaN,44.1281998760007,47.476681222789,0.2680746,-0.2252266,0.4933012,4.66350203479906E-09,8.03359525021716E-05
413,1,1.44700352724341E-06,691083.318853434,1.22327915989848E-06,2.23724367344927E-07,15.4612178293117,84.5387821706883,4.98949957562378E-05,NaN,128.320803407061,46.5449342715343,0.1822565,-0.4375134,0.6197699,4.08338924419088E-09,1.4510869164876E-06
427,1,5.18689248166096E-05,19279.3662782803,5.12209661026612E-05,6.4795871394834E-07,1.24922333794135,98.7507766620587,1.52721470057478E-07,2.02783405312337E-07,117.372268002639,69.2700827611499,0.2830897,-0.1962951,0.4793848,0.000386338914336486,0.000438207839153096
426,1,6.8659649796569E-05,14564.59511464,6.78629667526635E-05,7.96683043905501E-07,1.16033659691826,98.8396634030817,3.16269199228321E-07,3.70698384898595E-07,72.8026090576493,0,0.4492935,-0.3270974,0.7763909,2.99245894195452E-09,6.8662642255511E-05
425,1,0.00711829292497526,140.483120115976,0.0071178373697501,4.55555225156848E-07,0.00639978194151698,99.9936002180585,0.00711870450753173,NaN,41.6729071493591,26.7665412108676,0.1790216,-0.1018708,0.2808924,3.64361141706075E-08,0.00711832936108943
416,1,0.00244225124800613,409.458281909532,0.000606345815847345,0.00183590543215879,75.1726684000113,24.8273315999887,0.00250441666058679,NaN,54.4068656904596,25.1071906353348,0.1919004,-0.1394086,0.331309,9.3208880998803E-09,0.00244226056889423
220,1,1.4401926403226E-06,694351.555480799,1.23828689194028E-06,2.01905748382327E-07,14.0193570449784,85.9806429550216,3.66385189791692E-05,NaN,127.600072252809,40.2735892506364,0.1812189,-0.3871578,0.5683767,6.94054203821073E-09,1.44713318236082E-06
274,1,1.4320340060309E-06,698307.439480191,1.20340627759008E-06,2.28627728440822E-07,15.9652443641683,84.0347556358317,0.000222816021810431,NaN,124.803153611108,47.2604981870629,0.196234,-0.4643697,0.6606036,4.36244570784887E-09,1.43639645173875E-06
264,1,1.44130583947849E-06,693815.269881811,1.21349205349186E-06,2.27813785986631E-07,15.8060683407111,84.1939316592889,8.61306459884777E-05,NaN,115.567510916083,45.4356120565352,0.1919004,-0.4064455,0.5983459,6.92710109605649E-09,1.44823294057455E-06
224,1,0.00011339461966455,8818.76056340461,0.000112717896627014,6.76723037535751E-07,0.596785843576766,99.4032141564232,4.61902242639881E-05,3.71547794861288E-07,74.5725164889339,0,0.303415,-0.2262642,0.5296792,6.51586148692158E-09,0.000113401135526037
279,1,1.46128150629168E-06,684330.839536674,1.20800990576791E-06,2.53271600523771E-07,17.3321567017229,82.6678432982771,4.41884483872192E-05,NaN,133.912197323352,43.7851758445795,0.2133854,-0.5083163,0.7217017,5.94247689499147E-09,1.46722398318667E-06
280,1,0.00157754248364902,633.897350064952,0.00157734811731732,1.94366331707879E-07,0.012320830261147,99.9876791697389,0.0020717908243097,NaN,43.0652078800788,16.8487281074128,0.153325,-0.07940916,0.2327341,9.32088710098488E-09,0.00157755180453613
287,1,4.38772083127054E-05,22790.875683639,4.33581972573648E-05,5.19011055340634E-07,1.18287164407027,98.8171283559297,3.04898148239936E-07,3.38067948851268E-07,65.7270412612998,0,0.2186956,-0.1437422,0.3624378,4.88666597016831E-09,4.38820949786756E-05
292,1,0.00869466910006719,115.013002621603,0.0086939524815121,7.16618555084847E-07,0.0082420451754663,99.9917579548245,3.11127923907932E-07,4.49653114104552E-07,41.448310526246,0,0.2562334,-0.1062044,0.3624378,5.43605502791201E-09,0.00869467453612222
222,1,1.43299581714667E-06,697838.743166162,1.16669439172598E-06,2.66301425420686E-07,18.5835452018929,81.4164547981071,1.93819274292824E-06,NaN,110.996624199041,43.0236471021969,0.2058779,-0.4010743,0.6069521,4.08338924419088E-09,1.43707920639086E-06
275,1,0.000200459622398235,4988.53578609159,0.000199885184370675,5.74438027559142E-07,0.286560465737064,99.7134395342629,3.1138740950174E-07,3.67223982071637E-07,67.7304066771201,0,0.239082,-0.1619312,0.4010132,-0.000200447968628683,1.16537695518611E-08
213,1,0.00648561854819484,154.18729803009,0.00648495675763,6.61790564844076E-07,0.0102039699055115,99.9897960300945,2.7624202633535E-05,3.83648432956199E-07,68.6266355223146,0,0.2937712,-0.2016053,0.4953765,4.08339417561776E-09,0.00648562263158902
212,1,0.00666193277049367,150.10658835062,0.00666123865067577,6.94119817896731E-07,0.0104191957771032,99.9895808042229,1.05940222957794E-05,3.57079434786469E-07,80.084202040208,0,0.3334452,-0.2670369,0.6004822,3.63179517123882E-09,0.00666193640228884
205,1,5.82368794581203E-05,17171.2497184731,5.76469433060065E-05,5.89936152113785E-07,1.01299409859009,98.9870059014099,1.38521713633335E-05,NaN,85.6883591726516,7.57542048047444,0.2487258,-0.2305979,0.4793237,7.25748846070255E-09,5.8244136946581E-05
204,1,0.00606232529650714,164.953207076525,0.00606140292400375,9.2237250339243E-07,0.0152148302553785,99.9847851697446,0.00828795638186973,NaN,25.7097330207222,22.1465840027429,0.328074,-0.1083407,0.4364147,6.99438577624686E-09,0.00606233229089292
296,1,1.49201565507565E-06,670234.254311024,1.13074159418982E-06,3.61274060885826E-07,24.2138250799727,75.7861749200273,7.8867639986962E-06,8.3792238160608E-08,270.747345529509,58.1494739711893,0.2712485,-0.4643697,0.7356182,6.74479710898194E-09,1.49876045218463E-06
298,1,0.000107725261050769,9282.87376837936,0.000107051343352815,6.73917697953821E-07,0.625589292038213,99.3744107079618,1.43251820376759E-05,1.78825832951603E-07,126.670793967614,59.8081711494412,0.3152562,-0.2498856,0.5651418,4.08339473466521E-09,0.000107729344445503
297,1,1.96602592332842E-07,5086402.9214174,8.49496875428274E-08,1.11652904790014E-07,56.7911661108667,43.2088338891333,6.05804185555294E-05,NaN,69.5544554455445,23.9170820405303,0.15009,0.1372112,0.01287881,5.52171042647956E-08,2.51819696597637E-07
139,1,1.36716060758492E-06,731442.958824343,1.30545714416304E-06,6.17034634218815E-08,4.51325638550107,95.4867436144989,1.82231136478066E-06,NaN,127.563958223125,43.3279566643632,0.15009,-0.3378399,0.4879299,2.49781111698029E-08,1.39213871875472E-06
182,1,1.48804199187605E-06,672024.046001045,1.16894592798302E-06,3.19096063893036E-07,21.4440227920406,78.5559772079594,7.24354758267201E-05,NaN,120.697256981731,41.6004721488151,0.242317,-0.5008087,0.7431257,5.03118670629712E-09,1.49307317858235E-06
176,1,7.20127908874631E-05,13886.4219491609,7.12150061870996E-05,7.97784700363527E-07,1.10783749738328,98.8921625026167,0.000169599893767725,NaN,51.5623040835126,19.1144818749724,0.3902707,-0.2487869,0.6390576,4.72987265459042E-09,7.20175207601177E-05
175,1,0.00496589125961715,201.373720792488,0.00496521014017637,6.81119440780081E-07,0.0137159556093984,99.9862840443906,2.01158908528164E-07,3.62458521280299E-07,50.9789713531236,28.6439464666769,0.2165594,-0.08581805,0.3023774,7.48638787390427E-09,0.00496589874600502
183,1,0.00023409558111548,4271.75940372278,0.000233573145846562,5.2243526891761E-07,0.223171777283524,99.7768282227165,8.9778221932796E-06,3.5559999822023E-07,70.8526272912424,0,0.2240669,-0.1587573,0.3828242,1.44543599635873E-08,0.000234110035475443
190,1,1.67204899676249E-06,598068.598429982,1.59946423242049E-06,7.25847643420028E-08,4.34106682773921,95.6589331722608,9.51195585910942E-07,NaN,112.619430396096,0,0.153325,-0.1726737,0.3259987,9.3208880998803E-09,1.68136988486237E-06
191,1,0.000246193090485857,4061.85241846764,0.000245697891336886,4.95199148970456E-07,0.201142586086876,99.7988574139131,0.000429125789524617,NaN,76.3581008073689,16.7970460841932,0.2337108,-0.2144841,0.4481948,8.08211149616995E-09,0.000246201172597353
192,1,1.43380561796442E-06,697444.60997419,1.19278959759918E-06,2.41016020365243E-07,16.8095324321168,83.1904675678832,1.81386249201842E-06,NaN,125.187970746325,42.1410663209235,0.1972716,-0.4268319,0.6241035,6.65465697008039E-09,1.44046027493451E-06
194,1,1.42544367146939E-06,701535.96386532,1.15045974204877E-06,2.74983929420619E-07,19.2911115973567,80.7088884026433,1.82314016870346E-06,NaN,131.450539442975,45.2018356446267,0.2262032,-0.5426191,0.7688223,5.58886770768494E-09,1.43103253917708E-06
165,1,0.000514271482891572,1944.49825290203,0.000513961360603679,3.10122287892542E-07,0.060303224699303,99.9396967753007,0.00053423976308979,NaN,33.6646189007955,51.4456089468323,0.1640065,-0.113712,0.2777184,1.24921240907181E-08,0.000514283975015663
154,1,1.43898529090717E-06,694934.136101957,1.21678111782534E-06,2.2220417308183E-07,15.4417265058871,84.5582734941129,1.82009537782169E-06,NaN,128.345932327185,46.3140194676839,0.1951354,-0.4665059,0.6616413,5.03118282192141E-09,1.4440164737291E-06
158,1,0.000198915719716819,5027.2547661071,0.000198322284655355,5.9343506146379E-07,0.29833492411189,99.7016650758881,0.000199367596452452,NaN,110.935734627524,15.8399144240315,0.1822565,-0.2402417,0.4224982,9.86030396850616E-09,0.000198925580020787
161,1,0.00904770501113532,110.525265663421,0.00904699801738282,7.0699375249871E-07,0.00781406723172991,99.9921859327683,6.20983294843369E-05,3.65141982955912E-07,88.5953517407172,0,0.328074,-0.2906583,0.6187323,4.86687401399844E-09,0.00904770987800933
163,1,0.00927611364829552,107.803767603014,0.00927533602116162,7.77627133890127E-07,0.00838311348236894,99.9916168865176,2.28831316130348E-05,3.7561302853578E-07,70.8279102095073,0,0.4224372,-0.2992035,0.7216407,2.33480156082002E-09,0.00927611598309708
172,1,1.41118901600292E-06,708622.295567764,1.17982240838645E-06,2.31366607616465E-07,16.3951536606906,83.6048463393094,6.38362255599434E-05,NaN,124.406048687583,49.598890169523,0.1994079,-0.4922025,0.6916105,5.43604957585953E-09,1.41662506557878E-06
170,1,7.05747648677444E-05,14169.3706224028,6.98075023741759E-05,7.6726249356854E-07,1.08716266360416,98.9128373363958,0.000171237619124695,NaN,55.2374585107892,25.6427497460269,0.4042482,-0.3003021,0.7045503,3.27026199277183E-09,7.05780351297372E-05
141,1,0.000495221776267029,2019.29730864821,0.00049462621469157,5.95561575459464E-07,0.120261588645959,99.879738411354,3.35768794269527E-07,4.86929994341582E-07,92.419551622836,0,0.1972716,-0.1823176,0.3795892,-0.000495197064930296,2.47113367333231E-08
143,1,1.45269673653779E-06,688374.920138733,1.20267966048652E-06,2.50017076051272E-07,17.2105484760114,82.7894515239886,5.37419032385221E-05,NaN,119.877893957912,40.7074864584776,0.2015442,-0.4074831,0.6090274,5.00923943682246E-09,1.45770597597461E-06
145,1,1.45665339496169E-06,686505.110590361,1.17223216054856E-06,2.84421234413134E-07,19.5256630985035,80.4743369014965,0.000326364831132521,NaN,128.285046953662,42.68363876892,0.239082,-0.5351115,0.7741935,4.08340079571234E-09,1.4607367957574E-06
146,1,0.00792464744858433,126.188578922668,0.00792393279170267,7.14656881668542E-07,0.00901815363150583,99.9909818463685,3.28210585248237E-07,5.52526617224493E-07,34.9622171621812,0,0.242317,-0.08471938,0.3270364,9.19955831884118E-09,0.00792465664814265
203,1,0.00163468861907962,611.737298668558,0.0016343189795314,3.69639548212485E-07,0.0226122298704572,99.9773877701295,8.59165004718953E-07,3.1262023650084E-07,98.261160893579,0,0.1790216,-0.1759087,0.3549303,1.08147618742533E-08,0.00163469943384149
166,1,0.00711745576027825,140.49964392907,0.00711692781766344,5.27942614814446E-07,0.00741757493964117,99.9925824250604,6.99167497895938E-07,NaN,172.477439007441,46.2112389447542,0.2273019,-0.2681356,0.4954375,7.6741232770973E-09,0.00711746343440153
200,1,1.38963526078323E-06,719613.288623935,1.249319484023E-06,1.40315776760235E-07,10.0973097560255,89.9026902439745,0.000104942191467119,NaN,134.735308038434,50.3263267349809,0.1672414,-0.4536271,0.6208686,5.91187164402827E-09,1.39554713242726E-06
167,1,1.37333261888828E-06,728155.718612076,1.1948894650172E-06,1.78443153871085E-07,12.9934402938405,87.0065597061595,3.88483208769632E-05,NaN,98.4620775788481,48.4532478730594,0.1779839,-0.3399762,0.5179601,1.09177018723543E-08,1.38425032076063E-06
196,1,0.000231042018497512,4328.21703386723,0.000230759771449681,2.8224704783165E-07,0.122162648018368,99.8778373519816,2.67497150158988E-07,3.3273367810763E-07,84.1628920537417,4.63800538418569,0.1693777,-0.1362346,0.3056124,-0.000230998203652321,4.38148451911131E-08
195,1,1.44071203812693E-06,694101.231568873,1.19911726028934E-06,2.41594777837586E-07,16.7691232837676,83.2308767162324,2.87942694491634E-06,NaN,116.874371731204,43.8026270834884,0.2036805,-0.4235969,0.6272774,9.10352162968052E-09,1.44981555975661E-06
149,1,0.00642968228363862,155.528680249826,0.00642903627287485,6.46010763775518E-07,0.0100473201517188,99.9899526798483,2.88295445269221E-07,3.7201294581948E-07,92.9316848708781,0,0.2573321,-0.239143,0.4964751,7.25749056638306E-09,0.00642968954112919
128,1,1.29902087577774E-06,769810.5693654,1.25162917962266E-06,4.73916961550745E-08,3.64826286003299,96.351737139967,4.65185846150994E-06,NaN,97.0040632788177,47.3785592872168,0.15009,-0.2766808,0.4267708,2.84374755555976E-08,1.32745835133333E-06
96,1,0.000106712770857838,9370.94962450368,0.000106041572960207,6.71197897630473E-07,0.628976168676794,99.3710238313232,3.06622288417538E-07,3.53063423188584E-07,91.8929813703458,0,0.303415,-0.2788171,0.5822321,5.36591551819855E-09,0.000106718136773356
98,1,1.38610133993737E-06,721447.971506312,1.19845153223244E-06,1.87649807704934E-07,13.5379573122274,86.4620426877726,1.8433894506907E-06,NaN,101.22098499154,51.3671500265797,0.1726127,-0.3592639,0.5318766,4.66349980127008E-09,1.39076483973865E-06
109,1,1.41854303788135E-06,704948.650337419,1.20711426996633E-06,2.11428767915019E-07,14.9046424584196,85.0953575415804,3.37778959457598E-05,NaN,121.135233154118,47.5125192636976,0.1919004,-0.4428846,0.634785,9.32088710098488E-09,1.42786392498233E-06
87,1,0.000115217993408805,8679.19992714937,0.000114953300571348,2.64692837457039E-07,0.229732205557409,99.7702677944426,0.000534751162033038,NaN,39.1993317796229,42.4937449783701,0.1683401,-0.1147496,0.2830897,-0.000365584423224582,-0.000250366429815776
86,1,1.40445292074158E-06,712021.019168076,1.18183922861035E-06,2.22613692131229E-07,15.8505627952046,84.1494372047954,0.00010988042170446,NaN,121.099584403445,48.1511484514251,0.1951354,-0.4557634,0.6508988,4.66349521531131E-09,1.40911641595689E-06
82,1,0.00761056501056808,131.396289054938,0.00761003797056879,5.27039999296186E-07,0.0069251100091036,99.9930748899909,1.29816150642413E-05,3.33969095967288E-07,84.1543474846166,0,0.2230293,-0.1876888,0.4107181,9.5288145515317E-09,0.00761057453938263
70,1,1.38822658187915E-06,720343.503757411,1.26633288143217E-06,1.21893700446974E-07,8.78053352659297,91.219466473407,5.54321701981744E-05,NaN,118.047774829569,50.1679725528338,0.1629688,-0.3860591,0.549028,1.31602968576788E-08,1.40138687873683E-06
65,1,5.06100878867684E-05,19758.906608448,4.99455472016961E-05,6.64540685072286E-07,1.31305973338573,98.6869402666143,1.73792197476934E-05,NaN,83.570527923144,5.69267015545623,0.3195288,-0.2831507,0.6026795,4.10030546593172E-09,5.06141881922343E-05
60,1,4.63907865273487E-05,21556.0044322696,4.56805261440114E-05,7.10260383337277E-07,1.53103759712838,98.4689624028716,3.05698983435815E-07,3.56670856386316E-07,78.3138572928654,0,0.3656117,-0.2863247,0.6519364,3.89127619995117E-09,4.63946778035486E-05
43,1,6.27204371891281E-05,15943.7664151572,6.25249934873203E-05,1.95443701807839E-07,0.311610872893783,99.6883891271062,6.31689395298109E-05,NaN,91.2257178034653,12.9269908525276,0.1586962,-0.1662648,0.3249611,3.48696047948217E-08,6.27553067939229E-05
93,1,0.00112438609616456,889.374213547412,0.00112374459057054,6.41505594023126E-07,0.0570538533170584,99.9429461466829,0.00158408161103228,NaN,56.7959640958696,24.9290389298113,0.2905973,-0.2198553,0.5104526,5.03118263837706E-09,0.0011243911273472
110,1,1.40488449849524E-06,711802.287711972,1.13168527327007E-06,2.73199225225173E-07,19.4463833516417,80.5536166483583,0.000481106859091172,NaN,109.386973858442,50,0.2230293,-0.4879299,0.7109592,5.00923943682246E-09,1.40989373793206E-06
39,1,1.4087655413032E-06,709841.326098121,1.21801745819618E-06,1.90748083107014E-07,13.5400872263357,86.4599127736643,8.34188189733462E-06,NaN,112.882242352929,52.8627196404428,0.1768853,-0.4235969,0.6004822,7.02098332636565E-09,1.41578652462956E-06
27,1,0.00865559361901829,115.532226212975,0.00865482021420005,7.73404818239355E-07,0.00893531804150336,99.9910646819585,0.000496956758684893,3.49791897106277E-07,75.88315958971,0,0.4889676,-0.371044,0.8600116,2.25261089619162E-09,0.00865559587162919
22,1,5.68630046949571E-07,1758612.66101664,1.8791238243478E-08,5.49838808706093E-07,96.6953490508839,3.30465094911605,3.03212127802545E-07,3.73638097576181E-07,55.1338176476088,0,0.2508622,0.1383099,0.1125523,6.59924032635906E-09,5.7522928727593E-07
1,1,0.00636422319253172,157.128367398158,0.00636372989447857,4.93298053156178E-07,0.00775111177331198,99.9922488882267,7.57980836192199E-06,3.30508285108833E-07,79.7350618438577,0,0.2165594,-0.1726737,0.3892331,3.63179517123882E-09,0.00636422682432689
127,1,1.40154137547365E-06,713500.163105816,1.30544572491805E-06,9.60956505556034E-08,6.85642623451826,93.1435737654817,2.11878979789499E-05,NaN,134.346358440972,39.0014470160931,0.1543626,-0.3399762,0.4943388,1.62125600906847E-08,1.41775393556434E-06
10,1,0.000111628796537368,8958.26194511779,0.00011112793637035,5.00860167018054E-07,0.448683657402317,99.5513163425977,2.833442763481E-07,3.2933675021499E-07,74.4989880846273,1.53935791342497,0.2133854,-0.15656,0.3699454,4.66349980127008E-09,0.000111633460037169
12,1,2.71311056745273E-07,3685806.29184926,1.90905005546091E-07,8.04060511991823E-08,29.63611294127,70.36388705873,6.96397255895339E-07,NaN,90.0686293120255,0,0.1511887,0.1361736,0.01501511,7.25749056638306E-09,2.78568547311656E-07
115,1,0.00012665413679923,7895.51786678062,0.000126091707871435,5.6242892779494E-07,0.444066764819922,99.5559332351801,0.000128454087683274,NaN,29.4361363715328,28.8056210002907,0.2412183,-0.09973449,0.3409528,7.40390776893219E-09,0.000126661540706999
14,1,1.42651644452422E-06,701008.392744837,1.19386778406133E-06,2.32648660462888E-07,16.3088663545328,83.6911336454672,0.000212290704827543,NaN,115.910085440554,51.0290475363752,0.2047792,-0.484695,0.6894742,4.60498797012464E-09,1.43112143249434E-06
125,1,0.000112752094476799,8869.01484748708,0.000112122652970704,6.29441506095438E-07,0.558252606318506,99.4417473936815,0.00359371373467597,NaN,60.4896725126135,31.4613591901069,0.2733848,-0.2412793,0.5146642,4.08339530523801E-09,0.000112756177872105
112,1,1.45526132007919E-06,687161.808125006,1.21558297840454E-06,2.39678341674653E-07,16.4697802633557,83.5302197366443,0.000142598513310715,NaN,129.091511114422,46.2187678817547,0.1983703,-0.4761498,0.6745201,4.6417336707304E-09,1.45990305374992E-06
371,2,1.42134276777983E-06,703560.057903572,1.24845315417675E-06,1.72889613603077E-07,12.1638226557507,87.8361773442493,7.3258473577046E-05,NaN,96.9179503547935,44.1303462243706,0.1737114,-0.3013398,0.4750511,8.8389808640768E-05,8.98111514085478E-05
341,2,0.00590943862978802,169.220811425174,0.00590874627573292,6.92354055100494E-07,0.0117160714997616,99.9882839285002,8.78672464492185E-07,NaN,60.7381266636186,39.3011483940599,0.2165594,-0.09442427,0.3109836,1.40563755516428E-06,0.00591084426734319
373,2,0.00177183354240897,564.387103000889,0.00177127930617132,5.54236237645597E-07,0.0312803784542911,99.9687196215457,6.06136808685258E-07,NaN,68.8399152894476,0,0.1994079,-0.1372723,0.3366802,0.00705532986992608,0.00882716341233505
425,2,0.000497222696004685,2011.17126799574,0.000496668595289868,5.54100714816527E-07,0.11143914372149,99.8885608562785,9.37263294266757E-06,NaN,86.4169790870224,0,0.2444533,-0.2112491,0.4557024,0.00711832936108943,0.00761555205709412
299,2,0.00870411439139736,114.888195976416,0.00870328081285204,8.33578545312247E-07,0.0095768335275569,99.9904231664724,6.57729641033199E-07,NaN,29.9100136240823,0,0.3120213,-0.0933256,0.4053469,1.45450178855109E-06,0.00870556889318591
396,2,5.5993799536904E-05,17859.1202645737,5.54692058633652E-05,5.24593673538739E-07,0.936878150576286,99.0631218494237,5.66298337505361E-05,NaN,133.830977065196,17.7631594391016,0.1983703,-0.3228248,0.5211951,-5.59883634845715E-05,5.43605233247457E-09
429,2,0.00035002690692844,2856.92322563203,0.000349469087627305,5.57819301135604E-07,0.159364691712013,99.840635308288,3.65078465102212E-06,NaN,84.9046704288296,0,0.2337108,-0.1984313,0.4321421,0.00901622297087148,0.00936624987779992
325,2,0.000186441123767776,5363.62353857919,0.000186311949734386,1.29174033389884E-07,0.0692840886063195,99.9307159113937,NaN,NaN,109.748108675054,35.4156192102925,0.1564989,-0.2659383,0.4224372,0.00888873632950648,0.00907517745327425
405,2,0.000206159616555581,4850.61049640824,0.000205483857793094,6.75758762487468E-07,0.327784254636155,99.6722157453638,0.000405941431063737,NaN,47.2733809345355,40.7557956960855,0.3023774,-0.2412793,0.5436567,8.03359525021716E-05,0.000286495569057753
427,2,0.000162971215690407,6136.0528959892,0.000162650719759574,3.20495930832151E-07,0.196657998453537,99.8033420015465,3.19498639045183E-07,3.05495536170289E-07,66.058394875983,5.14598897195159,0.1758476,-0.110477,0.2863247,0.000438207839153096,0.000601179054843503
334,2,0.00918173142762533,108.911920140821,0.00917941627085476,2.31515677057747E-06,0.0252148169310615,99.9747851830689,3.35545150626397E-05,NaN,128.914689690643,0,0.3784906,-0.4879299,0.8664205,0.000138220532712381,0.00931995196033772
397,2,0.00713199456782763,140.213230743471,0.00713112734057996,8.67227247670651E-07,0.0121596734184671,99.9878403265815,6.38704338205142E-07,NaN,34.3849130694027,0,0.3463241,-0.1190832,0.4654073,1.43184969390222E-06,0.00713342641752153
416,2,6.04481899029257E-05,16543.0925492709,6.01440195722286E-05,3.04170330697046E-07,0.503191793146355,99.4968082068536,6.10676298859374E-05,NaN,75.3454036781182,31.3720796774418,0.1758476,-0.1930601,0.3689077,0.00244226056889423,0.00250270875879716
326,2,5.97701476339474E-05,16730.7600798368,5.94406176429732E-05,3.29529990974152E-07,0.551328721809933,99.4486712781901,6.33711657321498E-07,NaN,46.1041590159452,16.9963597842797,0.1768853,-0.06970428,0.2465896,0.00586471616448294,0.00592448631211689
398,2,0.000187282163526837,5339.53677792013,0.000187168535656599,1.13627870238159E-07,0.0606720192133387,99.9393279807867,5.17806124464499E-07,NaN,77.5060113143096,0.681634685939417,0.1511887,-0.1179846,0.2691733,-0.000345017954571433,-0.000157735791044595
279,2,0.006196007697581,161.394247523355,0.00619510605396767,9.01643613332232E-07,0.0145520092507994,99.9854479907492,6.75510032148584E-07,NaN,31.6449582202138,0,0.3795892,-0.1201209,0.4997101,1.46722398318667E-06,0.00619747492156419
224,2,0.00177470564393953,563.473725017395,0.00177428203375249,4.23610187033448E-07,0.0238693210043052,99.9761306789957,NaN,NaN,58.3182421940495,36.0490884958421,0.1940367,-0.1769463,0.370983,0.000113401135526037,0.00188810677946556
222,2,0.00785350848342504,127.331625363431,0.00785256694349498,9.41539930060727E-07,0.0119887809639203,99.9880112190361,6.80172886793324E-07,NaN,25.2364875174543,0,0.3613392,-0.09118931,0.4525285,1.43707920639086E-06,0.00785494556263143
297,2,0.000454954559986071,2198.02171019149,0.000398429734693952,5.65248252921189E-05,12.4242793156858,87.5757206843141,NaN,3.75923792372882E-07,78.8366298865536,0,0.1972716,-0.1555223,0.352794,2.51819696597637E-07,0.000455206379682668
213,2,1.4410226445976E-06,693951.620919356,1.32277062866483E-06,1.18252015932768E-07,8.2061178133526,91.7938821866474,NaN,NaN,79.9501335301413,47.080825680395,0.1554613,-0.2348704,0.3903317,0.00648562263158902,0.00648706365423361
280,2,5.46777436452965E-05,18288.97707424,5.44319412623009E-05,2.45802382995612E-07,0.449547414740032,99.55045258526,0.000807109704187761,NaN,75.0413717229304,11.0559434264013,0.1640065,-0.1383709,0.3023774,0.00157755180453613,0.00163222954818142
296,2,0.00573155723429101,174.472653612732,0.00573060971107507,9.47523215935936E-07,0.0165316889844012,99.9834683110156,1.0593636965952E-07,1.9748922448446E-07,55.0533830646811,137.544485887234,0.4074221,-0.09442427,0.5018464,1.49876045218463E-06,0.00573305599474319
204,2,0.000151387992703321,6605.54369037528,0.000150865255470549,5.22737232771554E-07,0.345296362965838,99.6547036370342,0.00315891904790417,NaN,44.2786770188936,48.6095017872924,0.2165594,-0.1865902,0.4031495,0.00606233229089292,0.00621372028359624
298,2,0.00181916567377633,549.702544641875,0.00181868487528094,4.80798495390572E-07,0.0264296156376182,99.9735703843624,2.73486916947289E-07,3.0691937636854E-07,86.9740070683806,3.80569023669739,0.2047792,-0.1715751,0.3763542,0.000107729344445503,0.00192689501822184
274,2,0.00773909607632456,129.214056801698,0.00773820179894056,8.94277384006345E-07,0.011555320869347,99.9884446791307,6.55210033464463E-07,NaN,34.5964581947169,0,0.3720817,-0.1287271,0.5008087,1.43639645173875E-06,0.0077405324727763
275,2,0.000311455458307041,3210.73197893413,0.000311047349275433,4.08109031607621E-07,0.131032871867443,99.8689671281326,NaN,NaN,71.3300963406701,19.7344925576468,0.1919004,-0.1705374,0.3624378,1.16537695518611E-08,0.000311467112076593
165,2,5.70885009492637E-05,17516.6624341517,5.63735366094705E-05,7.14964339793207E-07,1.25237889926137,98.7476211007386,9.89659228694628E-06,NaN,68.9013380827102,0,0.3377789,-0.2327342,0.570513,0.000514283975015663,0.000571372475964926
175,2,0.000824364300014853,1213.0559268299,0.00014207839331795,0.000682285906696904,82.7650962911191,17.2349037088809,0.000684764561872327,2.25652220266041E-07,104.496007077206,40.754164360399,0.2369457,-0.1759087,0.4128544,0.00496589874600502,0.00579026304601987
158,2,0.00064271234770031,1555.9060030169,0.000642051969887468,6.60377812842274E-07,0.102748580326047,99.897251419674,0.000643312067553612,NaN,117.869212881093,6.93348513443701,0.2015442,-0.2552568,0.4568011,0.000198925580020787,0.000841637927721097
170,2,6.91179927842127E-05,14468.0127376096,6.83565618708403E-05,7.61430913372464E-07,1.10163921534825,98.8983607846517,0.000118489567792474,NaN,52.2734947285651,27.6187237735672,0.3935057,-0.2841884,0.677694,7.05780351297372E-05,0.00013969602791395
161,2,6.22088905719541E-05,16074.8727522049,6.1792229647771E-05,4.16660924183049E-07,0.66977713370586,99.3302228662941,NaN,NaN,89.5627913246834,48.6883712488427,0.1683401,-0.2938322,0.4621723,0.00904770987800933,0.00910991876858128
176,2,6.81870079866554E-05,14665.5503669512,6.77099700960665E-05,4.7703789058893E-07,0.699602321137612,99.3003976788624,9.54944322566711E-05,NaN,46.4516130825487,55.3320692968853,0.2155217,-0.2241279,0.4396496,7.20175207601177E-05,0.000140204528746773
166,2,0.00115128048944574,868.598060305381,0.00115057182548741,7.08663958331329E-07,0.0615544139614926,99.9384455860385,9.12565838824195E-07,NaN,118.649398101953,46.9179503547935,0.2284005,-0.1844539,0.4128544,0.00711746343440153,0.00826874392384727
141,2,0.000727999626777239,1373.62707784188,0.000727639487159252,3.60139617986408E-07,0.0494697531069762,99.950530246893,NaN,NaN,73.3910853320982,12.4999962231873,0.1726127,-0.1447798,0.3173925,2.47113367333231E-08,0.000728024338113972
203,2,0.000154084952535962,6489.92639152491,0.000153753574811381,3.31377724580679E-07,0.215061704031962,99.784938295968,2.77661654095188E-06,3.5155368733903E-07,74.9062401286506,4.77327370257955,0.1704764,-0.1340983,0.3045747,0.00163469943384149,0.00178878438637745
183,2,0.000422712613675301,2365.67343308126,0.000422305666806655,4.06946868645877E-07,0.0962703395831161,99.9037296604169,0.00302024421925672,NaN,73.2225545533896,16.2626011056154,0.1876278,-0.1640675,0.3516953,0.000234110035475443,0.000656822649150744
191,2,0.000171915700069273,5816.80439655631,0.000171426828975015,4.8887109425753E-07,0.28436675304265,99.7156332469574,0.000172490539287202,NaN,68.7309818036444,21.3602832581306,0.220893,-0.1930601,0.4139531,0.000246201172597353,0.000418116872666625
200,2,0.00792689331351277,126.152826895668,0.00792597771550658,9.15598006186618E-07,0.0115505276780479,99.9884494723219,6.9825522050712E-07,NaN,28.9883973011512,0,0.3366802,-0.0975982,0.4342784,1.39554713242726E-06,0.00792828886064519
196,2,5.88972362696717E-05,16978.7253755222,5.86236084039586E-05,2.73627865713067E-07,0.464585238703243,99.5354147612968,2.19675876573612E-06,3.89500447664935E-07,77.5263916050596,0,0.1618702,-0.1254921,0.2873623,4.38148451911131E-08,5.89410511148628E-05
149,2,0.000168824899677143,5923.29687097328,0.000168375160135522,4.49739541621107E-07,0.266394081963726,99.7336059180363,NaN,NaN,113.353886998311,34.1793199756515,0.1693777,-0.2916959,0.4610736,0.00642968954112919,0.00659851444080633
195,2,0.00748825029484367,133.542544736865,0.00748738298959395,8.67305249714434E-07,0.0115822150110507,99.988417784989,6.58128514714393E-07,NaN,34.0350284650733,0,0.3624378,-0.1233558,0.4857936,1.44981555975661E-06,0.00748970011040342
127,2,0.00826404685098133,121.006090361316,0.00826328306366278,7.6378731855793E-07,0.00924229172862484,99.9907577082714,6.15795360906797E-07,NaN,42.8123506185826,0,0.2530595,-0.1083407,0.3614002,1.41775393556434E-06,0.0082654646049169
125,2,0.00230504996218725,433.830075878747,0.00230469016349946,3.5979868778968E-07,0.0156091492024871,99.9843908507975,0.00311889862472459,NaN,31.1859239120364,55.6541693389942,0.1768853,-0.1243934,0.3012787,0.000112756177872105,0.00241780614005936
87,2,0.000308386033836231,3242.6890010559,0.000308023980340595,3.62053495636368E-07,0.117402688809389,99.8825973111906,0.000416155640774011,NaN,58.2568779786181,39.1993368699725,0.1779839,-0.1705374,0.3485214,-0.000250366429815776,5.80196040204548E-05
98,2,0.000147684422934327,6771.19482292784,0.000146708543011142,9.75879923184596E-07,0.660787308366675,99.3392126916333,6.82308940625524E-07,NaN,23.8693044022146,0,0.3549303,-0.08471938,0.4396496,1.39076483973865E-06,0.000149075187774066
1,2,0.00122481500003358,816.449831176611,0.0012246526177793,1.62382254285248E-07,0.0132576964097268,99.9867423035903,NaN,NaN,87.6550156154399,27.733940537748,0.1564989,-0.1898251,0.346324,0.00636422682432689,0.00758904182436048
86,2,0.00811757971326459,123.189427800252,0.00811665678784264,9.2292542195648E-07,0.0113694654633125,99.9886305345367,6.65491124750884E-07,NaN,26.5001619767835,0,0.3763542,-0.09973449,0.4760887,1.40911641595689E-06,0.00811898882968055
93,2,6.42937017287107E-05,15553.6230316856,6.4082217495187E-05,2.11484233523683E-07,0.328934604537233,99.6710653954628,0.000436897033154833,NaN,45.1592570590751,57.8997140000179,0.1629688,-0.17481,0.3377789,0.0011243911273472,0.00118868482907591
82,2,6.78414226222427E-05,14740.2569307581,6.77052233298593E-05,1.3619929238335E-07,0.200761256351802,99.7992387436482,NaN,NaN,83.6617383257208,30.2955701722181,0.1554613,-0.1865902,0.3420514,0.00761057453938263,0.00767841596200488
27,2,1.36329290948561E-06,733518.081875238,1.20168293867712E-06,1.61609970808496E-07,11.8543835799361,88.1456164200639,NaN,NaN,63.3878382247024,66.0092390889295,0.1662038,-0.309946,0.4761498,0.00865559587162919,0.00865695916453867
22,2,0.00758334473253192,131.867933645438,0.000188435242514723,0.0073949094900172,97.5151433943606,2.48485660563935,NaN,NaN,102.16544340702,24.7688605348572,0.1887265,-0.2562944,0.4450209,5.7522928727593E-07,0.00758391996181919
112,2,0.0079540305396371,125.72242399834,0.00795310902440517,9.21515231937975E-07,0.0115855128710635,99.9884144871289,6.83633664974287E-07,NaN,23.2665898648416,0,0.3688467,-0.08581805,0.4546648,1.45990305374992E-06,0.00795549044269085
115,2,1.42009863127342E-06,704176.440972475,1.16495618142416E-06,2.55142449849256E-07,17.9665302275847,82.0334697724153,4.72033539224129E-06,NaN,70.9061426474837,48.0994423771385,0.1758476,-0.2402417,0.4160894,0.000126661540706999,0.000128081639338273
43,2,5.8645145091889E-05,17051.7098803854,5.8239502412978E-05,4.05642678911073E-07,0.691690127589395,99.3083098724106,5.55845408215354E-07,NaN,94.1393156700062,1.77494469189796,0.1790216,-0.1715751,0.3505966,6.27553067939229E-05,0.000121400451885812
110,2,0.00670335802095601,149.178963270917,0.00670231839741849,1.03962353751865E-06,0.0155089961519075,99.9844910038481,7.15195665199686E-07,NaN,28.6124777438942,0,0.4460585,-0.1276284,0.573687,1.40989373793206E-06,0.00670476791469394
299,3,6.03603342922872E-05,16567.1713340358,5.99379861572005E-05,4.22348135086653E-07,0.699711391659109,99.3002886083409,0.000317479709336458,NaN,49.1588389958983,38.4976555193198,0.1919004,-0.153386,0.3452864,0.00870556889318591,0.00876592922747819
427,3,0.000226845477948287,4408.28712586443,0.000226115557529619,7.29920418668026E-07,0.321769878451984,99.678230121548,3.85205039775101E-06,1.43211270198359E-07,142.372272457625,107.080307878677,0.3463241,-0.2381054,0.5844295,0.000601179054843503,0.00082802453279179
341,3,0.00016466202833047,6073.04555967839,0.000164442322711211,2.1970561925929E-07,0.133428223547902,99.8665717764521,5.49165049885079E-07,NaN,95.2100532645505,4.82921700056456,0.1629688,-0.1480148,0.3109836,0.00591084426734319,0.00607550629567366
326,3,0.00107960525432009,926.264480464925,0.00107933037837667,2.74875943422591E-07,0.0254607822926632,99.9745392177073,7.21159829021947E-07,NaN,170.932580807881,4.23899740018383,0.1575976,-0.2584307,0.4160283,0.00592448631211689,0.00700409156643698
371,3,7.08193817650388E-05,14120.4282652135,6.99280355858977E-05,8.91346179141128E-07,1.25861897820344,98.7413810217966,NaN,NaN,129.34825929302,8.26462235079073,0.285226,-0.4021729,0.6873989,8.98111514085478E-05,0.000160630533173587
416,3,0.000845977459206601,1182.06459181294,0.000845379483832007,5.9797537459421E-07,0.0706845517083896,99.9293154482916,NaN,NaN,76.6079118691995,0,0.2562334,-0.1962951,0.4525284,0.00250270875879716,0.00334868621800376
405,3,6.95002823699725E-05,14388.4307502044,6.87325026385205E-05,7.67779731451973E-07,1.10471454974072,98.8952854502593,NaN,NaN,63.4537237113055,17.4360141582065,0.4213996,-0.3238624,0.745262,0.000286495569057753,0.000355995851427725
398,3,0.000157743048535162,6339.42357071346,0.000157651513896122,9.15346390393894E-08,0.0580276848263054,99.9419723151737,5.01532854793791E-07,NaN,73.2959083907415,1.40337416706931,0.15009,-0.1115757,0.2616657,-0.000157735791044595,7.25749056638306E-09
397,3,0.000347787256214057,2875.32099619118,0.00034725304212344,5.34214090617581E-07,0.153603699121391,99.8463963008786,NaN,NaN,56.6795892883282,34.0500539252904,0.2284005,-0.1962951,0.4246956,0.00713342641752153,0.00748121367373559
425,3,5.48633497820892E-05,18227.10432323,5.4384948154503E-05,4.7840162758616E-07,0.871987637441599,99.1280123625584,NaN,NaN,68.8888880761276,13.6079950351665,0.2111881,-0.1684011,0.3795892,0.00761555205709412,0.00767041540687621
396,3,0.00121245833429148,824.770610022129,0.00121176782610069,6.90508190789451E-07,0.0569510861742693,99.9430489138257,NaN,NaN,68.0161943319838,0,0.2412183,-0.1640675,0.4052858,5.43605233247457E-09,0.00121246377034381
296,3,0.00016684805359323,5993.47716958071,0.000166498511206692,3.49542386537775E-07,0.209497431351491,99.7905025686485,2.46363196356424E-07,2.96810113225091E-07,116.298930566352,6.90392125671073,0.1833552,-0.199469,0.3828242,0.00573305599474319,0.00589990404833642
204,3,0.000179727470674225,5563.97970910414,0.000179101850838254,6.25619835971369E-07,0.348093607295776,99.6519063927042,NaN,NaN,59.0382383825994,32.8215542145362,0.2830897,-0.2487869,0.5318766,0.00621372028359624,0.00639344775427046
298,3,0.000122551232257496,8159.85267205534,0.000122041142543603,5.10089713892789E-07,0.416225691489601,99.5837743085104,6.60958525651673E-06,2.8472649356878E-07,109.282181994635,16.8626228181731,0.2305368,-0.2155828,0.4461196,0.00192689501822184,0.00204944625047933
297,3,0.000176994898814907,5649.88034511521,0.00017683076266695,1.64136147957363E-07,0.0927349596267227,99.9072650403733,NaN,NaN,38.6138613861386,23.3601456822419,0.1511887,-0.0761742,0.2273629,0.000455206379682668,0.000632201278497575
222,3,0.000305028090864587,3278.38658126715,0.000304735287564462,2.9280330012503E-07,0.0959922410080637,99.9040077589919,NaN,NaN,39.4763508358675,54.0033799248301,0.1662038,-0.1426435,0.3088473,0.00785494556263143,0.00815997365349602
274,3,0.000207634904809567,4816.1459216944,0.000207156195817441,4.78708992125362E-07,0.2305532360103,99.7694467639897,NaN,NaN,47.8510513705699,46.6863527072391,0.1983703,-0.178045,0.3764153,0.0077405324727763,0.00794816737758587
224,3,5.99465562469848E-05,16681.5253887132,5.95852564218738E-05,3.61299825111074E-07,0.602703220552801,99.3972967794472,NaN,NaN,47.3747703915531,42.4059556902476,0.174749,-0.1437422,0.3184912,0.00188810677946556,0.00194805333571255
279,3,8.66317350233141E-05,11543.114076278,8.60718310264205E-05,5.59903996893638E-07,0.646303570790724,99.3536964292093,0.000648711068745846,NaN,58.4820711097621,36.7261628240653,0.2401807,-0.2219916,0.4621723,0.00619747492156419,0.0062841066565875
280,3,0.00043852242797966,2280.38507541599,0.000438249459591249,2.72968388410856E-07,0.062247303899247,99.9377526961008,0.00107603433538404,NaN,40.1522652341602,10.460116269128,0.1651051,-0.0740379,0.239143,0.00163222954818142,0.00207075197616108
165,3,0.000379988755428876,2631.65682066393,0.000379504476779905,4.84278648971333E-07,0.127445520966732,99.8725544790333,0.00105708235326923,NaN,41.9226594581355,37.4774152552617,0.2111881,-0.1416059,0.352794,0.000571372475964926,0.000951361231393803
166,3,0.000574184015863228,1741.60194706326,0.000573875711681217,3.08304182010388E-07,0.0536943163677038,99.9463056836323,6.59740462554195E-07,NaN,153.160590175437,6.9100905506943,0.1662038,-0.2381054,0.4043092,0.00826874392384727,0.0088429279397105
183,3,0.000215048406698991,4650.11582903623,0.000214632134996293,4.16271702698254E-07,0.193571163389701,99.8064288366103,0.0026121055624827,NaN,67.5020441414855,17.7063452346315,0.1843928,-0.1512497,0.3356426,0.000656822649150744,0.000871871055849735
175,3,0.000692135199285978,1444.80442698424,0.000691650986906798,4.84212379180463E-07,0.0699592189040503,99.930040781096,1.97071835923018E-07,2.57736081589813E-07,84.7353124643438,26.7585178620414,0.2133854,-0.1426435,0.3560289,0.00579026304601987,0.00648239824530585
149,3,0.000111320171210508,8983.09793387744,0.000110617740142405,7.02431068103082E-07,0.631000707656812,99.3689992923432,NaN,NaN,64.1840555567394,13.3301743490632,0.2230293,-0.1651662,0.3881955,0.00659851444080633,0.00670983461201684
195,3,0.000448438032927305,2229.9625066862,0.000447758486139133,6.79546788171989E-07,0.151536385916256,99.8484636140837,NaN,NaN,53.8565189273106,19.5351931254597,0.2916349,-0.1951964,0.4868313,0.00748970011040342,0.00793813814333073
93,3,0.000171177576485923,5841.88665670376,0.00017055424429656,6.23332189362549E-07,0.364143599973102,99.6358564000269,0.000598136173678203,NaN,74.8028996031354,23.825289025663,0.2948698,-0.2895596,0.5844294,0.00118868482907591,0.00135986240556183
1,3,0.000559006535898248,1788.88784975141,5.57810157194895E-05,0.000503225520178759,90.0214018732613,9.97859812673869,NaN,NaN,91.1217547422248,29.7068778120384,0.1522263,-0.1973327,0.349559,0.00758904182436048,0.00814804836025873
87,3,0.000107106137279409,9336.53313807114,0.000106610378335033,4.95758944376584E-07,0.462866981266714,99.5371330187333,NaN,NaN,56.7973271184915,28.9407857952368,0.2080142,-0.1662648,0.374279,5.80196040204548E-05,0.000165125741299864
86,3,0.000186804238094153,5353.19760516345,0.000186412488762224,3.91749331928731E-07,0.209711158550527,99.7902888414495,NaN,NaN,31.6412599489419,51.5731425942876,0.1822565,-0.1190832,0.3013397,0.00811898882968055,0.0083057930677747
27,3,5.2856543399234E-05,18919.1334826199,5.19336321940112E-05,9.22911205222809E-07,1.74606802842159,98.2539319715784,NaN,NaN,49.3446497839432,33.5538627986822,0.3249001,-0.2412793,0.5661794,0.00865695916453867,0.00870981570793791
82,3,0.000200009343992855,4999.76641109189,0.000199582908721223,4.26435271632525E-07,0.213207674761314,99.7867923252387,NaN,NaN,86.562667094089,17.7887227178342,0.1833552,-0.1930601,0.3764153,0.00767841596200488,0.00787842530599773
43,3,0.000724000995809838,1381.21356985351,0.000723796119705025,2.0487610481329E-07,0.0282977656106845,99.9717022343893,0.000795095006547377,NaN,121.801747015725,12.9269908525276,0.1586962,-0.2219916,0.3806879,0.000121400451885812,0.00084540144769565
98,3,1.48783829376879E-06,672116.051985016,1.19884456579059E-06,2.88993727978195E-07,19.4237323497136,80.5762676502864,2.06314993927879E-05,NaN,116.921758904228,38.0739449395074,0.2197943,-0.4149907,0.634785,0.000149075187774066,0.000150563026067834
125,3,0.000275858573701007,3625.04593054216,0.000275670744125513,1.87829575494253E-07,0.0680890838280904,99.9319109161719,NaN,NaN,36.5723051133555,59.4185124903542,0.1618702,-0.1458785,0.3077487,0.00241780614005936,0.00269366471376037
115,3,1.33766183897007E-06,747573.094235798,4.31701551994432E-07,9.05960286975635E-07,67.7271534989127,32.2728465010873,NaN,NaN,37.3446218354716,0,0.3388165,0.1265297,0.2122868,0.000128081639338273,0.000129419301177243
112,3,0.000226289311302348,4419.12167324549,0.000225828870041862,4.60441260485486E-07,0.203474595346788,99.7965254046532,0.00114761262217791,NaN,43.3228507837713,45.9374511673064,0.1994079,-0.1597949,0.3592029,0.00795549044269085,0.0081817797539932
110,3,6.249845677776E-05,16000.3950746485,6.20718730328252E-05,4.26583744934754E-07,0.682550845137913,99.3174491548621,NaN,NaN,39.1899281905062,57.2112756118512,0.1908628,-0.17481,0.3656728,0.00670476791469394,0.0067672663714717
398,4,0.00046495794048107,2150.73216937718,0.000464714430925486,2.43509555584374E-07,0.0523723834746055,99.9476276165254,1.10788566832452E-06,NaN,64.8356026428248,2.12509407055938,0.1554613,-0.09869686,0.2541581,7.25749056638306E-09,0.000464965197971637
397,4,0.000199614251455683,5009.66234979475,0.000199100870314525,5.13381141158294E-07,0.257186617395537,99.7428133826045,NaN,NaN,60.0810690778108,34.9841408100213,0.2251656,-0.2080752,0.4332408,0.00748121367373559,0.00768082792519127
416,4,6.54045248064238E-05,15289.4620511299,6.50258112376342E-05,3.78713568789657E-07,0.579032673825743,99.4209673261743,NaN,NaN,30.9909486952774,31.3720796774418,0.1758476,-0.07940916,0.2552568,0.00334868621800376,0.00341409074281018
299,4,7.75218510956719E-05,12899.5887722788,7.70104818396903E-05,5.11369255981609E-07,0.659645311294893,99.3403546887051,0.00025030362768344,NaN,66.686224700316,24.7456993975756,0.2348094,-0.2080752,0.4428846,0.00876592922747819,0.00884345107857387
425,4,6.40144567465349E-05,15621.4713179477,6.38077477467169E-05,2.06708999818048E-07,0.322909871181929,99.6770901288181,NaN,NaN,54.4069877313482,33.7827700013795,0.1618702,-0.1329997,0.2948698,0.00767041540687621,0.00773442986362274
341,4,5.77162507965859E-05,17326.1427448637,5.70867790927257E-05,6.29471703860254E-07,1.09063165949353,98.9093683405065,7.83732120122199E-07,NaN,131.056146798136,68.9831234669788,0.2627033,-0.2037416,0.4664449,0.00607550629567366,0.00613322254647024
405,4,6.54499789979335E-05,15278.8437110358,6.51198261458101E-05,3.3015285212342E-07,0.504435382834644,99.4955646171654,NaN,NaN,33.4130595662779,65.3432187906293,0.1768853,-0.1705374,0.3474227,0.000355995851427725,0.000421445830425659
427,4,0.000288463080582873,3466.64813389423,0.000288084439745836,3.78640837037829E-07,0.131261455113334,99.8687385448867,2.0839996756495E-07,2.79809514810926E-07,118.649636981081,12.8467159007864,0.1887265,-0.1984313,0.3871578,0.00082802453279179,0.00111648761337466
326,4,0.000197140691681585,5072.51948580542,0.000196671268774655,4.69422906930299E-07,0.238115684248736,99.7618843157513,8.11288170044118E-07,NaN,155.34920701566,17.7230428000822,0.1779839,-0.2348704,0.4128544,0.00700409156643698,0.00720123225811856
274,4,0.000375059834049693,2666.2412479698,0.000374655749337536,4.04084712156416E-07,0.107738732722544,99.8922612672775,NaN,NaN,52.4606309224622,48.4251968503937,0.1919004,-0.1951964,0.3870968,0.00794816737758587,0.00832322721163556
279,4,0.000548364609206489,1823.60419182968,0.000381181884976601,0.000167182724229888,30.487511670713,69.512488329287,0.000549173704657706,NaN,41.5340081547309,50.8602681295866,0.1865291,-0.1576586,0.3441877,0.0062841066565875,0.00683247126579399
298,4,0.000194497362633256,5141.45789156844,0.000193811871574809,6.85491058446345E-07,0.352442341204856,99.6475576587952,1.40659508738542E-06,2.15313069170438E-07,104.919555399649,47.308174926254,0.2905973,-0.2069765,0.4975738,0.00204944625047933,0.00224394361311259
280,4,0.000313401449939343,3190.79570370062,0.000313047433786629,3.54016152713434E-07,0.112959321911865,99.8870406780881,0.00063773170252062,NaN,62.8268745928083,8.14300078048266,0.1693777,-0.1158483,0.285226,0.00207075197616108,0.00238415342610043
296,4,0.000422404779293043,2367.39745623534,0.000421979334446043,4.25444846999593E-07,0.100719704855527,99.8992802951445,2.62829258080612E-07,3.19999980403531E-07,83.1672605068709,10.6405750561398,0.1897641,-0.1426435,0.3324076,0.00589990404833642,0.00632230882762946
204,4,4.38525260176344E-05,22803.7034764627,4.31236337797248E-05,7.28892237909611E-07,1.6621442459586,98.3378557540414,NaN,NaN,73.044607910254,12.2103146404085,0.3699454,-0.3078097,0.6777551,0.00639344775427046,0.0064373002802881
195,4,0.000157255050665628,6359.09623104127,0.000156703345411393,5.51705254234897E-07,0.35083468028508,99.6491653197149,NaN,NaN,36.9989914808293,36.982147196107,0.2284005,-0.1340983,0.3624989,0.00793813814333073,0.00809539319399635
149,4,0.000181331142384777,5514.7725142438,0.000181111518566072,2.19623818705113E-07,0.121117539886822,99.8788824601132,NaN,NaN,71.6793141850168,38.3301743490632,0.1586962,-0.1844539,0.3431501,0.00670983461201684,0.00689116575440162
175,4,0.000113580369938711,8804.33828961474,0.000113155196001357,4.25173937354181E-07,0.374337517639368,99.6256624823606,1.89239890302333E-07,2.47194327221943E-07,130.601880321105,17.8390089574212,0.1983703,-0.2198553,0.4182256,0.00648239824530585,0.00659597861524456
183,4,0.000507077713259141,1972.08430552528,0.000506761010632486,3.16702626654329E-07,0.0624564279543635,99.9375435720456,NaN,NaN,50.7491150920653,21.0569350347063,0.1768853,-0.113712,0.2905973,0.000871871055849735,0.00137894876910888
165,4,0.000160966757004859,6212.46286256369,0.00016089715750852,6.95994963392918E-08,0.0432384286260987,99.9567615713739,NaN,NaN,30.8095401279233,53.3429701381104,0.1575976,-0.1040681,0.2616657,0.000951361231393803,0.00111232798839866
166,4,0.000343968402535755,2907.24378352181,0.000343270634142771,6.97768392983814E-07,0.202858282284019,99.797141717716,9.10296613405512E-07,NaN,135.217903483523,33.0977692534049,0.2069155,-0.2102115,0.417127,0.0088429279397105,0.00918689634224625
98,4,0.00880599564613099,113.55899323427,0.00880507366476359,9.21981367398966E-07,0.0104699275862582,99.9895300724137,6.45341782645986E-07,NaN,26.8959597154637,1.22097659486982,0.3505966,-0.0954619,0.4460585,0.000150563026067834,0.00895655867219882
125,4,0.00011719849365975,8532.53287455375,0.000116744651189695,4.53842470055608E-07,0.387242579561816,99.6127574204382,NaN,NaN,51.3542499122839,48.1254755647154,0.2069155,-0.2048402,0.4117557,0.00269366471376037,0.00281086320742012
112,4,0.000109130025495797,9163.38098022814,0.000108694364419707,4.35661076089722E-07,0.399212841846628,99.6007871581534,0.000910121466623675,NaN,65.4145270506661,44.7790851360997,0.2036805,-0.2412793,0.4449599,0.0081817797539932,0.008290909779489
27,4,0.000274484767476461,3643.18941700747,0.000273825475931078,6.59291545383398E-07,0.24019239808633,99.7598076019137,NaN,NaN,38.1600288510491,50.0062412274642,0.2444533,-0.1865902,0.4310434,0.00870981570793791,0.00898430047541437
43,4,0.000233046357028717,4290.99176983392,0.000161899538862751,7.11468181659655E-05,30.5290411200028,69.4709588799972,7.13726287676962E-05,NaN,108.271936891001,0,0.1822565,-0.1973327,0.3795892,0.00084540144769565,0.00107844780472437
110,4,0.000251137257258058,3981.88628369244,0.000250616564427842,5.20692830216322E-07,0.207333963865537,99.7926660361345,NaN,NaN,25.0136832165661,54.3377132766152,0.2036805,-0.1115757,0.3152562,0.0067672663714717,0.00701840362872976
82,4,0.000762166468992973,1312.04932345196,0.000761666855102431,4.99613890541858E-07,0.0655518067072648,99.9344481932927,NaN,NaN,79.8303241058255,22.6053619367791,0.1726127,-0.178045,0.3506577,0.00787842530599773,0.0086405917749907
93,4,0.000196066353758777,5100.31415808503,0.000195557941041283,5.08412717494921E-07,0.259306458118983,99.740693541881,0.000668209056189195,NaN,52.9170643165826,43.2198033199649,0.2197943,-0.2048402,0.4246345,0.00135986240556183,0.00155592875932061
86,4,7.36597545394225E-05,13575.9344604495,7.34802485788284E-05,1.79505960594059E-07,0.243696115628498,99.7563038843715,NaN,NaN,36.1985090217228,58.6928319156108,0.1554613,-0.1362346,0.2916959,0.0083057930677747,0.00837945282231413
87,4,0.000278521813557947,3590.38305555177,0.000277853484900484,6.68328657462276E-07,0.239955588729222,99.7600444112708,NaN,NaN,68.1401124845101,0,0.2927336,-0.199469,0.4922025,0.000165125741299864,0.000443647554857811
299,5,0.000111516380360209,8967.292488959,0.000111108419455249,4.07960904960647E-07,0.365830475884252,99.6341695241157,0.000532145392108194,NaN,35.4068828741541,42.9577515908771,0.1779839,-0.110477,0.2884609,0.00884345107857387,0.00895496745893408
425,5,0.00118098808089545,846.748596515705,0.00118066951418589,3.1856670956211E-07,0.0269745914218343,99.9730254085782,NaN,NaN,60.9987478802932,29.3882632354161,0.1726127,-0.1491134,0.3217261,0.00773442986362274,0.00891541794451819
341,5,0.000273440274092744,3657.10575487803,0.00027329513131683,1.45142775913494E-07,0.0530802481072212,99.9469197518928,5.24091731912875E-07,NaN,87.632511983805,0,0.1554613,-0.1362346,0.2916959,0.00613322254647024,0.00640666282056299
397,5,5.9918840486636E-05,16689.2415119921,5.97317859177948E-05,1.87054568841216E-07,0.312179887531262,99.6878201124687,NaN,NaN,33.1335907531272,55.7278829936939,0.153325,-0.1147496,0.2680746,0.00768082792519127,0.00774074676567791
326,5,5.54385738911608E-05,18037.982036898,5.47850774710694E-05,6.5349642009143E-07,1.17877566867864,98.8212243313214,9.41072493156406E-07,NaN,126.281787823541,27.6544134880568,0.1929991,-0.1909238,0.3839228,0.00720123225811856,0.00725667083200972
427,5,0.000430914428208598,2320.64636163892,0.000430697459804834,2.16968403763795E-07,0.0503506936785055,99.9496493063215,1.09083572917969E-05,3.9307017537008E-07,78.2481786684263,2.55473795688323,0.1629688,-0.1308634,0.2938322,0.00111648761337466,0.00154740204158326
280,5,0.000323709750902821,3089.18714129252,0.000323400047446413,3.09703456407694E-07,0.0956731935148498,99.9043268064851,NaN,NaN,79.1128761537737,4.07150443084324,0.1768853,-0.1458785,0.3227637,0.00238415342610043,0.00270786317700325
296,5,0.000434957017151883,2299.07774921771,0.000434633455568731,3.23561583152367E-07,0.0743893236327262,99.9256106763673,1.27108857330815E-06,3.3976379358331E-07,81.2811448994714,2.52669153234057,0.1758476,-0.1394086,0.3152562,0.00632230882762946,0.00675726584478134
274,5,9.1775937331744E-05,10896.1022798959,9.11685341739542E-05,6.07403157789829E-07,0.661832693240973,99.338167306759,NaN,NaN,42.3720477446956,34.580054495843,0.2434156,-0.1576586,0.4010742,0.00832322721163556,0.00841500314896731
204,5,0.000125942389485559,7940.13837663978,0.00012549215642771,4.50233057848991E-07,0.357491278105865,99.6425087218941,NaN,NaN,34.1106579544413,53.9542323864851,0.1940367,-0.1437422,0.3377789,0.0064373002802881,0.00656324266977366
279,5,0.000111922332472833,8934.76733289787,0.000111188201583646,7.34130889186273E-07,0.655928868677278,99.3440711313227,NaN,NaN,78.5496016652716,2.54060230192572,0.3699454,-0.2981658,0.6681112,0.00683247126579399,0.00694439359826682
298,5,5.04764053916324E-05,19811.2364032517,4.99842465460534E-05,4.92158845578992E-07,0.975027523771687,99.0249724762283,2.7924921882326E-07,3.18468456739131E-07,79.9195553996487,8.16831683168317,0.2133854,-0.1576586,0.371044,0.00224394361311259,0.00229442001850422
195,5,5.66442358228506E-05,17654.046973595,5.59527148297281E-05,6.91520993122488E-07,1.22081440958115,98.7791855904188,NaN,NaN,74.5705653011024,10.0707279058036,0.3259377,-0.2702719,0.5962096,0.00809539319399635,0.00815203742981921
165,5,0.00013441350808411,7439.72844882704,0.000134010896946959,4.0261113715156E-07,0.299531753088106,99.7004682469119,NaN,NaN,26.9967481849709,47.307556093721,0.1779839,-0.09118931,0.2691733,0.00111232798839866,0.00124674149648277
149,5,0.00160215125002601,624.160796294212,0.00160149742331077,6.53826715234229E-07,0.0408093003219025,99.9591906996781,NaN,NaN,82.0920277783697,17.5047471623574,0.2122868,-0.2112491,0.4235359,0.00689116575440162,0.00849331700442763
175,5,0.000273316156080516,3658.76651545404,0.000272841813257563,4.74342822952625E-07,0.173550963746501,99.8264490362535,2.3396454957008E-07,2.90483812052933E-07,72.6250901447122,20.3770821801995,0.2026429,-0.1222572,0.3249001,0.00659597861524456,0.00686929477132508
183,5,0.00118467709278938,844.111873257758,0.00118434498472254,3.32108066846077E-07,0.0280336362429454,99.971966363757,NaN,NaN,58.4037042271084,21.0569350347063,0.1768853,-0.1308634,0.3077486,0.00137894876910888,0.00256362586189826
93,5,0.0001106255652182,9039.5018369179,0.000109819887513509,8.05677704690966E-07,0.728292509151779,99.2717074908482,NaN,NaN,55.4083891583002,3.05897105909301,0.3752556,-0.2144841,0.5897397,0.00155592875932061,0.00166655432453881
125,5,8.19760525834776E-05,12198.6844753434,8.14778907645797E-05,4.98161818897943E-07,0.607691884639915,99.3923081153601,NaN,NaN,33.6189772511956,48.661055575845,0.2047792,-0.1340983,0.3388775,0.00281086320742012,0.00289283926000359
86,5,0.000126895767521482,7880.48348287668,0.000126414027980767,4.81739540715218E-07,0.379634049365487,99.6203659506345,NaN,NaN,31.6412599489419,46.448262097203,0.2015442,-0.1190832,0.3206275,0.00837945282231413,0.00850634858983561
82,5,0.000366388050107202,2729.34665775101,0.000366019717559786,3.68332547415542E-07,0.100530720722953,99.899469279277,NaN,NaN,106.759716102654,20.1970490085648,0.1779839,-0.2381054,0.4160894,0.0086405917749907,0.00900697982509791
112,5,0.000503921621687265,1984.43558871662,0.0005035251188849,3.96502802365445E-07,0.078683427203986,99.921316572796,NaN,NaN,44.7790810961664,49.1312285065449,0.1876278,-0.1651662,0.352794,0.008290909779489,0.00879483140117626
110,5,5.98603110155901E-05,16705.5597111675,5.92672461678439E-05,5.93064847746218E-07,0.990748022661892,99.0092519773381,NaN,NaN,37.5068424434403,44.2391921129619,0.2487258,-0.1673025,0.4160283,0.00701840362872976,0.00707826393974535
326,6,0.000257929486827977,3877.02861079601,0.000257510873257052,4.18613570925264E-07,0.162297679134473,99.8377023208655,7.16239402502594E-07,NaN,92.935001047693,21.9620500562679,0.1843928,-0.1405072,0.3249001,0.00725667083200972,0.0075146003188377
341,6,6.91837162171876E-05,14454.2683550088,6.86372403703867E-05,5.46475846800905E-07,0.789890853919093,99.2101091460809,4.47383824592196E-06,NaN,113.820181101389,44.8370672195368,0.2251656,-0.1769463,0.4021119,0.00640666282056299,0.00647584653678018
299,6,6.06928964994799E-05,16476.3927522979,6.01760962303504E-05,5.16800269129494E-07,0.851500420867083,99.1484995791329,NaN,NaN,51.5649451521802,29.205795469133,0.220893,-0.1608936,0.3817866,0.00895496745893408,0.00901566035543356
427,6,0.000297627173392387,3359.90826577389,0.000297073570758015,5.53602634372884E-07,0.186005406718365,99.8139945932816,1.27474953715164E-06,2.43851933002257E-07,103.905115231755,39.1240893342132,0.2326731,-0.1737724,0.4064455,0.00154740204158326,0.00184502921497565
397,6,0.00100656308305805,993.479710145823,0.00100638305115648,1.8003190157493E-07,0.0178858041393663,99.9821141958606,NaN,NaN,33.4508261846719,53.5601018079193,0.1608325,-0.1158483,0.2766808,0.00774074676567791,0.00874730984873596
298,6,5.94196695680766E-05,16829.4439748493,5.89223194984098E-05,4.97350069666742E-07,0.837012513334381,99.1629874866656,2.48070469413293E-07,2.76278855706764E-07,97.8650961772914,11.4170782637176,0.2197943,-0.1930601,0.4128544,0.00229442001850422,0.0023538396880723
279,6,0.000402759145321903,2482.87347814475,0.000263325965757997,0.000139433179563906,34.6194943512617,65.3805056487384,NaN,NaN,32.4971847547531,59.0448649950251,0.1554613,-0.1233558,0.2788171,0.00694439359826682,0.00734715274358873
274,6,0.000113966113815308,8774.5380317222,0.000113462068833212,5.04044982096302E-07,0.442276186510274,99.5577238134897,NaN,NaN,66.289369578139,37.1883187081703,0.2337108,-0.2466506,0.4803613,0.00841500314896731,0.00852896926278261
204,6,0.000150294188957452,6653.61719529356,0.000149957242168985,3.3694678846629E-07,0.224191494563825,99.7758085054362,NaN,NaN,38.1807651919854,58.0243360879174,0.1768853,-0.1608936,0.3377789,0.00656324266977366,0.00671353685873111
296,6,0.000137679810714612,7263.22904432837,0.000137162616738206,5.17193976405476E-07,0.375649831097994,99.624350168902,1.16921430172272E-06,2.57161786048135E-07,84.4128088773427,26.903919519108,0.217658,-0.1447798,0.3624378,0.00675726584478134,0.00689494565549596
165,6,0.000171133268363294,5843.39917985512,0.000170624422381058,5.08845982236713E-07,0.297339019527458,99.7026609804725,NaN,NaN,30.8095401279233,37.7846066050243,0.2101505,-0.1040681,0.3142186,0.00124674149648277,0.00141787476484607
175,6,0.000109896288788339,9099.48835420648,0.000109170109782933,7.26179005405489E-07,0.660785740275649,99.3392142597244,1.1329333833663E-07,1.43376751771465E-07,175.815803559724,116.569967920123,0.3645741,-0.2959685,0.6605426,0.00686929477132508,0.00697919106011342
183,6,4.72188595641333E-08,21177978.6557908,2.69302976906374E-08,2.02885618734959E-08,42.9670730313588,57.0329269686412,NaN,NaN,64.1242146390124,33.0155301550355,0.15009,0.1436811,0.006408885,0.00256362586189826,0.00256367308075782
195,6,6.77735679080072E-05,14755.0148364235,6.76591060871663E-05,1.14461820840961E-07,0.168888586471242,99.8311114135288,NaN,NaN,36.6958560263851,57.6961935698988,0.153325,-0.1329997,0.2863247,0.00815203742981921,0.00821981099772721
125,6,0.000227840335672408,4389.03847753198,0.000227380179007653,4.6015666475439E-07,0.20196453072998,99.79803546927,NaN,NaN,45.4475904521847,48.9364945896949,0.2036805,-0.1812799,0.3849605,0.00289283926000359,0.003120679595676
93,6,6.48216553638774E-05,15426.9432705241,6.41434198020115E-05,6.78235561865853E-07,1.04631015369566,98.9536898463043,NaN,NaN,59.287292787054,21.0659065663588,0.3055513,-0.2294992,0.5350505,0.00166655432453881,0.00173137597990269
82,6,1.54121880077684E-07,6488371.40771936,3.94861751334269E-08,1.14635704944258E-07,74.3799030264074,25.6200969735926,NaN,NaN,62.014228273601,31.2534220568774,0.153325,0.1383099,0.01501511,0.00900697982509791,0.00900713394697798
86,6,0.000327740462969963,3051.19481109554,0.000327167117670753,5.73345299209604E-07,0.174938820191436,99.8250611798086,NaN,NaN,40.4638356244872,43.5938993786442,0.2122868,-0.1522874,0.3645741,0.00850634858983561,0.00883408905280557
112,6,0.000286793830363865,3486.82535719568,5.73366940733368E-05,0.000229457136290528,80.0076961207318,19.9923038792682,NaN,NaN,55.8331950329505,39.533344882156,0.2230293,-0.2059389,0.4289682,0.00879483140117626,0.00908162523154013
110,6,0.000511619176466656,1954.57880782773,0.000173587161154715,0.000338032015311941,66.0710213496018,33.9289786503982,NaN,NaN,30.2955668315891,63.4646959984141,0.1629688,-0.135136,0.2981048,0.00707826393974535,0.007589883116212
427,7,0.000204694184830244,4885.3366344008,0.000204486961045027,2.07223785217252E-07,0.101235794944104,99.8987642050559,1.93396355040588E-06,5.00721933065912E-07,64.7810258975414,3.83211584529512,0.1608325,-0.1083407,0.2691733,0.00184502921497565,0.00204972339980589
341,7,0.000932490181850106,1072.39735008893,0.000932143803297873,3.46378552233857E-07,0.0371455441543229,99.9628544558457,2.11811926937883E-06,NaN,92.4617193992426,13.1134696913493,0.1758476,-0.1437422,0.3195898,0.00647584653678018,0.00740833671863028
326,7,2.05282990117968E-07,4871324.21164238,1.79710858232845E-07,2.55721318851224E-08,12.4570145195309,87.5429854804691,6.23371989717618E-07,NaN,92.1679379923443,4.23899740018383,0.1575976,0.1393475,0.01825008,0.0075146003188377,0.00751480560182782
299,7,5.98849431131775E-05,16698.6883181985,5.92345063895675E-05,6.50436723610009E-07,1.08614401182738,98.9138559881726,NaN,NaN,75.9585235330615,2.75821762160047,0.303415,-0.2370067,0.5404218,0.00901566035543356,0.00907554529854673
298,7,0.00115333914711814,867.047652460863,0.00115272706634374,6.12080774405055E-07,0.053070319856433,99.9469296801436,5.20974075016905E-06,2.09636796256064E-07,107.642327676876,42.3886195266052,0.2808924,-0.2123478,0.4932402,0.0023538396880723,0.00350717883519044
274,7,0.00026573520856143,3763.14454307183,0.000265461009789334,2.74198772095766E-07,0.103184961292918,99.8968150387071,NaN,NaN,42.3720477446956,55.0524954407249,0.1672414,-0.1576586,0.3249,0.00852896926278261,0.00879470447134404
204,7,0.000232753563499868,4296.38964475217,0.000232354084442697,3.99479057170554E-07,0.171631768452293,99.8283682315477,NaN,NaN,31.561411231144,57.5173814044644,0.1790216,-0.1329997,0.3120213,0.00671353685873111,0.00694629042223097
296,7,6.06266384147423E-05,16494.3995931141,6.00079579527475E-05,6.18680461994883E-07,1.0204762760596,98.9795237239404,2.29419570382024E-06,1.99193413263042E-07,107.544488493638,50.6405802689479,0.2583697,-0.1844539,0.4428236,0.00689494565549596,0.0069555722939107
279,7,1.69882928973374E-07,5886406.63333944,5.70779575062574E-08,1.12804971467116E-07,66.4015932317699,33.5984067682301,NaN,NaN,36.4367242863865,58.4820711097621,0.1575976,0.1383099,0.01928771,0.00734715274358873,0.0073473226265177
175,7,0.000477549084880646,2094.02558116079,0.000477057523930703,4.91560949942779E-07,0.102934120387988,99.897065879612,1.72944176945501E-07,2.29852631813271E-07,112.146483796347,29.9129786521565,0.2186956,-0.1887875,0.4074832,0.00697919106011342,0.00745674014499406
183,7,5.54786185719388E-05,18024.96215192,5.52561339739639E-05,2.22484597974838E-07,0.401027645788159,99.5989723542118,NaN,NaN,40.6973589924768,26.8046851490087,0.1640065,-0.09118931,0.2551958,0.00256367308075782,0.00261915169932976
195,7,7.56907622377068E-05,13211.6518639289,7.5546209742006E-05,1.44552495700764E-07,0.190977724926058,99.8090222750739,NaN,NaN,30.7847763352806,57.4099024001769,0.1543626,-0.1115757,0.2659383,0.00821981099772721,0.00829550175996492
165,7,5.34416856388044E-05,18711.9846248617,5.27787314023335E-05,6.62954236470888E-07,1.24051894798302,98.759481052017,NaN,NaN,78.0990222497344,10.8059323919634,0.3012787,-0.263802,0.5650807,0.00141787476484607,0.00147131645048487
110,7,6.47259362738821E-05,15449.7572003994,6.4099817502274E-05,6.26118771608099E-07,0.967338299995743,99.0326617000043,NaN,NaN,33.9080462457977,44.7181180552916,0.2465896,-0.1512497,0.3978393,0.007589883116212,0.00765460905248589
112,7,0.000308899159416206,3237.30243193254,0.000308200028847105,6.99130569100509E-07,0.226329709158746,99.7736702908413,NaN,NaN,81.6978336746538,3.77296641474181,0.3549303,-0.3013398,0.65627,0.00908162523154013,0.00939052439095633
86,7,0.000102646013020328,9742.21960089151,0.000102435551202202,2.10461818125895E-07,0.205036524978536,99.7949634750215,NaN,NaN,37.6256903810022,57.5575730263479,0.1597339,-0.1416059,0.3013397,0.00883408905280557,0.0089367350658259
93,7,0.000289339362094623,3456.14918330044,0.000288614119735222,7.25242359400592E-07,0.250654578813724,99.7493454211863,NaN,NaN,62.6143176142668,8.04162844146177,0.3559679,-0.242378,0.5983459,0.00173137597990269,0.00202071534199731
326,8,0.000236059101486674,4236.22725708142,0.000166285620783667,6.97734807030073E-05,29.5576320775524,70.4423679224476,NaN,1.16490306556385E-06,106.419056303593,19.8627315199473,0.1812189,-0.1608936,0.3421125,0.00751480560182782,0.00775086470331449
427,8,0.000160467753910898,6231.78162358565,0.000160042039675796,4.25714235102563E-07,0.265295814721097,99.7347041852789,1.55253021430881E-06,3.11742220239063E-07,74.3795675848866,9.63504583556008,0.1833552,-0.1243934,0.3077487,0.00204972339980589,0.00221019115371679
341,8,5.15075206331209E-05,19414.6405749721,5.08856631385533E-05,6.21857494567668E-07,1.20731397458839,98.7926860254116,6.92806170654765E-06,NaN,121.436992647249,64.8213571964654,0.2562334,-0.1887875,0.4450209,0.00740833671863028,0.0074598442392634
299,8,0.000238594934422156,4191.20381755741,0.000238338521537661,2.56412884494517E-07,0.107467866036433,99.8925321339636,NaN,NaN,36.0915469751939,47.7699543520652,0.1629688,-0.1126133,0.2755821,0.00907554529854673,0.00931414023296889
274,8,9.30270536918017E-05,10749.5611256592,9.25000317784138E-05,5.27021913387937E-07,0.566525427252548,99.4334745727475,NaN,NaN,48.4251968503937,42.0767731553468,0.2155217,-0.1801813,0.395703,0.00879470447134404,0.00888773152503585
279,8,0.00019846653875615,5038.63274014502,9.96045309002427E-05,9.88620078559077E-05,49.8129349539251,50.1870650460749,NaN,NaN,52.2752826609864,37.0155974361424,0.239082,-0.1984313,0.4375134,0.0073473226265177,0.00754578916527385
296,8,7.95642023866498E-05,12568.4663454603,7.88586753487407E-05,7.05527037909125E-07,0.886739283177312,99.1132607168227,1.43281720015563E-07,1.54144319591473E-07,130.071178288376,83.1672691948844,0.3141575,-0.2230903,0.5372478,0.0069555722939107,0.00703513649629735
204,8,0.00117083970225814,854.087880750329,0.00117073200465509,1.07697603043966E-07,0.0091983217545711,99.9908016782454,NaN,NaN,40.4692908483161,63.3690631509982,0.1543626,-0.1705374,0.3249,0.00694629042223097,0.00811713012448911
165,8,0.000117601672431448,8503.2804323673,0.000117217903837675,3.83768593772461E-07,0.326329197398249,99.6736708026017,NaN,NaN,34.9295256263953,44.4524773208489,0.1876278,-0.1179846,0.3056124,0.00147131645048487,0.00158891812291632
195,8,0.00074719123240098,1338.34546851769,0.000746676239226345,5.14993174634618E-07,0.068923878158978,99.931076121841,NaN,NaN,42.0175152603793,42.6069377731749,0.2080142,-0.1522874,0.3603015,0.00829550175996492,0.0090426929923659
183,8,0.000628470218815482,1591.1652932175,0.00062835243362715,1.17785188331887E-07,0.0187415703728785,99.9812584296271,NaN,NaN,39.7439394821065,32.5251955609128,0.1511887,-0.08905301,0.2402417,0.00261915169932976,0.00324762191814524
175,8,0.000188609212180104,5301.96796031944,0.000188061420948947,5.47791231156163E-07,0.290437155653391,99.7095628443466,1.51590564406723E-07,1.94552467148654E-07,125.489485676562,48.4046410795395,0.2498245,-0.2112491,0.4610736,0.00745674014499406,0.00764534935717417
110,8,7.81392411228999E-05,12797.6671596691,7.76535688601053E-05,4.85672262794633E-07,0.621547196792904,99.3784528032071,NaN,NaN,34.3869721881274,53.6124794142087,0.2069155,-0.153386,0.3603015,0.00765460905248589,0.00773274829360879
112,8,6.57595709128867E-05,15206.9118778881,6.53874347708115E-05,3.72136142075263E-07,0.565904151911577,99.4340958480884,NaN,NaN,29.9520088245071,53.2020511226086,0.1726127,-0.110477,0.2830897,0.00939052439095633,0.00945628396186922
93,8,5.37486156295904E-05,18605.1303514777,5.30073481536382E-05,7.41267475952261E-07,1.37913780154026,98.6208621984597,NaN,NaN,79.7855569855041,0,0.3870968,-0.3088473,0.6959441,0.00202071534199731,0.0020744639576269
86,8,0.000291146281569793,3434.69954212787,0.000290547259586047,5.99021983745118E-07,0.205746053329389,99.7942539466706,NaN,NaN,56.4223180964295,31.3493295602364,0.2583697,-0.2123478,0.4707175,0.0089367350658259,0.00922788134739569
326,9,0.000284331399783081,3517.02274445562,0.000284277085769909,5.43140131724351E-08,0.0191023619670116,99.980897638033,6.08211084384379E-07,NaN,122.729103255615,3.51230452837947,0.1564989,-0.1855525,0.3420514,0.00775086470331449,0.00803519610309757
341,9,0.00046874138951134,2133.37252134379,0.000468481900538512,2.59488972827356E-07,0.0553586644221606,99.9446413355778,6.4932733087001E-07,NaN,89.6741344390736,4.12250559052529,0.1618702,-0.1394086,0.3012787,0.0074598442392634,0.00792858562877474
427,9,0.00143650409400174,696.134458770843,0.00143584068308922,6.63410912513356E-07,0.0461823196525157,99.9538176803475,1.38550815139814E-07,1.89731469648138E-07,109.014600055491,68.6131506528068,0.281991,-0.1823176,0.4643086,0.00221019115371679,0.00364669524771853
296,9,0.000244687513012268,4086.84524882095,0.000244286819054053,4.00693958214904E-07,0.163757419936184,99.8362425800638,2.35606208283563E-07,3.45921212367359E-07,70.0355887097874,2.52669153234057,0.1758476,-0.1201209,0.2959685,0.00703513649629735,0.00727982400930962
299,9,6.03097266392814E-05,16581.0733313567,5.96868610288591E-05,6.22865610422352E-07,1.03277803619932,98.9672219638007,NaN,NaN,72.5156441982652,14.4366273863157,0.2669759,-0.2262642,0.4932401,0.00931414023296889,0.00937444995960817
279,9,6.64934537502691E-05,15039.0744291268,6.64012601106507E-05,9.21936396183765E-08,0.138650700811286,99.8613492991887,NaN,NaN,44.0746104566566,59.3342996071022,0.1543626,-0.1673025,0.3216651,0.00754578916527385,0.00761228261902412
274,9,0.000139665495347493,7159.96458188877,0.000139403999149985,2.61496197508093E-07,0.187230351245654,99.8127696487543,NaN,NaN,36.0400277485226,56.7749358850056,0.1608325,-0.1340983,0.2949309,0.00888773152503585,0.00902739702038334
165,9,0.00014490337541084,6901.15048848746,0.000144210437234374,6.92938176465605E-07,0.478207063500722,99.5217929364993,NaN,NaN,62.8659196268071,8.89049722877528,0.3077486,-0.2123478,0.5200964,0.00158891812291632,0.00173382149832716
195,9,7.64094497630961E-05,13087.3864829606,7.60710146477279E-05,3.38435115368116E-07,0.442923115422789,99.5570768845772,NaN,NaN,39.0703944736603,51.1956893103135,0.1768853,-0.1416059,0.3184912,0.0090426929923659,0.009119102442129
175,9,0.000119166779115397,8391.60047307846,0.000118870614729282,2.9616438611442E-07,0.248529320262676,99.7514706797373,3.14092059358791E-07,3.91476521353386E-07,73.2777347628549,0.65265346996175,0.1672414,-0.1233558,0.2905972,0.00764534935717417,0.00776451613628956
204,9,0.000170407969942138,5868.27013043786,0.000169832005373202,5.75964568936063E-07,0.337991567607802,99.6620084323922,NaN,NaN,59.5451895299404,32.8215542145362,0.2830897,-0.2509232,0.5340129,0.00811713012448911,0.00828753809443125
93,9,0.000230585737076567,4336.78167903309,0.000229882307201761,7.03429874806226E-07,0.305062179354418,99.6949378206456,NaN,NaN,65.9413424414796,10.8010032018325,0.3452864,-0.2552568,0.6005433,0.0020744639576269,0.00230504969470347
110,9,0.000112586504644039,8882.05920560078,0.000111843839330663,7.42665313375329E-07,0.659639728334573,99.3403602716654,NaN,NaN,56.4997249660108,22.3590573573313,0.3463241,-0.2520218,0.5983459,0.00773274829360879,0.00784533479825283
326,10,4.78845425032105E-05,20883.5659217785,4.77549146334251E-05,1.29627869785431E-07,0.270709216396377,99.7292907836036,5.73994892141133E-07,NaN,138.312467191834,2.82599169612133,0.1554613,-0.2091128,0.3645741,0.00803519610309757,0.00808308064560078
341,10,0.00020794392216476,4808.98883501712,0.000207700681861482,2.43240303277742E-07,0.116973990268884,99.8830260097311,6.01057989914333E-07,NaN,64.8606226690169,2.74833386530788,0.1597339,-0.1008332,0.260567,0.00792858562877474,0.0081365295509395
427,10,5.33256828597443E-05,18752.6900054927,5.27940110300858E-05,5.31671829658541E-07,0.997027700623972,99.002972299376,2.13243106671288E-07,3.10425750428729E-07,79.5255476468679,19.233578612935,0.1994079,-0.1329997,0.3324076,0.00364669524771853,0.00370002093057827
274,10,7.36748113163901E-05,13573.1599732992,7.3249513324096E-05,4.25297992294113E-07,0.577263768573099,99.4227362314269,NaN,NaN,38.0577427821522,47.8510513705699,0.1940367,-0.1416059,0.3356426,0.00902739702038334,0.00910107183169973
279,10,0.000190802262689906,5241.02799359991,0.000190322710599558,4.79552090347675E-07,0.251334592990152,99.7486654070099,NaN,NaN,56.2309034199135,42.0968020399939,0.2197943,-0.2134465,0.4332408,0.00761228261902412,0.00780308488171403
296,10,0.000134959550366462,7409.6275312466,0.000134636434599918,3.23115766543911E-07,0.239416747956361,99.7605832520436,2.72529362028984E-07,3.7075297115198E-07,65.0533821958798,3.77223990281241,0.1779839,-0.1115757,0.2895596,0.00727982400930962,0.00741478355967608
175,10,0.000105723518671744,9458.63335389786,0.000105585549737532,1.37968934212258E-07,0.130499756294181,99.8695002437058,3.83377690660498E-07,NaN,75.1994159923867,7.65047671914054,0.1554613,-0.1265908,0.282052,0.00776451613628956,0.00787023965496131
204,10,0.000103023891445734,9706.48638841926,0.000102277799206017,7.46092239716986E-07,0.724193416931817,99.2758065830682,NaN,NaN,67.4391633163185,9.16860068413864,0.3827631,-0.2841884,0.6669515,0.00828753809443125,0.00839056198587699
165,10,0.000112282698208555,8906.09164149755,0.000111658158541993,6.24539666561289E-07,0.556220750414517,99.4437792495855,NaN,NaN,82.8695361857946,11.4383846518848,0.2991424,-0.2799158,0.5790582,0.00173382149832716,0.00184610419653571
195,10,0.000251987067509139,3968.45762715077,0.000251561308355207,4.25759153932503E-07,0.16896071617527,99.8310392838247,NaN,NaN,37.5884139936249,46.4634567004854,0.1940367,-0.1362346,0.3302713,0.009119102442129,0.00937108950963813
93,10,0.000518140669472623,1929.97782053632,0.000517596612289751,5.44057182871611E-07,0.105001829604568,99.8949981703954,NaN,NaN,31.8669193918582,46.8148819152976,0.2058779,-0.1233558,0.3292337,0.00230504969470347,0.00282319036417609
110,10,0.000225372622114538,4437.09617706707,0.000224882475516698,4.9014659784033E-07,0.217482759547976,99.782517240452,NaN,NaN,35.3448274134157,52.8872488924311,0.2101505,-0.1576586,0.3678091,0.00784533479825283,0.00807070742036736
326,11,0.0010080956286483,991.969384234752,0.00100782292483898,2.727038093224E-07,0.0270513829812012,99.9729486170188,6.27454359388227E-07,NaN,145.417836327685,4.96568041598636,0.1586962,-0.2198553,0.3785516,0.00808308064560078,0.00909117627424908
341,11,0.000357569537336689,2796.65881900447,0.000356924372664033,6.45164672656226E-07,0.180430547149417,99.8195694528506,8.17301384554645E-07,NaN,125.559488652647,75.853953337685,0.2733848,-0.1951964,0.4685812,0.0081365295509395,0.00849409908827619
296,11,0.000266366618547808,3754.22417963577,0.000265983371424804,3.83247123003985E-07,0.143879561595741,99.8561204384043,1.44101774845421E-06,3.04979745274075E-07,86.9395004096833,8.75445076072681,0.1865291,-0.1491134,0.3356426,0.00741478355967608,0.00768115017822389
279,11,0.000107582640130025,9295.17995460417,0.000106876367109984,7.06273020041094E-07,0.656493481836373,99.3435065181636,NaN,NaN,58.7715057218392,14.6968952651826,0.3238014,-0.2230903,0.5468917,0.00780308488171403,0.00791066752184405
274,11,0.00014202258489911,7041.13363878271,0.000141710441047081,3.12143852029823E-07,0.21978465766664,99.7802153423334,NaN,NaN,31.1351696024722,53.9042004762679,0.171514,-0.1158483,0.2873623,0.00910107183169973,0.00924309441659884
204,11,4.75007743344965E-05,21052.2883891973,4.68938121258918E-05,6.06962208604678E-07,1.27779434568898,98.722205654311,NaN,NaN,48.3487807203258,40.7155280009143,0.2498245,-0.2037416,0.4535661,0.00839056198587699,0.00843806276021148
165,11,0.00095287047892826,1049.46057424798,0.00095238135948205,4.89119446210303E-07,0.0513311574895719,99.9486688425104,NaN,NaN,53.3429701381104,39.7000373566986,0.2036805,-0.1801813,0.3838618,0.00184610419653571,0.00279897467546397
195,11,0.000116189592038447,8606.6228691904,0.000115703482903932,4.86109134514856E-07,0.418375799403791,99.5816242005962,NaN,NaN,30.7847763352806,44.6783407660059,0.2005066,-0.1115757,0.3120823,0.00937108950963813,0.00948727910167658
175,11,5.09995112766524E-05,19608.0310373052,5.0468608802633E-05,5.30902474019448E-07,1.04099521883555,98.9590047811645,6.96504006966053E-07,NaN,87.9260303052647,35.6780267666615,0.2284005,-0.1480148,0.3764153,0.00787023965496131,0.00792123916623796
93,11,8.09733601433863E-05,12349.7406829754,8.06366344898082E-05,3.36725653578111E-07,0.41584745029951,99.5841525497005,NaN,NaN,37.4014498015677,55.4083853088335,0.1726127,-0.1447798,0.3173925,0.00282319036417609,0.00290416372431948
110,11,5.88802521762632E-05,16983.6229132717,5.83444067262327E-05,5.35845450030589E-07,0.91005970631119,99.0899402936888,NaN,NaN,33.429116962839,49.0421447747117,0.2273019,-0.1491134,0.3764153,0.00807070742036736,0.00812958767254363
326,12,0.00015989122863907,6254.25177173006,0.000159160019670559,7.31208968511241E-07,0.457316498681634,99.5426835013184,9.79651409920707E-07,NaN,172.385946839486,34.0330996081057,0.2026429,-0.2606281,0.463271,0.00909117627424908,0.00925106750288815
341,12,0.000208849084589929,4788.14643580305,0.00020813639827673,7.12686313198915E-07,0.3412446430389,99.6587553569611,8.04988882351088E-07,NaN,221.436983062122,154.495491635539,0.395642,-0.3442488,0.7398907,0.00849409908827619,0.00870294817286612
279,12,5.30188137987976E-05,18861.2292194036,5.2530122407652E-05,4.88691391145601E-07,0.921732034594641,99.0782679654054,NaN,NaN,39.2828404648823,43.5118204969953,0.214423,-0.1491134,0.3635365,0.00791066752184405,0.00796368633564285
296,12,0.000166465369210868,6007.25547145643,0.000165900986932468,5.6438227839968E-07,0.339038852990953,99.660961147009,1.49421262462916E-07,1.89433185675096E-07,168.185050517758,47.5444850184329,0.2530595,-0.2884609,0.5415204,0.00768115017822389,0.00784761554743475
165,12,5.88665020108924E-05,16987.5899847925,5.8482329265907E-05,3.84172744985391E-07,0.652616907514406,99.3473830924856,NaN,NaN,37.7846021935105,44.4524773208489,0.1876278,-0.1276284,0.3152562,0.00279897467546397,0.00285784117747487
175,12,6.32851312510809E-05,15801.4999768673,6.28597090992916E-05,4.25422151789298E-07,0.672230812165744,99.3277691878342,2.50458529818531E-07,3.13443512868841E-07,80.9282070560859,9.53589647195704,0.1843928,-0.1362346,0.3206275,0.00792123916623796,0.00798452429748904
204,12,0.000165634633261564,6037.38469611507,0.000165013657300966,6.20975960598583E-07,0.374907076117324,99.6250929238827,NaN,NaN,59.8059070607951,32.5753205980499,0.2841273,-0.2520218,0.5361491,0.00843806276021148,0.00860369739347305
93,12,5.09387701671886E-05,19631.4123155673,5.04108275523741E-05,5.27942614814494E-07,1.03642591503821,98.9635740849618,NaN,NaN,42.6679283678908,42.9359821360106,0.220893,-0.1651662,0.3860591,0.00290416372431948,0.00295510249448666
110,12,6.98189684717448E-05,14322.7552896989,6.91551594857679E-05,6.63808985976871E-07,0.950757366524987,99.049242633475,NaN,NaN,62.9857700560845,30.5281915350999,0.3098849,-0.2809534,0.5908383,0.00812958767254363,0.00819940664101537
326,13,9.92570073811531E-05,10074.8554322209,9.86604912161185E-05,5.96516165034602E-07,0.600981412570644,99.3990185874294,8.3784619313472E-07,NaN,162.454576151511,34.7194124403638,0.2036805,-0.245613,0.4492935,0.00925106750288815,0.00935032451026931
341,13,5.23466900233822E-05,19103.4046193431,5.19530575283089E-05,3.93632495073251E-07,0.751972082470589,99.2480279175294,6.77310717178692E-07,NaN,60.0314104610159,11.0325961412196,0.1726127,-0.0933256,0.2659383,0.00870294817286612,0.0087552948628895
279,13,0.000229878637856788,4350.12147854726,0.000229577396012513,3.01241844274935E-07,0.131043861701759,99.8689561382982,NaN,NaN,28.2521293837488,55.3786788481751,0.1693777,-0.107242,0.2766198,0.00796368633564285,0.00819356497349964
296,13,0.00017832924679438,5607.60513474852,0.00017770296694989,6.26279844489694E-07,0.351193007174991,99.648806992825,1.42248498770023E-07,1.55616855007992E-07,142.562282848532,60.0355895785888,0.2744835,-0.2445143,0.5189978,0.00784761554743475,0.00802594479422913
165,13,0.000112201735595359,8912.51810583727,0.000111963752092246,2.37983503112438E-07,0.212103228038018,99.787896771962,NaN,NaN,44.1452815595725,52.3852569680301,0.1608325,-0.1491134,0.309946,0.00285784117747487,0.00297004291307022
204,13,0.000470060341228071,2127.38644870022,0.00046996523702294,9.51042051309386E-08,0.0202323397209965,99.979767660279,NaN,NaN,26.9843563823708,63.3690631509982,0.1543626,-0.113712,0.2680746,0.00860369739347305,0.00907375773470112
175,13,0.000546260129826535,1830.62966780598,0.00054590691534943,3.53214477104291E-07,0.0646604900885691,99.9353395099114,4.69348402945546E-06,3.13592261741436E-07,97.4619267772217,3.80710540825784,0.174749,-0.1640675,0.3388165,0.00798452429748904,0.00853078442731557
93,13,0.000259823188636289,3848.77117877204,0.000259438570484986,3.84618151303556E-07,0.148030725556971,99.851969274443,NaN,NaN,30.4793444542888,53.7527566031443,0.1790216,-0.1179846,0.2970061,0.00295510249448666,0.00321492568312295
110,13,0.000107898697881451,9267.95243718981,0.000107229943955567,6.68753925884072E-07,0.619797957727754,99.3802020422722,NaN,NaN,53.13355013125,31.0071174774295,0.3077486,-0.2370067,0.5447554,0.00819940664101537,0.00830730533889682
296,14,0.000163938506419964,6099.84817989182,0.000163349898644282,5.88607775681496E-07,0.359041806916095,99.6409581930839,1.50800796135109E-07,1.73818174095328E-07,166.939502147286,59.3950223416612,0.2733848,-0.2863247,0.5597094,0.00802594479422913,0.0081898833006491
279,14,0.000110313525163448,9065.07156324059,0.000109691850108635,6.21675054813392E-07,0.563552886096492,99.4364471139035,NaN,NaN,55.6520341957592,26.2743190042853,0.2798547,-0.2112491,0.4911039,0.00819356497349964,0.00830387849866308
165,14,8.87239659997287E-05,11270.9118526448,8.81895948764682E-05,5.34371123260546E-07,0.602284982686843,99.3977150173132,NaN,NaN,57.1557620810628,30.4842792177645,0.2348094,-0.1930601,0.4278695,0.00297004291307022,0.00305876687906995
204,14,5.3102148173759E-05,18831.6298754588,5.25037741777295E-05,5.9837399602955E-07,1.12683576203277,98.8731642379672,NaN,NaN,45.3070667640559,37.152378982935,0.2648396,-0.1909238,0.4557634,0.00907375773470112,0.00912685988287488
93,14,0.00099424963113729,1005.78362685046,0.000993828531886245,4.21099251044464E-07,0.0423534731979516,99.9576465268021,NaN,NaN,50.1419144414439,49.3062106064819,0.196234,-0.1940977,0.3903317,0.00321492568312295,0.00420917531426024
110,14,4.47869371957184E-05,22327.9389619793,4.40992283462886E-05,6.87708849429758E-07,1.53551212136806,98.4644878786319,NaN,NaN,56.7460295454586,28.845102447405,0.3173925,-0.2531205,0.570513,0.00830730533889682,0.00835209227609254
296,15,7.98554601102747E-05,12522.6252358833,7.95112902748224E-05,3.44169835452338E-07,0.430990986686525,99.5690090133135,5.16919445857703E-06,2.9960620717695E-07,81.921712136399,5.01779696129777,0.1801202,-0.1405072,0.3206275,0.0081898833006491,0.00826973876075937
279,15,7.56340964038447E-05,13221.5501678046,7.54524406625413E-05,1.8165574130341E-07,0.240177049691277,99.7598229503087,NaN,NaN,35.600578979141,57.3564872648378,0.1618702,-0.135136,0.2970061,0.00830387849866308,0.00837951259506693
165,15,0.000137528965776478,7271.19552127855,0.000136850954193289,6.78011583189753E-07,0.492995478706431,99.5070045212936,NaN,NaN,79.0567354198146,5.72822710614049,0.3184301,-0.2670369,0.5854671,0.00305876687906995,0.00319629584484643
110,15,0.000170322152409636,5871.22688301247,0.000169719723482972,6.02428926663873E-07,0.353699690933327,99.6463003090667,NaN,NaN,44.2391887723329,44.2391921129619,0.2487258,-0.1973327,0.4460585,0.00835209227609254,0.00852241442850218
296,16,0.000211477214572557,4728.64181619387,0.000210783737343371,6.93477229186251E-07,0.327920542450837,99.6720794575492,1.09623550523588E-07,1.25001414148437E-07,190.711749000509,105.658364198225,0.3527329,-0.3270974,0.6798303,0.00826973876075937,0.00848121597533193
279,16,6.19572523560454E-05,16140.1605457481,6.13412750777032E-05,6.1597727834227E-07,0.994197216497717,99.0058027835023,NaN,NaN,40.4084243098066,32.2077481798752,0.2573321,-0.153386,0.4107181,0.00837951259506693,0.00844146984742297
165,16,5.11166837004464E-05,19563.0844493002,5.04250226315965E-05,6.91661068849981E-07,1.35310239002054,98.6468976099795,NaN,NaN,60.010840853935,11.113123741726,0.3002411,-0.2027039,0.502945,0.00319629584484643,0.00324741252854688
110,16,0.000110785431651982,9026.45758642139,0.000110183704573937,6.0172707804472E-07,0.543146394857193,99.4568536051428,NaN,NaN,57.2249554877883,37.5068457840694,0.2787561,-0.2552568,0.5340129,0.00852241442850218,0.00863319986015416
296,17,0.0002073023480952,4823.87203612749,0.00020685258270025,4.49765394950133E-07,0.216961071151778,99.7830389288482,1.10838854002621E-05,3.19999969081858E-07,87.544490231241,12.5266906635392,0.1929991,-0.1501511,0.3431501,0.00848121597533193,0.00868851832342713
279,17,0.000107465290968299,9305.33003716509,0.000106861332033062,6.03958935236834E-07,0.562003722127356,99.4379962778726,NaN,NaN,58.4820711097621,26.8371168151499,0.2777184,-0.2219916,0.4997101,0.00844146984742297,0.00854893513839127
165,17,0.000103235348829047,9686.60455301944,0.000102705015313404,5.30333515642942E-07,0.513713104724573,99.4862868952754,NaN,NaN,22.5514995705833,38.4170588649457,0.2080142,-0.0761742,0.2841884,0.00324741252854688,0.00335064787737593
110,17,0.000532583073548559,1877.64134773769,0.000532331503299448,2.51570249111543E-07,0.0472358701592506,99.9527641298407,NaN,NaN,29.3377116063007,62.5068441137548,0.1672414,-0.1308634,0.2981048,0.00863319986015416,0.00916578293370272
279,18,6.07353289449782E-05,16464.8815997346,6.02778102261805E-05,4.57518718797664E-07,0.753299153466582,99.2467008465334,NaN,NaN,38.4306158931439,46.9046473706595,0.2015442,-0.1458785,0.3474227,0.00854893513839127,0.00860967046733625
296,18,6.52626917536595E-05,15322.6900872339,6.45281564938018E-05,7.34535259857769E-07,1.12550561449464,98.8744943855054,1.19881245083664E-07,1.46930243681911E-07,141.957301714988,110.676161159523,0.3613392,-0.2434767,0.6048158,0.00868851832342713,0.00875378101518079
110,18,7.63179514725598E-05,13103.0770704,7.57542812974948E-05,5.63670175065048E-07,0.73858137461632,99.2614186253837,NaN,NaN,37.5068424434403,44.4718134758437,0.2476882,-0.1673025,0.4149907,0.00916578293370272,0.00924210088517528
279,19,0.000127948326456555,7815.6551765415,0.000127316159935132,6.32166521423796E-07,0.494079554560213,99.5059204454398,NaN,NaN,58.2087118365763,21.7559122112985,0.2970061,-0.220954,0.5179601,0.00860967046733625,0.00873761879379281
296,19,0.000222848690942653,4487.34967107047,0.000222099936364805,7.4875457784819E-07,0.335992360861959,99.664007639138,1.03690022136213E-07,1.19160481357183E-07,175.693961596026,139.430601494634,0.410657,-0.3013398,0.7119968,0.00875378101518079,0.00897662970612344
279,20,0.000123082649185252,8124.6220049659,0.000122676434938171,4.06214247081552E-07,0.330033721056943,99.6699662789431,NaN,NaN,47.1780027182436,52.2592073220951,0.1812189,-0.1790826,0.3603015,0.00873761879379281,0.00886070144297806
296,20,0.000109108854063353,9165.15903850808,0.000108501185069726,6.07668993627547E-07,0.556938296936662,99.4430617030633,7.77039327073958E-06,1.74697112284919E-07,154.44839758713,53.1672631132749,0.2627033,-0.2649007,0.527604,0.00897662970612344,0.0090857385601868
296,21,0.000106139154020735,9421.59384278341,5.16501259291927E-05,5.44890280915426E-05,51.337349156653,48.662650843347,5.4628752730105E-05,3.42356363737528E-07,71.281141424266,2.52669153234057,0.1758476,-0.1222572,0.2981048,0.0090857385601868,0.00919187771420753
279,21,0.000123981941247324,8065.69077673308,0.000123378789874102,6.03151373221311E-07,0.486483246796502,99.5135167532035,NaN,NaN,50.2974742443236,33.6227705624783,0.2519608,-0.1909238,0.4428846,0.00886070144297806,0.00898468338422538
296,22,0.000176621681759467,5661.81903624865,0.000176043463454545,5.78218304922093E-07,0.327376740591533,99.6726232594085,1.54569865365439E-07,1.86861554830192E-07,135.053380458277,56.2989270911462,0.2680746,-0.2316355,0.4997101,0.00919187771420753,0.009368499395967