R,1/R,sigma_1/R,peak_volt,sigma_peak_volt_stat,sigma_peak_volt_sys,base,sigma_base,sigma_base_sys,Qs,sigma_Qs,Qs_soll
1.25,0.5128205128205129,0.009419164222152795,4.015661784420831,0.01,0.0008878114930023877,0.7036709575299417,0.0020035506685657824,0.0006154981981697773,5.706732303570965,0.021586514281796417,5.679590750277906
1.25,0.5128205128205129,0.009419164222152795,4.009570503321868,0.01,0.0008870936672009912,0.7029967667248557,0.0020035506685657824,0.0006154780556519655,5.703540461504234,0.0216003697238116,5.679590750277906
1.25,0.5128205128205129,0.009419164222152795,3.990146187804527,0.01,0.0008845101914066722,0.7029967667248557,0.0020035506685657824,0.0006154780556519655,5.675909729135669,0.02154117104303944,5.679590750277906
3.7,0.22727272727272727,0.004862647309856077,5.369403611834228,0.01,0.0010580208967906944,2.1201476303295066,0.0020035506685657824,0.0006952803902201657,2.5325611929201988,0.005289103813378147,2.517091355236799
5.4,0.16393442622950818,0.0036584126283423757,1.2686739201893786,0.01,0.0006387567517889225,0.7029967667248557,0.0020035506685657824,0.0006154780556519655,1.8046653700840165,0.01512610862227151,1.8156068791871993
5.4,0.16393442622950818,0.0036584126283423757,3.820780568807706,0.01,0.0008643906239061887,2.1201476303295066,0.0020035506685657824,0.0006952803902201657,1.8021294904892506,0.0050146880185293445,1.8156068791871993
7,0.12987012987012986,0.002966315118394596,5.152676472301451,0.01,0.0010310122752289434,3.5377575479514727,0.0020035506685657824,0.0008325360646816698,1.4564809494322446,0.0029445424963022897,1.438337917278171
8.5,0.10869565217391305,0.002519132450404112,4.263551957616367,0.01,0.0009169504604195646,3.5377575479514727,0.0020035506685657824,0.0008325360646816698,1.2051566281259618,0.0029078825261746005,1.203826300330643
