time, temp 
13:55:37, 64.25
13:55:37, 65.00
13:55:37, 65.62
13:55:37, 66.19
13:55:37, 66.75
13:55:37, 67.19
13:55:37, 67.69
13:55:37, 68.12
13:55:37, 68.50
13:55:37, 68.87
13:55:38, 69.19
13:55:39, 69.50
13:56:10, 72.94
13:56:10, 72.94
13:56:11, 72.94
13:56:12, 72.94
13:56:12, 72.94
13:56:13, 72.94
13:56:14, 72.94
13:56:14, 72.94
13:56:15, 73.00
13:56:16, 73.00
13:56:17, 73.00
13:56:17, 73.00
13:56:48, 70.69
13:56:49, 70.25
13:56:49, 69.81
13:56:50, 69.37
13:56:51, 68.94
13:56:52, 68.56
13:56:52, 68.19
13:56:53, 67.75
13:56:54, 67.44
13:56:54, 67.06
13:56:55, 66.69
13:56:56, 66.37
13:57:27, 53.69
13:57:27, 53.44
13:57:28, 53.25
13:57:29, 53.06
13:57:29, 52.88
13:57:30, 52.69
13:57:31, 52.50
13:57:31, 52.31
13:57:32, 52.13
13:57:33, 51.94
13:57:34, 51.75
13:57:34, 51.56
13:58:05, 44.94
13:58:06, 44.81
13:58:06, 44.69
13:58:07, 44.63
13:58:08, 44.44
13:58:08, 44.38
13:58:09, 44.25
13:58:10, 44.13
13:58:11, 44.00
13:58:11, 43.88
13:58:12, 43.75
13:58:13, 43.63
13:58:43, 39.25
13:58:44, 39.19
13:58:45, 39.13
13:58:46, 39.00
13:58:46, 38.94
13:58:47, 38.88
13:58:48, 38.81
13:58:48, 38.69
13:58:49, 38.63
13:58:50, 38.50
13:58:50, 38.44
13:58:51, 38.38
13:59:22, 35.06
13:59:23, 35.06
13:59:23, 35.00
13:59:24, 34.94
13:59:25, 34.88
13:59:25, 34.81
13:59:26, 34.75
13:59:27, 34.69
13:59:27, 34.63
13:59:28, 34.56
13:59:29, 34.50
13:59:30, 34.44
14:00:00, 31.94
14:00:01, 31.94
14:00:02, 31.87
14:00:02, 31.81
14:00:03, 31.81
14:00:04, 31.75
14:00:05, 31.75
14:00:05, 31.69
14:00:06, 31.62
14:00:07, 31.56
14:00:07, 31.56
14:00:08, 31.50
14:00:39, 29.56
14:00:39, 29.56
14:00:40, 29.50
14:00:41, 29.50
14:00:42, 29.44
14:00:42, 29.44
14:00:43, 29.37
14:00:44, 29.37
14:00:44, 29.31
14:00:45, 29.31
14:00:46, 29.25
14:00:46, 29.25
