m,s1,s2,s3,s4,mean,stdev,,,,,,,,,,,,,,,
10,60,60,60,60,60,0,,,,,,,,,,,,,,,
20,120,130,120,120,120,0,,,,,,,,,,,,,,,
30,180,200,180,180,180,0,,,,,,,,,,,,,,,
40,240,260,240,240,240,0,,,,,,,,,,,,,,,
50,300,330,300,300,300,0,,,,,,,,,,,,,,,
60,360,390,360,360,360,0,,,,,,,,,,,,,,,
70,420,470,430,420,423.3333333333333,5.773502691896258,,,,,,,,,,,,,,,
80,490,520,490,500,493.3333333333333,5.773502691896258,,,,,,,,,,,,,,,
90,560,600,560,560,560,0,,,,,,,,,,,,,,,
100,620,660,630,630,626.6666666666666,5.773502691896258,,,,,,,,,,,,,,,
110,690,730,690,700,693.3333333333334,5.773502691896258,,,,,,,,,,,,,,,
120,740,800,750,760,750,10,,,,,,,,,,,,,,,
130,810,870,820,820,816.6666666666666,5.773502691896258,,,,,,,,,,,,,,,
140,880,930,890,890,886.6666666666666,5.773502691896258,,,,,,,,,,,,,,,
150,950,1000,960,960,956.6666666666666,5.773502691896258,,,,,,,,,,,,,,,
160,1020,1070,1020,1020,1020,0,,,,,,,,,,,,,,,
,,,,,,,,,,,,,,,,,,,,,
,,,,,,,,,,,,,,,,,,,,,
,,,,,,,,,,,,,,,,,,,,,
,,,,,,,,,,,,,,,,,,,,,
,,,,,,,,,,,,,,,,,,,,,
,,,,,,,,,,,,,,,,,,,,,
,,,,,,,,,,,,,,,,,,,,,
,,,,,,,,,,,,,,,,,,,,,
,,,,,,,,,,,,,,,,,,,,,
,,,,,,,,,,,,,,,,,,,,,
,,,,,,,,,,,,,,,,,,,,,
,,,,,,,,,,,,,,,,,,,,,
,,,,,,,,,,,,,,,,,,,,,
