U_E [V],U_A [V]
0.000000000,0.000714644
0.005000000,0.006231288
0.010000000,0.010449897
0.015000000,0.015966541
0.020000000,0.021158676
0.025000000,0.026026303
0.030000000,0.030569421
0.035000000,0.035437048
0.040000000,0.040953691
0.045000000,0.046145827
0.050000000,0.050688945
0.055000000,0.056205588
0.060000000,0.061073215
0.065000000,0.065940842
0.070000000,0.070808468
0.075000000,0.075351587
0.080000000,0.080868230
0.085000000,0.086060365
0.090000000,0.090927992
0.095000000,0.095795618
0.100000000,0.100663245
0.105000000,0.105206363
0.110000000,0.110723007
0.115000000,0.115590633
0.120000000,0.120458260
0.125000000,0.125974903
0.130000000,0.130842530
0.135000000,0.135710156
0.140000000,0.141226800
0.145000000,0.145769918
0.150000000,0.150962053
0.155000000,0.155829679
0.160000000,0.160697306
0.165000000,0.165889441
0.170000000,0.171406084
0.175000000,0.175624694
0.180000000,0.181141337
0.185000000,0.185684455
0.190000000,0.190552082
0.195000000,0.196068725
0.200000000,0.200936352
0.205000000,0.206128487
0.210000000,0.210671605
0.215000000,0.215863740
0.220000000,0.220406858
0.225000000,0.225923501
0.230000000,0.230466619
0.235000000,0.235983262
0.240000000,0.240850889
0.245000000,0.246367532
0.250000000,0.250586142
0.255000000,0.256427293
0.260000000,0.261294920
0.265000000,0.265838038
0.270000000,0.271030173
0.275000000,0.275897799
0.280000000,0.280440917
0.285000000,0.285957560
0.290000000,0.291149695
0.295000000,0.296017321
0.300000000,0.300884948
0.305000000,0.306077083
0.310000000,0.310295692
0.315000000,0.315812335
0.320000000,0.321004470
0.325000000,0.326196605
0.330000000,0.330739723
0.335000000,0.335607349
0.340000000,0.341123992
0.345000000,0.346316127
0.350000000,0.351183754
0.355000000,0.355726872
0.360000000,0.360594498
0.365000000,0.365786633
0.370000000,0.371303276
0.375000000,0.376170902
0.380000000,0.381038528
0.385000000,0.385906155
0.390000000,0.390449273
0.395000000,0.395965916
0.400000000,0.401482559
0.405000000,0.405701168
0.410000000,0.410893303
0.415000000,0.416085438
0.420000000,0.421277573
0.425000000,0.425820690
0.430000000,0.430688317
0.435000000,0.435880451
0.440000000,0.441072586
0.445000000,0.445940212
0.450000000,0.450807839
0.455000000,0.455999973
0.460000000,0.461192108
0.465000000,0.465735226
0.470000000,0.470602852
0.475000000,0.476119495
0.480000000,0.480987121
0.485000000,0.485854748
0.490000000,0.491046882
0.495000000,0.496239017
0.500000000,0.501106643
0.505000000,0.505974269
0.510000000,0.510517387
0.515000000,0.516034030
0.520000000,0.520901657
0.525000000,0.526093791
0.530000000,0.531285926
0.535000000,0.535829044
0.540000000,0.541021178
0.545000000,0.545888805
0.550000000,0.551080939
0.555000000,0.555948565
0.560000000,0.560491683
0.565000000,0.565683818
0.570000000,0.570875952
0.575000000,0.575743579
0.580000000,0.580935713
0.585000000,0.586127848
0.590000000,0.590670966
0.595000000,0.595538592
0.600000000,0.601055235
0.605000000,0.605922861
0.610000000,0.611114996
0.615000000,0.615982622
0.620000000,0.621174757
0.625000000,0.626042383
0.630000000,0.630585500
0.635000000,0.635777635
0.640000000,0.640969770
0.645000000,0.645837396
0.650000000,0.650705022
0.655000000,0.655897157
0.660000000,0.661089291
0.665000000,0.665956917
0.670000000,0.670500035
0.675000000,0.676016678
0.680000000,0.680884304
0.685000000,0.685751931
0.690000000,0.690944065
0.695000000,0.696136200
0.700000000,0.700679317
0.705000000,0.705871452
0.710000000,0.710739078
0.715000000,0.716255721
0.720000000,0.720798839
0.725000000,0.725990974
0.730000000,0.731183108
0.735000000,0.736050734
0.740000000,0.740593852
0.745000000,0.745785987
0.750000000,0.750329104
0.755000000,0.755845747
0.760000000,0.760713374
0.765000000,0.765256491
0.770000000,0.770448626
0.775000000,0.775640760
0.780000000,0.781157403
0.785000000,0.785376013
0.790000000,0.790568147
0.795000000,0.795435774
0.800000000,0.800627908
0.805000000,0.805171026
0.810000000,0.811012177
0.815000000,0.815879803
0.820000000,0.820747430
0.825000000,0.825290547
0.830000000,0.830482682
0.835000000,0.835350308
0.840000000,0.840866951
0.845000000,0.845734577
0.850000000,0.850277695
0.855000000,0.855469830
0.860000000,0.860337456
0.865000000,0.865529590
0.870000000,0.870397216
0.875000000,0.875589351
0.880000000,0.880456977
0.885000000,0.885000095
0.890000000,0.890516738
0.895000000,0.895384364
0.900000000,0.900901007
0.905000000,0.905768633
0.910000000,0.910311751
0.915000000,0.915828394
0.920000000,0.920371512
0.925000000,0.925239138
0.930000000,0.930431273
0.935000000,0.935623407
0.940000000,0.940491033
0.945000000,0.945358660
0.950000000,0.950226286
0.955000000,0.955742929
0.960000000,0.960286047
0.965000000,0.965153673
0.970000000,0.970021299
0.975000000,0.975213434
0.980000000,0.980405568
0.985000000,0.985922211
0.990000000,0.990465329
0.995000000,0.995332955
1.000000000,0.999876073
1.005000000,1.005068208
1.010000000,1.009611326
1.015000000,1.015776985
1.020000000,1.020320103
1.025000000,1.025187729
1.030000000,1.030379864
1.035000000,1.035247490
1.040000000,1.039790608
1.045000000,1.045307251
1.050000000,1.050174877
1.055000000,1.055042504
1.060000000,1.059910130
1.065000000,1.064777756
1.070000000,1.069645382
1.075000000,1.075162025
1.080000000,1.080029652
1.085000000,1.084572769
1.090000000,1.089764904
1.095000000,1.094632530
1.100000000,1.099824665
1.105000000,1.105016800
1.110000000,1.109884426
1.115000000,1.114752052
1.120000000,1.119619679
1.125000000,1.124811813
1.130000000,1.129354931
1.135000000,1.134547066
1.140000000,1.139414692
1.145000000,1.144606827
1.150000000,1.149149945
1.155000000,1.154342079
1.160000000,1.159209706
1.165000000,1.164401840
1.170000000,1.169269467
1.175000000,1.174461601
1.180000000,1.179004719
1.185000000,1.183547837
1.190000000,1.188739972
1.195000000,1.193607598
1.200000000,1.198799733
1.205000000,1.203667359
1.210000000,1.208859494
1.215000000,1.213727120
1.220000000,1.218594747
1.225000000,1.223786881
1.230000000,1.228329999
1.235000000,1.233197626
1.240000000,1.238065252
1.245000000,1.243257387
1.250000000,1.248449522
1.255000000,1.252992640
1.260000000,1.257860266
1.265000000,1.262727892
1.270000000,1.267920027
1.275000000,1.272787654
1.280000000,1.277655280
1.285000000,1.282198398
1.290000000,1.287715041
1.295000000,1.292582668
1.300000000,1.296801277
1.305000000,1.301993412
1.310000000,1.307185547
1.315000000,1.312053173
1.320000000,1.316920800
1.325000000,1.321788426
1.330000000,1.326980561
1.335000000,1.331199171
1.340000000,1.336391305
1.345000000,1.341258932
1.350000000,1.346126558
1.355000000,1.350994185
1.360000000,1.356186320
1.365000000,1.360729438
1.370000000,1.366246081
1.375000000,1.370464691
1.380000000,1.375332317
1.385000000,1.379875435
1.390000000,1.385067570
1.395000000,1.389935197
1.400000000,1.394802823
1.405000000,1.399670450
1.410000000,1.404213568
1.415000000,1.409081194
1.420000000,1.413948821
1.425000000,1.419140956
1.430000000,1.424008582
1.435000000,1.428551700
1.440000000,1.433419327
1.445000000,1.437962445
1.450000000,1.442830072
1.455000000,1.448022207
1.460000000,1.452565325
1.465000000,1.456783935
1.470000000,1.461976070
1.475000000,1.466843696
1.480000000,1.471386814
1.485000000,1.476254441
1.490000000,1.481122068
1.495000000,1.485989694
1.500000000,1.490532812
1.505000000,1.495724947
1.510000000,1.499943557
1.515000000,1.504811184
1.520000000,1.509678811
1.525000000,1.514546437
1.530000000,1.519089555
1.535000000,1.523632674
1.540000000,1.528824809
1.545000000,1.533692435
1.550000000,1.538235554
1.555000000,1.542778672
1.560000000,1.546997282
1.565000000,1.551864908
1.570000000,1.556732535
1.575000000,1.561600162
1.580000000,1.566143280
1.585000000,1.570686399
1.590000000,1.575554025
1.595000000,1.579772635
1.600000000,1.584964770
1.605000000,1.589507889
1.610000000,1.594051007
1.615000000,1.598594125
1.620000000,1.603461752
1.625000000,1.607680362
1.630000000,1.612547989
1.635000000,1.617415616
1.640000000,1.621958734
1.645000000,1.626177344
1.650000000,1.631044971
1.655000000,1.634939072
1.660000000,1.640131207
1.665000000,1.644674326
1.670000000,1.648892936
1.675000000,1.653436054
1.680000000,1.657979173
1.685000000,1.662522291
1.690000000,1.667065409
1.695000000,1.671608528
1.700000000,1.676151646
1.705000000,1.680694765
1.710000000,1.684913375
1.715000000,1.689456493
1.720000000,1.693999612
1.725000000,1.698867239
1.730000000,1.703085849
1.735000000,1.707628967
1.740000000,1.711847577
1.745000000,1.715741679
1.750000000,1.720609306
1.755000000,1.725152424
1.760000000,1.729046526
1.765000000,1.733589644
1.770000000,1.738132763
1.775000000,1.742351373
1.780000000,1.746569983
1.785000000,1.750788593
1.790000000,1.755331712
1.795000000,1.759550322
1.800000000,1.763768932
1.805000000,1.767987542
1.810000000,1.772530661
1.815000000,1.776749271
1.820000000,1.781292390
1.825000000,1.785186491
1.830000000,1.789405101
1.835000000,1.793948220
1.840000000,1.798166830
1.845000000,1.802385440
1.850000000,1.806279542
1.855000000,1.810498152
1.860000000,1.815041271
1.865000000,1.818935373
1.870000000,1.823478491
1.875000000,1.827372593
1.880000000,1.831591203
1.885000000,1.835809814
1.890000000,1.839703915
1.895000000,1.843922526
1.900000000,1.848141136
1.905000000,1.852035238
1.910000000,1.855929339
1.915000000,1.860472458
1.920000000,1.864366560
1.925000000,1.868585170
1.930000000,1.872479272
1.935000000,1.876373374
1.940000000,1.880267476
1.945000000,1.884161578
1.950000000,1.888055679
1.955000000,1.892274290
1.960000000,1.896168392
1.965000000,1.900062493
1.970000000,1.904281104
1.975000000,1.908175206
1.980000000,1.912069308
1.985000000,1.915638901
1.990000000,1.919533003
1.995000000,1.923751613
2.000000000,1.927645715
2.005000000,1.930890800
2.010000000,1.935758427
2.015000000,1.939003512
2.020000000,1.942573106
2.025000000,1.946467208
2.030000000,1.950036801
2.035000000,1.954255412
2.040000000,1.957825005
2.045000000,1.962043616
2.050000000,1.965613209
2.055000000,1.969182803
2.060000000,1.973076905
2.065000000,1.976646498
2.070000000,1.980216092
2.075000000,1.984110194
2.080000000,1.987679787
2.085000000,1.991249381
2.090000000,1.994818974
2.095000000,1.998388568
2.100000000,2.001958161
2.105000000,2.005527755
2.110000000,2.009421857
2.115000000,2.013315959
2.120000000,2.016561044
2.125000000,2.019806129
2.130000000,2.023700231
2.135000000,2.027594333
2.140000000,2.030514910
2.145000000,2.033759995
2.150000000,2.037329588
2.155000000,2.040899182
2.160000000,2.044793284
2.165000000,2.048038369
2.170000000,2.051283454
2.175000000,2.055177556
2.180000000,2.058098133
2.185000000,2.061992235
2.190000000,2.064912812
2.195000000,2.068806914
2.200000000,2.071727491
2.205000000,2.074972576
2.210000000,2.078217661
2.215000000,2.081787255
2.220000000,2.085032340
2.225000000,2.087952916
2.230000000,2.091847019
2.235000000,2.094767595
2.240000000,2.098012680
2.245000000,2.101257766
2.250000000,2.104178342
2.255000000,2.107747936
2.260000000,2.111317530
2.265000000,2.113913598
2.270000000,2.117483192
2.275000000,2.120403768
2.280000000,2.123324345
2.285000000,2.127218447
2.290000000,2.129814515
2.295000000,2.133059601
2.300000000,2.136304686
2.305000000,2.139225263
2.310000000,2.142794856
2.315000000,2.145390925
2.320000000,2.148311501
2.325000000,2.151556587
2.330000000,2.154152655
2.335000000,2.158371266
2.340000000,2.160967334
2.345000000,2.163563402
2.350000000,2.166808488
2.355000000,2.169729064
2.360000000,2.172974150
2.365000000,2.175894726
2.370000000,2.178490795
2.375000000,2.181735880
2.380000000,2.184331948
2.385000000,2.187577034
2.390000000,2.190822119
2.395000000,2.193093679
2.400000000,2.196663273
2.405000000,2.198934832
2.410000000,2.202179918
2.415000000,2.204775986
2.420000000,2.207372054
2.425000000,2.209968123
2.430000000,2.213213208
2.435000000,2.216133785
2.440000000,2.219054362
2.445000000,2.221325921
2.450000000,2.224571007
2.455000000,2.227491584
2.460000000,2.230087652
2.465000000,2.233008229
2.470000000,2.235604297
2.475000000,2.238200366
2.480000000,2.241445451
2.485000000,2.243717011
2.490000000,2.246637588
2.495000000,2.249233656
2.500000000,2.251829724
2.505000000,2.254101284
2.510000000,2.257021861
2.515000000,2.259617930
2.520000000,2.262863015
2.525000000,2.265459083
2.530000000,2.267406135
2.535000000,2.270651220
2.540000000,2.273247289
2.545000000,2.275843357
2.550000000,2.278439425
2.555000000,2.281035494
2.560000000,2.283307054
2.565000000,2.285903122
2.570000000,2.288499190
2.575000000,2.291095259
2.580000000,2.293691327
2.585000000,2.295962887
2.590000000,2.298234447
2.595000000,2.301155024
2.600000000,2.303102075
2.605000000,2.305698144
2.610000000,2.308618721
2.615000000,2.310890281
2.620000000,2.313486349
2.625000000,2.316082418
2.630000000,2.318029469
2.635000000,2.320625537
2.640000000,2.322897097
2.645000000,2.325493166
2.650000000,2.327440217
2.655000000,2.330360794
2.660000000,2.332632354
2.665000000,2.334903914
2.670000000,2.336850965
2.675000000,2.339771542
2.680000000,2.341718594
2.685000000,2.344314662
2.690000000,2.346586222
2.695000000,2.348857782
2.700000000,2.351453851
2.705000000,2.353400902
2.710000000,2.355672462
2.715000000,2.358268531
2.720000000,2.360215582
2.725000000,2.362811650
2.730000000,2.365083210
2.735000000,2.367354770
2.740000000,2.369301822
2.745000000,2.371897890
2.750000000,2.374169450
2.755000000,2.376116502
2.760000000,2.378388062
2.765000000,2.380659622
2.770000000,2.382606673
2.775000000,2.385202742
2.780000000,2.387149793
2.785000000,2.389745862
2.790000000,2.391368405
2.795000000,2.393964473
2.800000000,2.395911525
2.805000000,2.397858576
2.810000000,2.400130136
2.815000000,2.402077187
2.820000000,2.404024239
2.825000000,2.406295799
2.830000000,2.408242850
2.835000000,2.410514410
2.840000000,2.412461462
2.845000000,2.414408513
2.850000000,2.417004582
2.855000000,2.418627125
2.860000000,2.420898685
2.865000000,2.422845736
2.870000000,2.424792788
2.875000000,2.427064348
2.880000000,2.429011399
2.885000000,2.430633942
2.890000000,2.433230011
2.895000000,2.434852554
2.900000000,2.437124114
2.905000000,2.439395674
2.910000000,2.441018217
2.915000000,2.443289777
2.920000000,2.444912320
2.925000000,2.446859371
2.930000000,2.449130931
2.935000000,2.451077983
2.940000000,2.452700526
2.945000000,2.454972086
2.950000000,2.456919137
2.955000000,2.458541680
2.960000000,2.460164223
2.965000000,2.462435783
2.970000000,2.464707344
2.975000000,2.466005378
2.980000000,2.468601447
2.985000000,2.470223990
2.990000000,2.472171041
2.995000000,2.474118093
3.000000000,2.475416127
3.005000000,2.478012196
3.010000000,2.479634739
3.015000000,2.481257282
3.020000000,2.483528842
3.025000000,2.485151385
3.030000000,2.486773928
3.035000000,2.489045488
3.040000000,2.490668031
3.045000000,2.492615082
3.050000000,2.494237625
3.055000000,2.496184677
3.060000000,2.497807220
3.065000000,2.499754271
3.070000000,2.501701323
3.075000000,2.503648374
3.080000000,2.504946409
3.085000000,2.506893460
3.090000000,2.508191495
3.095000000,2.510463055
3.100000000,2.512410107
3.105000000,2.514032650
3.110000000,2.515655193
3.115000000,2.517277736
3.120000000,2.518900279
3.125000000,2.521171839
3.130000000,2.522469873
3.135000000,2.524416925
3.140000000,2.526039468
3.145000000,2.527662011
3.150000000,2.529284554
3.155000000,2.531231605
3.160000000,2.533178657
3.165000000,2.534152183
3.170000000,2.536099234
3.175000000,2.537397269
3.180000000,2.539668829
3.185000000,2.541940389
3.190000000,2.542913915
3.195000000,2.544536458
3.200000000,2.546159001
3.205000000,2.547781544
3.210000000,2.549079578
3.215000000,2.551026630
3.220000000,2.552649173
3.225000000,2.554596225
3.230000000,2.555894259
3.235000000,2.557192294
3.240000000,2.559139345
3.245000000,2.561086397
3.250000000,2.562384431
3.255000000,2.564331483
3.260000000,2.565629517
3.265000000,2.566927552
3.270000000,2.569199112
3.275000000,2.570497147
3.280000000,2.572119690
3.285000000,2.573742233
3.290000000,2.575040267
3.295000000,2.576662810
3.300000000,2.578609862
3.305000000,2.580232405
3.310000000,2.581530439
3.315000000,2.583152982
3.320000000,2.584775525
3.325000000,2.586073560
3.330000000,2.587371594
3.335000000,2.588994137
3.340000000,2.590616681
3.345000000,2.591914715
3.350000000,2.593537258
3.355000000,2.594835293
3.360000000,2.596782344
3.365000000,2.598080379
3.370000000,2.600027430
3.375000000,2.600676448
3.380000000,2.602948008
3.385000000,2.603597025
3.390000000,2.605544077
3.395000000,2.607491129
3.400000000,2.609113672
3.405000000,2.610087198
3.410000000,2.611385232
3.415000000,2.612683266
3.420000000,2.614630318
3.425000000,2.615928353
3.430000000,2.617550896
3.435000000,2.618524422
3.440000000,2.620146965
3.445000000,2.621769508
3.450000000,2.622743034
3.455000000,2.624690085
3.460000000,2.625663611
3.465000000,2.627286154
3.470000000,2.628584189
3.475000000,2.630206732
3.480000000,2.631504767
3.485000000,2.633451818
3.490000000,2.634425344
3.495000000,2.636047887
3.500000000,2.637021413
3.505000000,2.638968465
3.510000000,2.639941991
3.515000000,2.641564534
3.520000000,2.642862568
3.525000000,2.644160603
3.530000000,2.645458637
3.535000000,2.647081181
3.540000000,2.648379215
3.545000000,2.649677250
3.550000000,2.651299793
3.555000000,2.652597827
3.560000000,2.653895862
3.565000000,2.654869388
3.570000000,2.656167422
3.575000000,2.657465457
3.580000000,2.659088000
3.585000000,2.660061526
3.590000000,2.662008578
3.595000000,2.662982103
3.600000000,2.664604647
3.605000000,2.665902681
3.610000000,2.666876207
3.615000000,2.668823259
3.620000000,2.669796785
3.625000000,2.671094819
3.630000000,2.672392854
3.635000000,2.673690888
3.640000000,2.675313431
3.645000000,2.676286957
3.650000000,2.677584992
3.655000000,2.678883026
3.660000000,2.680505570
3.665000000,2.681479096
3.670000000,2.682777130
3.675000000,2.683750656
3.680000000,2.685048690
3.685000000,2.686671234
3.690000000,2.687969268
3.695000000,2.688942794
3.700000000,2.690240829
3.705000000,2.691538863
3.710000000,2.692836898
3.715000000,2.694134932
3.720000000,2.695757476
3.725000000,2.696731001
3.730000000,2.698029036
3.735000000,2.698678053
3.740000000,2.700300596
3.745000000,2.701923140
3.750000000,2.702572157
3.755000000,2.703545683
3.760000000,2.705492735
3.765000000,2.706466261
3.770000000,2.707764295
3.775000000,2.708737821
3.780000000,2.710360364
3.785000000,2.711333890
3.790000000,2.712956434
3.795000000,2.713929959
3.800000000,2.714903485
3.805000000,2.716201520
3.810000000,2.717175046
3.815000000,2.718148572
3.820000000,2.719446606
3.825000000,2.720744641
3.830000000,2.722042676
3.835000000,2.723340710
3.840000000,2.724638745
3.845000000,2.725287762
3.850000000,2.727234814
3.855000000,2.727883831
3.860000000,2.729181866
3.865000000,2.730804409
3.870000000,2.731453426
3.875000000,2.732426952
3.880000000,2.733724987
3.885000000,2.735023021
3.890000000,2.736321056
3.895000000,2.737294582
3.900000000,2.738268108
3.905000000,2.739890651
3.910000000,2.740539668
3.915000000,2.742162212
3.920000000,2.743135738
3.925000000,2.744433772
3.930000000,2.745082790
3.935000000,2.746056315
3.940000000,2.747678859
3.945000000,2.748976893
3.950000000,2.749950419
3.955000000,2.750599437
3.960000000,2.751897471
3.965000000,2.753195506
3.970000000,2.754493540
3.975000000,2.755142558
3.980000000,2.756765101
3.985000000,2.757738627
3.990000000,2.758712153
3.995000000,2.759685679
4.000000000,2.760983714
4.005000000,2.761957239
4.010000000,2.763579783
4.015000000,2.764228800
4.020000000,2.765202326
4.025000000,2.766500361
4.030000000,2.767473887
4.035000000,2.768771921
4.040000000,2.769745447
4.045000000,2.771043482
4.050000000,2.772017008
4.055000000,2.772990534
4.060000000,2.773964060
4.065000000,2.775262094
4.070000000,2.775911112
4.075000000,2.776884638
4.080000000,2.778182672
4.085000000,2.779156198
4.090000000,2.780129724
4.095000000,2.781427759
4.100000000,2.782401285
4.105000000,2.783699320
4.110000000,2.784348337
4.115000000,2.785970880
4.120000000,2.786944406
4.125000000,2.787917932
4.130000000,2.788566949
4.135000000,2.789864984
4.140000000,2.790838510
4.145000000,2.791812036
4.150000000,2.793110071
4.155000000,2.794083597
4.160000000,2.794732614
4.165000000,2.796030649
4.170000000,2.797004175
4.175000000,2.798302209
4.180000000,2.798951227
4.185000000,2.800249261
4.190000000,2.801222787
4.195000000,2.802196313
4.200000000,2.803169839
4.205000000,2.804143365
4.210000000,2.805116891
4.215000000,2.806090417
4.220000000,2.807063943
4.225000000,2.807712961
4.230000000,2.809335504
4.235000000,2.810633539
4.240000000,2.811282556
4.245000000,2.812256082
4.250000000,2.812905099
4.255000000,2.814203134
4.260000000,2.815176660
4.265000000,2.816150186
4.270000000,2.817448221
4.275000000,2.818097238
4.280000000,2.819395273
4.285000000,2.820368799
4.290000000,2.821017816
4.295000000,2.821991342
4.300000000,2.822640359
4.305000000,2.823938394
4.310000000,2.824911920
4.315000000,2.825885446
4.320000000,2.826858972
4.325000000,2.827507989
4.330000000,2.828806024
4.335000000,2.829455041
4.340000000,2.830753076
4.345000000,2.831726602
4.350000000,2.832375620
4.355000000,2.833673654
4.360000000,2.834647180
4.365000000,2.835296198
4.370000000,2.836269724
4.375000000,2.837243250
4.380000000,2.838216776
4.385000000,2.838865793
4.390000000,2.840163828
4.395000000,2.841137354
4.400000000,2.842110880
4.405000000,2.843084406
4.410000000,2.844057932
4.415000000,2.845031458
4.420000000,2.845680475
4.425000000,2.846329493
4.430000000,2.847952036
4.435000000,2.848601053
4.440000000,2.849574579
4.445000000,2.850548105
4.450000000,2.851521631
4.455000000,2.852495157
4.460000000,2.852819666
4.465000000,2.854117701
4.470000000,2.855091227
4.475000000,2.855740244
4.480000000,2.857038279
4.485000000,2.857687296
4.490000000,2.858336314
4.495000000,2.859309840
4.500000000,2.860607874
4.505000000,2.861256892
4.510000000,2.862230418
4.515000000,2.863203944
4.520000000,2.864177470
4.525000000,2.864501979
4.530000000,2.865800013
4.535000000,2.866773539
4.540000000,2.867422557
4.545000000,2.868720591
4.550000000,2.869369609
4.555000000,2.870018626
4.560000000,2.871316661
4.565000000,2.872290187
4.570000000,2.872939204
4.575000000,2.873912730
4.580000000,2.874561748
4.585000000,2.875535274
4.590000000,2.876508800
4.595000000,2.877157817
4.600000000,2.878131343
4.605000000,2.879104869
4.610000000,2.879753887
4.615000000,2.880727413
4.620000000,2.881700939
4.625000000,2.882674465
4.630000000,2.882998973
4.635000000,2.883972500
4.640000000,2.884946026
4.645000000,2.885919552
4.650000000,2.886893078
4.655000000,2.887542095
4.660000000,2.888840130
4.665000000,2.889489147
4.670000000,2.890138165
4.675000000,2.891111691
4.680000000,2.892085217
4.685000000,2.892409725
4.690000000,2.893707760
4.695000000,2.894356778
4.700000000,2.895005795
4.705000000,2.895979321
4.710000000,2.896952847
4.715000000,2.897601864
4.720000000,2.898575390
4.725000000,2.899548917
4.730000000,2.900197934
4.735000000,2.901171460
4.740000000,2.901820477
4.745000000,2.902469495
4.750000000,2.903767530
4.755000000,2.904416547
4.760000000,2.904741056
4.765000000,2.906039090
4.770000000,2.906688108
4.775000000,2.907661634
4.780000000,2.908310651
4.785000000,2.909284177
4.790000000,2.910582212
4.795000000,2.911231229
4.800000000,2.911880247
4.805000000,2.912853773
4.810000000,2.913502790
4.815000000,2.913827299
4.820000000,2.915125334
4.825000000,2.916098860
4.830000000,2.916747877
4.835000000,2.917396895
4.840000000,2.918370421
4.845000000,2.918694929
4.850000000,2.920317473
4.855000000,2.920966490
4.860000000,2.921290999
4.865000000,2.922264525
4.870000000,2.923238051
4.875000000,2.923562560
4.880000000,2.924860595
4.885000000,2.925509612
4.890000000,2.926158629
4.895000000,2.927132155
4.900000000,2.927781173
4.905000000,2.928105682
4.910000000,2.929728225
4.915000000,2.930377242
4.920000000,2.930701751
4.925000000,2.931999786
4.930000000,2.932648803
4.935000000,2.932973312
4.940000000,2.934271347
4.945000000,2.935244873
4.950000000,2.935569382
4.955000000,2.936542908
4.960000000,2.937191925
4.965000000,2.937840943
4.970000000,2.938814469
4.975000000,2.939787995
4.980000000,2.940112503
4.985000000,2.941086030
4.990000000,2.941735047
4.995000000,2.942384064
5.000000000,2.943357590
5.005000000,2.944331117
5.010000000,2.944655625
5.015000000,2.945629151
5.020000000,2.946278169
5.025000000,2.947251695
5.030000000,2.947576204
5.035000000,2.948549730
5.040000000,2.949198747
5.045000000,2.949847765
5.050000000,2.950821291
5.055000000,2.951794817
5.060000000,2.952768343
5.065000000,2.953092852
5.070000000,2.953741869
5.075000000,2.954715395
5.080000000,2.955688921
5.085000000,2.956337939
5.090000000,2.956662447
5.095000000,2.957635973
5.100000000,2.958284991
5.105000000,2.958934008
5.110000000,2.959907534
5.115000000,2.960556552
5.120000000,2.960881060
5.125000000,2.961854587
5.130000000,2.962503604
5.135000000,2.963477130
5.140000000,2.964450656
5.145000000,2.964775165
5.150000000,2.965748691
5.155000000,2.966073200
5.160000000,2.967046726
5.165000000,2.967695743
5.170000000,2.968344761
5.175000000,2.968993778
5.180000000,2.969967304
5.185000000,2.970616322
5.190000000,2.971265339
5.195000000,2.971914357
5.200000000,2.972887883
5.205000000,2.973536900
5.210000000,2.974185918
5.215000000,2.975159444
5.220000000,2.975808461
5.225000000,2.976457479
5.230000000,2.976781987
5.235000000,2.977431005
5.240000000,2.978404531
5.245000000,2.979702566
5.250000000,2.980351583
5.255000000,2.981000600
5.260000000,2.981325109
5.265000000,2.981974127
5.270000000,2.982947653
5.275000000,2.983921179
5.280000000,2.984245688
5.285000000,2.985219214
5.290000000,2.985219214
5.295000000,2.986517249
5.300000000,2.986841757
5.305000000,2.987490775
5.310000000,2.988139792
5.315000000,2.989113318
5.320000000,2.990086844
5.325000000,2.990411353
5.330000000,2.991060371
5.335000000,2.991709388
5.340000000,2.992682914
5.345000000,2.992682914
5.350000000,2.993656440
5.355000000,2.994629966
5.360000000,2.995278984
5.365000000,2.996252510
5.370000000,2.996577019
5.375000000,2.997226036
5.380000000,2.998199562
5.385000000,2.998848580
5.390000000,2.999497597
5.395000000,2.999822106
5.400000000,3.000471123
5.405000000,3.001444649
5.410000000,3.002093667
5.415000000,3.002742684
5.420000000,3.003391702
5.425000000,3.004040719
5.430000000,3.004040719
5.435000000,3.005663263
5.440000000,3.006312280
5.445000000,3.006636789
5.450000000,3.006961298
5.455000000,3.008259333
5.460000000,3.009232859
5.465000000,3.009232859
5.470000000,3.010206385
5.475000000,3.010855402
5.480000000,3.011179911
5.485000000,3.011828928
5.490000000,3.012477946
5.495000000,3.013451472
5.500000000,3.014100490
5.505000000,3.014424998
5.510000000,3.015398524
5.515000000,3.016047542
5.520000000,3.016372051
5.525000000,3.017670085
5.530000000,3.017994594
5.535000000,3.018968120
5.540000000,3.019292629
5.545000000,3.019617138
5.550000000,3.020915173
5.555000000,3.021564190
5.560000000,3.021888699
5.565000000,3.022537716
5.570000000,3.023511242
5.575000000,3.024160260
5.580000000,3.024484769
5.585000000,3.024809277
5.590000000,3.025782804
5.595000000,3.026107312
5.600000000,3.027405347
5.605000000,3.027729856
5.610000000,3.028378873
5.615000000,3.029352400
5.620000000,3.029676908
5.625000000,3.030001417
5.630000000,3.030650434
5.635000000,3.031948469
5.640000000,3.032272978
5.645000000,3.032597487
5.650000000,3.033571013
5.655000000,3.033895522
5.660000000,3.034869048
5.665000000,3.035193557
5.670000000,3.035518065
5.675000000,3.036167083
5.680000000,3.037140609
5.685000000,3.037789626
5.690000000,3.038438644
5.695000000,3.039087661
5.700000000,3.040061188
5.705000000,3.040061188
5.710000000,3.041034714
5.715000000,3.041683731
5.720000000,3.042657257
5.725000000,3.042657257
5.730000000,3.043306275
5.735000000,3.043630784
5.740000000,3.044928818
5.745000000,3.045253327
5.750000000,3.045577836
5.755000000,3.046875871
5.760000000,3.046875871
5.765000000,3.047849397
5.770000000,3.048173906
5.775000000,3.048822923
5.780000000,3.049796449
5.785000000,3.050120958
5.790000000,3.050769976
5.795000000,3.051418993
5.800000000,3.052068011
5.805000000,3.052392519
5.810000000,3.053041537
5.815000000,3.053690554
5.820000000,3.054339572
5.825000000,3.054988589
5.830000000,3.055637607
5.835000000,3.055962115
5.840000000,3.056935642
5.845000000,3.057584659
5.850000000,3.058233676
5.855000000,3.058233676
5.860000000,3.059207203
5.865000000,3.059856220
5.870000000,3.060505238
5.875000000,3.060829746
5.880000000,3.061478764
5.885000000,3.061803273
5.890000000,3.063101307
5.895000000,3.063101307
5.900000000,3.064074834
5.905000000,3.064399342
5.910000000,3.065372869
5.915000000,3.065697377
5.920000000,3.066346395
5.925000000,3.066995412
5.930000000,3.067644430
5.935000000,3.067644430
5.940000000,3.068617956
5.945000000,3.069266973
5.950000000,3.069915991
5.955000000,3.070565008
5.960000000,3.071214026
5.965000000,3.071538535
5.970000000,3.072187552
5.975000000,3.072836570
5.980000000,3.073485587
5.985000000,3.073810096
5.990000000,3.074134605
5.995000000,3.075108131
6.000000000,3.075432639
6.005000000,3.076406166
6.010000000,3.077055183
6.015000000,3.077379692
6.020000000,3.078028709
6.025000000,3.078677727
6.030000000,3.079651253
6.035000000,3.079651253
6.040000000,3.080300271
6.045000000,3.080300271
6.050000000,3.081273797
6.055000000,3.081922814
6.060000000,3.082571832
6.065000000,3.083220849
6.070000000,3.083545358
6.075000000,3.084194375
6.080000000,3.084843393
6.085000000,3.085167902
6.090000000,3.086141428
6.095000000,3.086790445
6.100000000,3.087114954
6.105000000,3.087763972
6.110000000,3.088412989
6.115000000,3.088737498
6.120000000,3.089711024
6.125000000,3.089711024
6.130000000,3.090360042
6.135000000,3.091009059
6.140000000,3.091658076
6.145000000,3.091982585
6.150000000,3.092307094
6.155000000,3.093280620
6.160000000,3.093929638
6.165000000,3.094254146
6.170000000,3.094903164
6.175000000,3.095552181
6.180000000,3.096201199
6.185000000,3.096525708
6.190000000,3.097174725
6.195000000,3.097499234
6.200000000,3.098472760
6.205000000,3.098797269
6.210000000,3.099121778
6.215000000,3.099770795
6.220000000,3.100419813
6.225000000,3.101068830
6.230000000,3.101393339
6.235000000,3.101717848
6.240000000,3.102691374
6.245000000,3.103015883
6.250000000,3.103989409
6.255000000,3.104313918
6.260000000,3.104638426
6.265000000,3.105611953
6.270000000,3.105936461
6.275000000,3.106585479
6.280000000,3.106909988
6.285000000,3.107883514
6.290000000,3.108208023
6.295000000,3.108208023
6.300000000,3.109181549
6.305000000,3.109506057
6.310000000,3.110155075
6.315000000,3.110804092
6.320000000,3.110804092
6.325000000,3.111777619
6.330000000,3.112102127
6.335000000,3.112751145
6.340000000,3.113400162
6.345000000,3.114049180
6.350000000,3.114373689
6.355000000,3.115022706
6.360000000,3.115347215
6.365000000,3.116320741
6.370000000,3.116645250
6.375000000,3.116969759
6.380000000,3.117943285
6.385000000,3.118267794
6.390000000,3.118592302
6.395000000,3.119241320
6.400000000,3.119565829
6.405000000,3.120539355
6.410000000,3.120214846
6.415000000,3.120863864
6.420000000,3.121188372
6.425000000,3.122486407
6.430000000,3.122810916
6.435000000,3.123459934
6.440000000,3.124108951
6.445000000,3.124433460
6.450000000,3.125406986
6.455000000,3.125731495
6.460000000,3.126056004
6.465000000,3.126380513
6.470000000,3.127354039
6.475000000,3.127678548
6.480000000,3.128003056
6.485000000,3.128976583
6.490000000,3.128976583
6.495000000,3.129625600
6.500000000,3.130274618
6.505000000,3.130599126
6.510000000,3.130923635
6.515000000,3.131897161
6.520000000,3.132221670
6.525000000,3.132546179
6.530000000,3.133195196
6.535000000,3.134168723
6.540000000,3.134168723
6.545000000,3.134493231
6.550000000,3.135142249
6.555000000,3.135791266
6.560000000,3.136115775
6.565000000,3.136764793
6.570000000,3.137413810
6.575000000,3.137738319
6.580000000,3.138062828
6.585000000,3.138711845
6.590000000,3.139685371
6.595000000,3.139685371
6.600000000,3.140334389
6.605000000,3.140658898
6.610000000,3.141307915
6.615000000,3.141956933
6.620000000,3.142281442
6.625000000,3.142930459
6.630000000,3.143579477
6.635000000,3.143903985
6.640000000,3.144553003
6.645000000,3.144553003
6.650000000,3.145526529
6.655000000,3.145526529
6.660000000,3.146500055
6.665000000,3.146824564
6.670000000,3.147473582
6.675000000,3.147798090
6.680000000,3.147798090
6.685000000,3.148447108
6.690000000,3.149420634
6.695000000,3.149745143
6.700000000,3.150069652
6.705000000,3.150718669
6.710000000,3.151043178
6.715000000,3.151692196
6.720000000,3.152016704
6.725000000,3.152990231
6.730000000,3.153314739
6.735000000,3.153963757
6.740000000,3.154288266
6.745000000,3.154612774
6.750000000,3.155261792
6.755000000,3.155586301
6.760000000,3.155910809
6.765000000,3.156559827
6.770000000,3.157208845
6.775000000,3.157857862
6.780000000,3.157857862
6.785000000,3.158506880
6.790000000,3.158831388
6.795000000,3.159480406
6.800000000,3.159480406
6.805000000,3.160453932
6.810000000,3.160778441
6.815000000,3.161751967
6.820000000,3.161751967
6.825000000,3.162400985
6.830000000,3.163050002
6.835000000,3.163374511
6.840000000,3.164023529
6.845000000,3.164348037
6.850000000,3.164997055
6.855000000,3.165321564
6.860000000,3.165646072
6.865000000,3.166295090
6.870000000,3.166619599
6.875000000,3.167268616
6.880000000,3.167917634
6.885000000,3.168242142
6.890000000,3.168242142
6.895000000,3.168891160
6.900000000,3.169540178
6.905000000,3.170189195
6.910000000,3.170513704
6.915000000,3.170838213
6.920000000,3.171487230
6.925000000,3.172136248
6.930000000,3.172136248
6.935000000,3.173109774
6.940000000,3.173109774
6.945000000,3.173434283
6.950000000,3.174083300
6.955000000,3.174732318
6.960000000,3.175056827
6.965000000,3.175381335
6.970000000,3.175705844
6.975000000,3.176354862
6.980000000,3.176679370
6.985000000,3.177328388
6.990000000,3.177977405
6.995000000,3.178626423
7.000000000,3.178950932
7.005000000,3.178950932
7.010000000,3.179599949
7.015000000,3.180248967
7.020000000,3.180897984
7.025000000,3.181547002
7.030000000,3.181547002
7.035000000,3.181871511
7.040000000,3.182520528
7.045000000,3.182845037
7.050000000,3.183494055
7.055000000,3.184143072
7.060000000,3.184467581
7.065000000,3.184792090
7.070000000,3.185116598
7.075000000,3.185765616
7.080000000,3.186414633
7.085000000,3.186739142
7.090000000,3.187388160
7.095000000,3.187388160
7.100000000,3.188037177
7.105000000,3.188361686
7.110000000,3.188686195
7.115000000,3.189335212
7.120000000,3.189659721
7.125000000,3.189984230
7.130000000,3.190957756
7.135000000,3.191282265
7.140000000,3.191606774
7.145000000,3.191931283
7.150000000,3.192255791
7.155000000,3.193229318
7.160000000,3.193229318
7.165000000,3.193878335
7.170000000,3.194527353
7.175000000,3.194527353
7.180000000,3.195500879
7.185000000,3.195500879
7.190000000,3.196149897
7.195000000,3.196474405
7.200000000,3.197123423
7.205000000,3.197447932
7.210000000,3.198096949
7.215000000,3.198421458
7.220000000,3.199070476
7.225000000,3.199070476
7.230000000,3.199719493
7.235000000,3.200044002
7.240000000,3.200693020
7.245000000,3.201017528
7.250000000,3.201342037
7.255000000,3.201666546
7.260000000,3.202315563
7.265000000,3.202964581
7.270000000,3.203289090
7.275000000,3.203613598
7.280000000,3.203938107
7.285000000,3.204587125
7.290000000,3.204911634
7.295000000,3.205560651
7.300000000,3.205560651
7.305000000,3.205885160
7.310000000,3.206858686
7.315000000,3.207183195
7.320000000,3.207832213
7.325000000,3.208156721
7.330000000,3.208481230
7.335000000,3.209130248
7.340000000,3.209130248
7.345000000,3.209454756
7.350000000,3.210103774
7.355000000,3.210752792
7.360000000,3.211077300
7.365000000,3.211401809
7.370000000,3.211726318
7.375000000,3.212375335
7.380000000,3.212699844
7.385000000,3.213024353
7.390000000,3.213673371
7.395000000,3.213997879
7.400000000,3.214322388
7.405000000,3.214646897
7.410000000,3.215295914
7.415000000,3.216269441
7.420000000,3.216269441
7.425000000,3.216593950
7.430000000,3.216918458
7.435000000,3.217242967
7.440000000,3.217891985
7.445000000,3.218541002
7.450000000,3.218865511
7.455000000,3.218865511
7.460000000,3.219514529
7.465000000,3.219839037
7.470000000,3.219839037
7.475000000,3.220812564
7.480000000,3.221137073
7.485000000,3.221461581
7.490000000,3.222110599
7.495000000,3.222435108
7.500000000,3.222759616
7.505000000,3.223408634
7.510000000,3.223733143
7.515000000,3.224057652
7.520000000,3.224057652
7.525000000,3.225031178
7.530000000,3.225031178
7.535000000,3.225680195
7.540000000,3.226329213
7.545000000,3.226653722
7.550000000,3.226978231
7.555000000,3.227627248
7.560000000,3.227627248
7.565000000,3.228276266
7.570000000,3.228600775
7.575000000,3.228925283
7.580000000,3.229574301
7.585000000,3.229249792
7.590000000,3.230547827
7.595000000,3.230547827
7.600000000,3.231196845
7.605000000,3.231521354
7.610000000,3.232170371
7.615000000,3.232494880
7.620000000,3.232819389
7.625000000,3.233468406
7.630000000,3.233792915
7.635000000,3.234117424
7.640000000,3.234441933
7.645000000,3.235090950
7.650000000,3.234766441
7.655000000,3.235739968
7.660000000,3.236388985
7.665000000,3.236064477
7.670000000,3.236713494
7.675000000,3.237362512
7.680000000,3.237687021
7.685000000,3.238011529
7.690000000,3.238985056
7.695000000,3.238660547
7.700000000,3.239309564
7.705000000,3.239958582
7.710000000,3.239958582
7.715000000,3.240283091
7.720000000,3.241256617
7.725000000,3.241256617
7.730000000,3.242230144
7.735000000,3.242554652
7.740000000,3.242554652
7.745000000,3.243203670
7.750000000,3.243203670
7.755000000,3.243852687
7.760000000,3.243852687
7.765000000,3.244826214
7.770000000,3.245475231
7.775000000,3.245799740
7.780000000,3.246124249
7.785000000,3.246124249
7.790000000,3.246773267
7.795000000,3.247422284
7.800000000,3.247746793
7.805000000,3.247746793
7.810000000,3.247746793
7.815000000,3.248720319
7.820000000,3.248720319
7.825000000,3.249044828
7.830000000,3.250018354
7.835000000,3.250342863
7.840000000,3.250667372
7.845000000,3.250667372
7.850000000,3.250991881
7.855000000,3.251965407
7.860000000,3.251965407
7.865000000,3.252614425
7.870000000,3.252938934
7.875000000,3.253263442
7.880000000,3.253263442
7.885000000,3.253912460
7.890000000,3.254236969
7.895000000,3.254885986
7.900000000,3.255535004
7.905000000,3.255859513
7.910000000,3.255859513
7.915000000,3.256508530
7.920000000,3.256508530
7.925000000,3.256833039
7.930000000,3.257482057
7.935000000,3.258131074
7.940000000,3.258455583
7.945000000,3.258780092
7.950000000,3.259104601
7.955000000,3.259429109
7.960000000,3.260078127
7.965000000,3.260078127
7.970000000,3.260402636
7.975000000,3.260727145
7.980000000,3.261376162
7.985000000,3.261700671
7.990000000,3.262674197
7.995000000,3.262674197
8.000000000,3.262998706
8.005000000,3.263323215
8.010000000,3.263647724
8.015000000,3.264296741
8.020000000,3.264621250
8.025000000,3.265270268
8.030000000,3.265270268
8.035000000,3.265594777
8.040000000,3.265919285
8.045000000,3.266243794
8.050000000,3.266892812
8.055000000,3.267217320
8.060000000,3.267866338
8.065000000,3.267866338
8.070000000,3.268190847
8.075000000,3.269164373
8.080000000,3.268515356
8.085000000,3.269488882
8.090000000,3.269813391
8.095000000,3.270137900
8.100000000,3.270462408
8.105000000,3.270786917
8.110000000,3.271435935
8.115000000,3.271435935
8.120000000,3.272084952
8.125000000,3.272409461
8.130000000,3.273058479
8.135000000,3.273707496
8.140000000,3.273382988
8.145000000,3.274032005
8.150000000,3.274356514
8.155000000,3.274356514
8.160000000,3.275005532
8.165000000,3.275330040
8.170000000,3.275654549
8.175000000,3.276303567
8.180000000,3.276628076
8.185000000,3.276628076
8.190000000,3.277277093
8.195000000,3.277601602
8.200000000,3.278250620
8.205000000,3.278250620
8.210000000,3.278250620
8.215000000,3.279224146
8.220000000,3.279548655
8.225000000,3.280197672
8.230000000,3.280522181
8.235000000,3.280522181
8.240000000,3.280846690
8.245000000,3.281495708
8.250000000,3.281820216
8.255000000,3.281820216
8.260000000,3.282469234
8.265000000,3.282469234
8.270000000,3.282793743
8.275000000,3.283767269
8.280000000,3.283767269
8.285000000,3.284740796
8.290000000,3.284416287
8.295000000,3.285065304
8.300000000,3.285389813
8.305000000,3.286363340
8.310000000,3.286363340
8.315000000,3.286363340
8.320000000,3.286363340
8.325000000,3.287012357
8.330000000,3.287336866
8.335000000,3.287985884
8.340000000,3.288310392
8.345000000,3.288634901
8.350000000,3.288959410
8.355000000,3.289608428
8.360000000,3.289608428
8.365000000,3.289608428
8.370000000,3.290581954
8.375000000,3.290257445
8.380000000,3.291230972
8.385000000,3.291555480
8.390000000,3.291879989
8.395000000,3.292204498
8.400000000,3.292853516
8.405000000,3.293178024
8.410000000,3.293178024
8.415000000,3.293502533
8.420000000,3.293502533
8.425000000,3.293827042
8.430000000,3.294476060
8.435000000,3.295449586
8.440000000,3.295449586
8.445000000,3.295774095
8.450000000,3.296098604
8.455000000,3.296423112
8.460000000,3.296747621
8.465000000,3.297396639
8.470000000,3.297721148
8.475000000,3.297721148
8.480000000,3.298045657
8.485000000,3.298694674
8.490000000,3.299019183
8.495000000,3.299019183
8.500000000,3.299668201
8.505000000,3.299992709
8.510000000,3.300641727
8.515000000,3.300641727
8.520000000,3.300966236
8.525000000,3.301290745
8.530000000,3.301290745
8.535000000,3.301939762
8.540000000,3.302588780
8.545000000,3.302913289
8.550000000,3.303237797
8.555000000,3.303562306
8.560000000,3.303886815
8.565000000,3.303886815
8.570000000,3.304860341
8.575000000,3.304860341
8.580000000,3.305184850
8.585000000,3.305509359
8.590000000,3.305509359
8.595000000,3.306482885
8.600000000,3.305833868
8.605000000,3.307131903
8.610000000,3.307131903
8.615000000,3.307456412
8.620000000,3.307780921
8.625000000,3.308429938
8.630000000,3.308754447
8.635000000,3.309078956
8.640000000,3.309403465
8.645000000,3.309727974
8.650000000,3.309727974
8.655000000,3.310376991
8.660000000,3.311026009
8.665000000,3.310701500
8.670000000,3.311350518
8.675000000,3.311999535
8.680000000,3.311999535
8.685000000,3.312648553
8.690000000,3.312973062
8.695000000,3.312973062
8.700000000,3.313297570
8.705000000,3.313622079
8.710000000,3.314271097
8.715000000,3.314271097
8.720000000,3.314595606
8.725000000,3.315244623
8.730000000,3.315569132
8.735000000,3.315893641
8.740000000,3.316218150
8.745000000,3.316542659
8.750000000,3.316867167
8.755000000,3.317191676
8.760000000,3.317516185
8.765000000,3.317516185
8.770000000,3.318489711
8.775000000,3.318814220
8.780000000,3.319138729
8.785000000,3.319138729
8.790000000,3.319463238
8.795000000,3.320112255
8.800000000,3.320112255
8.805000000,3.320436764
8.810000000,3.321085782
8.815000000,3.321085782
8.820000000,3.321734800
8.825000000,3.322059308
8.830000000,3.322059308
8.835000000,3.322383817
8.840000000,3.323032835
8.845000000,3.323357344
8.850000000,3.324006361
8.855000000,3.324330870
8.860000000,3.324330870
8.865000000,3.324979888
8.870000000,3.324979888
8.875000000,3.324979888
8.880000000,3.325953414
8.885000000,3.325304397
8.890000000,3.325953414
8.895000000,3.326277923
8.900000000,3.326926941
8.905000000,3.327251449
8.910000000,3.327900467
8.915000000,3.327575958
8.920000000,3.328224976
8.925000000,3.328549485
8.930000000,3.328873993
8.935000000,3.329198502
8.940000000,3.329198502
8.945000000,3.329847520
8.950000000,3.330172029
8.955000000,3.330496538
8.960000000,3.330821046
8.965000000,3.331145555
8.970000000,3.331145555
8.975000000,3.331794573
8.980000000,3.332443590
8.985000000,3.332443590
8.990000000,3.332768099
8.995000000,3.333417117
9.000000000,3.333417117
9.005000000,3.333741626
9.010000000,3.333741626
9.015000000,3.334390643
9.020000000,3.334715152
9.025000000,3.335039661
9.030000000,3.335364170
9.035000000,3.335688679
9.040000000,3.335688679
9.045000000,3.336337696
9.050000000,3.336662205
9.055000000,3.336986714
9.060000000,3.337311223
9.065000000,3.337960240
9.070000000,3.338284749
9.075000000,3.338609258
9.080000000,3.338609258
9.085000000,3.338609258
9.090000000,3.339258276
9.095000000,3.339582784
9.100000000,3.339907293
9.105000000,3.340556311
9.110000000,3.339907293
9.115000000,3.341205328
9.120000000,3.341205328
9.125000000,3.341529837
9.130000000,3.341529837
9.135000000,3.341854346
9.140000000,3.342503364
9.145000000,3.342503364
9.150000000,3.342503364
9.155000000,3.343476890
9.160000000,3.343801399
9.165000000,3.343801399
9.170000000,3.344125908
9.175000000,3.344450417
9.180000000,3.345099434
9.185000000,3.345099434
9.190000000,3.345099434
9.195000000,3.345748452
9.200000000,3.346072961
9.205000000,3.346721978
9.210000000,3.347046487
9.215000000,3.347046487
9.220000000,3.347370996
9.225000000,3.347695505
9.230000000,3.348020014
9.235000000,3.348669031
9.240000000,3.348993540
9.245000000,3.348993540
9.250000000,3.349318049
9.255000000,3.349967067
9.260000000,3.349967067
9.265000000,3.350291575
9.270000000,3.350616084
9.275000000,3.350940593
9.280000000,3.351265102
9.285000000,3.350940593
9.290000000,3.351914120
9.295000000,3.351914120
9.300000000,3.352238628
9.305000000,3.352887646
9.310000000,3.352887646
9.315000000,3.353212155
9.320000000,3.353861173
9.325000000,3.354185681
9.330000000,3.354510190
9.335000000,3.354834699
9.340000000,3.354834699
9.345000000,3.355159208
9.350000000,3.355483717
9.355000000,3.356132734
9.360000000,3.356132734
9.365000000,3.356132734
9.370000000,3.357106261
9.375000000,3.357106261
9.380000000,3.357430770
9.385000000,3.357430770
9.390000000,3.358079787
9.395000000,3.358404296
9.400000000,3.358728805
9.405000000,3.358728805
9.410000000,3.359053314
9.415000000,3.359377823
9.420000000,3.360026840
9.425000000,3.360351349
9.430000000,3.360675858
9.435000000,3.360675858
9.440000000,3.361000367
9.445000000,3.361324875
9.450000000,3.361649384
9.455000000,3.361973893
9.460000000,3.362622911
9.465000000,3.362622911
9.470000000,3.362622911
9.475000000,3.363271928
9.480000000,3.363596437
9.485000000,3.363596437
9.490000000,3.363920946
9.495000000,3.364245455
9.500000000,3.364569964
9.505000000,3.364894473
9.510000000,3.365218981
9.515000000,3.365867999
9.520000000,3.365867999
9.525000000,3.365867999
9.530000000,3.366517017
9.535000000,3.366841526
9.540000000,3.366841526
9.545000000,3.367166034
9.550000000,3.368139561
9.555000000,3.367815052
9.560000000,3.368139561
9.565000000,3.368464070
9.570000000,3.369113087
9.575000000,3.368788578
9.580000000,3.369113087
9.585000000,3.368788578
9.590000000,3.369113087
9.595000000,3.368788578
9.600000000,3.368788578
9.605000000,3.368788578
9.610000000,3.369113087
9.615000000,3.368788578
9.620000000,3.368464070
9.625000000,3.368788578
9.630000000,3.369113087
9.635000000,3.368139561
9.640000000,3.368788578
9.645000000,3.368788578
9.650000000,3.368788578
9.655000000,3.369113087
9.660000000,3.368788578
9.665000000,3.368464070
9.670000000,3.368788578
9.675000000,3.368464070
9.680000000,3.368464070
9.685000000,3.368788578
9.690000000,3.368139561
9.695000000,3.368464070
9.700000000,3.368464070
9.705000000,3.368139561
9.710000000,3.368464070
9.715000000,3.368464070
9.720000000,3.368464070
9.725000000,3.369113087
9.730000000,3.368464070
9.735000000,3.368464070
9.740000000,3.368464070
9.745000000,3.368139561
9.750000000,3.368464070
9.755000000,3.368788578
9.760000000,3.368464070
9.765000000,3.368464070
9.770000000,3.368464070
9.775000000,3.368464070
9.780000000,3.367815052
9.785000000,3.368464070
9.790000000,3.368139561
9.795000000,3.368139561
9.800000000,3.368139561
9.805000000,3.368464070
9.810000000,3.368139561
9.815000000,3.368139561
9.820000000,3.368139561
9.825000000,3.368139561
9.830000000,3.367815052
9.835000000,3.368464070
9.840000000,3.368139561
9.845000000,3.368464070
9.850000000,3.367815052
9.855000000,3.368464070
9.860000000,3.368139561
9.865000000,3.368139561
9.870000000,3.368139561
9.875000000,3.368139561
9.880000000,3.368464070
9.885000000,3.368139561
9.890000000,3.368139561
9.895000000,3.368139561
9.900000000,3.367815052
9.905000000,3.368139561
9.910000000,3.368139561
9.915000000,3.368139561
9.920000000,3.367815052
9.925000000,3.368139561
9.930000000,3.368139561
9.935000000,3.367815052
9.940000000,3.367815052
9.945000000,3.368139561
9.950000000,3.368139561
9.955000000,3.368139561
9.960000000,3.368139561
9.965000000,3.367815052
9.970000000,3.367815052
9.975000000,3.367815052
9.980000000,3.367815052
9.985000000,3.367815052
9.990000000,3.368139561
9.995000000,3.367815052
10.000000000,3.367815052
