Zeit [ms],U_A [V],U_E [V]
0.000000000,0.000065627,-1.022785232
0.020000000,0.000390136,-1.012076448
0.040000000,0.000390136,-1.001043155
0.060000000,0.000390136,-0.990334371
0.080000000,0.000390136,-0.979950096
0.100000000,0.000390136,-0.968592295
0.120000000,0.000390136,-0.957559002
0.140000000,0.000390136,-0.946850218
0.160000000,0.000065627,-0.935492417
0.180000000,0.000065627,-0.923810108
0.200000000,0.000065627,-0.913101324
0.220000000,0.000390136,-0.901419015
0.240000000,-0.000258881,-0.890710232
0.260000000,0.000065627,-0.879027923
0.280000000,0.000390136,-0.867994631
0.300000000,0.000065627,-0.856312322
0.320000000,0.000065627,-0.845603539
0.340000000,-0.000258881,-0.833596722
0.360000000,0.000390136,-0.821914413
0.380000000,0.000390136,-0.810556613
0.400000000,0.000065627,-0.798874305
0.420000000,0.000390136,-0.787516505
0.440000000,0.000390136,-0.775834196
0.460000000,0.000390136,-0.764151888
0.480000000,0.000065627,-0.752469580
0.500000000,0.000065627,-0.740787272
0.520000000,0.000390136,-0.729429473
0.540000000,0.000065627,-0.717422656
0.560000000,0.000390136,-0.705415840
0.580000000,0.000390136,-0.693409023
0.600000000,0.000065627,-0.681726716
0.620000000,0.000065627,-0.669719900
0.640000000,0.000065627,-0.658362101
0.660000000,0.000390136,-0.646030776
0.680000000,0.000065627,-0.633699452
0.700000000,0.000065627,-0.622341653
0.720000000,0.000065627,-0.610334837
0.740000000,0.000390136,-0.598328022
0.760000000,0.000390136,-0.586321206
0.780000000,0.000065627,-0.574638899
0.800000000,0.000390136,-0.561658558
0.820000000,0.000390136,-0.549976251
0.840000000,0.000065627,-0.538293944
0.860000000,0.000065627,-0.525638112
0.880000000,0.000390136,-0.512982280
0.900000000,0.000065627,-0.501948990
0.920000000,0.000065627,-0.488968650
0.940000000,0.000390136,-0.476961835
0.960000000,0.000065627,-0.464955020
0.980000000,0.000065627,-0.452299188
1.000000000,0.000065627,-0.439318848
1.020000000,0.000065627,-0.427312033
1.040000000,0.000065627,-0.415305219
1.060000000,0.000065627,-0.402973896
1.080000000,0.000065627,-0.390642573
1.100000000,0.000065627,-0.377662233
1.120000000,0.000390136,-0.365330910
1.140000000,0.000065627,-0.352999588
1.160000000,0.000065627,-0.340019248
1.180000000,0.000390136,-0.328012434
1.200000000,0.000065627,-0.315356603
1.220000000,0.000390136,-0.303025280
1.240000000,0.000390136,-0.289720433
1.260000000,0.000065627,-0.277713619
1.280000000,0.000390136,-0.265382296
1.300000000,0.000065627,-0.253050974
1.320000000,0.000714644,-0.240719652
1.340000000,0.000390136,-0.227739313
1.360000000,0.000065627,-0.215083483
1.380000000,0.000065627,-0.202752161
1.400000000,0.000065627,-0.190096330
1.420000000,0.000065627,-0.177765008
1.440000000,0.000390136,-0.164784670
1.460000000,0.000390136,-0.152453348
1.480000000,0.000390136,-0.139797518
1.500000000,0.000065627,-0.126817179
1.520000000,0.000390136,-0.114810366
1.540000000,-0.000258881,-0.101830028
1.560000000,0.000065627,-0.088849689
1.580000000,0.000390136,-0.076193859
1.600000000,0.000390136,-0.064187047
1.620000000,0.000390136,-0.051531217
1.640000000,0.000390136,-0.038875387
1.660000000,0.000065627,-0.026219557
1.680000000,0.000065627,-0.013239219
1.700000000,0.000390136,-0.000583390
1.720000000,0.000065627,0.011747931
1.740000000,0.000390136,0.025052778
1.760000000,0.000390136,0.037384099
1.780000000,0.000065627,0.049715419
1.800000000,0.000390136,0.062371249
1.820000000,-0.000258881,0.075351587
1.840000000,0.000390136,0.088007416
1.860000000,0.000390136,0.100987753
1.880000000,0.000065627,0.113319074
1.900000000,0.000714644,0.125974903
1.920000000,-0.000258881,0.138306224
1.940000000,0.000065627,0.151611070
1.960000000,0.000390136,0.163942390
1.980000000,0.000390136,0.176922728
2.000000000,0.000390136,0.189254048
2.020000000,0.000065627,0.201585369
2.040000000,0.000065627,0.213916689
2.060000000,0.000065627,0.226897026
2.080000000,0.000390136,0.239228347
2.100000000,0.000065627,0.251884175
2.120000000,0.000390136,0.264215496
2.140000000,0.000390136,0.277520341
2.160000000,0.000065627,0.289851661
2.180000000,0.000390136,0.302182982
2.200000000,0.000390136,0.314514302
2.220000000,0.000390136,0.326521113
2.240000000,0.000390136,0.339501450
2.260000000,0.000714644,0.352157279
2.280000000,0.000714644,0.364164090
2.300000000,0.001039152,0.376495411
2.320000000,0.001039152,0.389151239
2.340000000,0.001363661,0.401482559
2.360000000,0.001363661,0.413489370
2.380000000,0.002012678,0.425820690
2.400000000,0.002337186,0.437502993
2.420000000,0.002986203,0.449509805
2.440000000,0.003635220,0.461841125
2.460000000,0.004608745,0.473847936
2.480000000,0.005582271,0.485530239
2.500000000,0.006555796,0.497212542
2.520000000,0.008827355,0.508570337
2.540000000,0.010449897,0.519603623
2.560000000,0.012396948,0.531285926
2.580000000,0.014993016,0.541994704
2.600000000,0.017913592,0.553027990
2.620000000,0.020834168,0.564061276
2.640000000,0.024079252,0.574445545
2.660000000,0.027648845,0.585478831
2.680000000,0.031867455,0.595214083
2.700000000,0.036086065,0.605273844
2.720000000,0.040629183,0.615333605
2.740000000,0.045496810,0.624744349
2.760000000,0.050688945,0.634804110
2.780000000,0.055556571,0.644539362
2.800000000,0.060424198,0.653950106
2.820000000,0.066265350,0.663360850
2.840000000,0.071781994,0.673096102
2.860000000,0.077623146,0.682506846
2.880000000,0.083139789,0.691593082
2.900000000,0.089305450,0.701328334
2.920000000,0.095146601,0.710090061
2.940000000,0.100663245,0.719176297
2.960000000,0.107153414,0.727938024
2.980000000,0.114292599,0.736699751
3.000000000,0.120133751,0.744812461
3.020000000,0.125974903,0.754223205
3.040000000,0.132465072,0.762984932
3.060000000,0.138955241,0.771746660
3.080000000,0.145769918,0.780508387
3.100000000,0.151935578,0.789270114
3.120000000,0.158101238,0.797707332
3.140000000,0.165240424,0.806144551
3.160000000,0.172055101,0.814581770
3.180000000,0.178220761,0.822694480
3.200000000,0.184710930,0.831456207
3.220000000,0.191201099,0.839893426
3.240000000,0.198015776,0.848006136
3.260000000,0.204181436,0.856118846
3.280000000,0.211320622,0.864231557
3.300000000,0.218135299,0.872668775
3.320000000,0.224300959,0.881105994
3.340000000,0.231764653,0.888894196
3.360000000,0.237930313,0.896357889
3.380000000,0.244420481,0.905119617
3.400000000,0.250910650,0.912907818
3.420000000,0.258049835,0.920696020
3.440000000,0.264864512,0.928484222
3.460000000,0.271354681,0.936596933
3.480000000,0.277195833,0.944385134
3.500000000,0.284010510,0.952497845
3.520000000,0.291149695,0.959961538
3.540000000,0.297639864,0.967749740
3.560000000,0.303805524,0.975537942
3.580000000,0.310295692,0.982677127
3.600000000,0.316785861,0.990465329
3.620000000,0.323600538,0.997929023
3.640000000,0.330090706,1.005717225
3.660000000,0.336580875,1.013180918
3.680000000,0.343071043,1.019995595
3.700000000,0.349561211,1.027459288
3.720000000,0.355402363,1.035247490
3.740000000,0.362217040,1.042711184
3.760000000,0.368058192,1.049525861
3.780000000,0.374548360,1.056989554
3.800000000,0.381038528,1.064128739
3.820000000,0.387528697,1.071267924
3.840000000,0.393694357,1.078407110
3.860000000,0.399860017,1.085221786
3.880000000,0.406025677,1.092685480
3.900000000,0.412191337,1.099500157
3.920000000,0.418356997,1.105990325
3.940000000,0.424522657,1.113129510
3.960000000,0.431012825,1.120268695
3.980000000,0.436853977,1.127083372
4.000000000,0.443344145,1.133573540
4.020000000,0.448860788,1.140712726
4.040000000,0.455026448,1.146878386
4.060000000,0.461192108,1.154017571
4.080000000,0.466708751,1.160507739
4.100000000,0.472874411,1.166673399
4.120000000,0.478715563,1.172839059
4.140000000,0.484232206,1.179653736
4.160000000,0.490397866,1.186143905
4.180000000,0.495914509,1.192634073
4.200000000,0.502080168,1.199124241
4.220000000,0.507272303,1.204965393
4.240000000,0.512788946,1.211455561
4.260000000,0.518954606,1.217945730
4.280000000,0.524146741,1.224111390
4.300000000,0.529338875,1.229952542
4.320000000,0.535180027,1.236118202
4.340000000,0.541021178,1.241959353
4.360000000,0.546213313,1.248449522
4.380000000,0.552054464,1.254290673
4.400000000,0.557571107,1.259482808
4.420000000,0.562438734,1.265648468
4.440000000,0.567630868,1.271165111
4.460000000,0.572823003,1.277330772
4.480000000,0.578015138,1.282847415
4.500000000,0.583531781,1.288364058
4.520000000,0.588074898,1.294205210
4.540000000,0.593591541,1.300046361
4.560000000,0.598459168,1.305238496
4.580000000,0.603651302,1.311404156
4.600000000,0.608194420,1.316596291
4.620000000,0.613386555,1.321463918
4.640000000,0.618903198,1.326980561
4.660000000,0.623121807,1.332821713
4.680000000,0.628313942,1.337689339
4.700000000,0.632857059,1.342881474
4.720000000,0.637724686,1.347749100
4.740000000,0.642592312,1.352616727
4.760000000,0.647135430,1.357484353
4.780000000,0.651354039,1.362676488
4.800000000,0.656546173,1.367868623
4.820000000,0.660440274,1.372736250
4.840000000,0.664983392,1.377603876
4.860000000,0.669851018,1.382471503
4.880000000,0.674394136,1.387339129
4.900000000,0.678937254,1.391882247
4.920000000,0.682831355,1.396749874
4.940000000,0.686725456,1.400643975
4.960000000,0.691268574,1.405836110
4.980000000,0.695487183,1.409730211
5.000000000,0.699381284,1.414597838
5.020000000,0.703599893,1.418491939
5.040000000,0.707493994,1.423035057
5.060000000,0.711712603,1.427253667
5.080000000,0.715606704,1.431796785
5.100000000,0.719176297,1.436339903
5.120000000,0.723394906,1.439584987
5.140000000,0.727289007,1.443803597
5.160000000,0.730858600,1.447697698
5.180000000,0.734752701,1.451916308
5.200000000,0.738646802,1.456134918
5.220000000,0.741567377,1.459380002
5.240000000,0.745136970,1.463598612
5.260000000,0.749031071,1.466843696
5.280000000,0.751951646,1.470737797
5.300000000,0.755521239,1.474631899
5.320000000,0.758766323,1.478201492
5.340000000,0.762011407,1.481446576
5.360000000,0.765581000,1.485016169
5.380000000,0.768501575,1.488261253
5.400000000,0.772071168,1.491830846
5.420000000,0.774991744,1.495400439
5.440000000,0.777912319,1.498970032
5.460000000,0.781157403,1.501890608
5.480000000,0.784077979,1.504811184
5.500000000,0.787323063,1.508056268
5.520000000,0.789919131,1.511301353
5.540000000,0.792839706,1.514221929
5.560000000,0.795435774,1.516817996
5.580000000,0.798356349,1.520063081
5.600000000,0.800627908,1.522659148
5.620000000,0.802899467,1.525579724
5.640000000,0.805820043,1.528500300
5.660000000,0.808416110,1.531096368
5.680000000,0.810687669,1.533367927
5.700000000,0.812959228,1.535963995
5.720000000,0.815555295,1.538560062
5.740000000,0.817502345,1.540831621
5.760000000,0.819773904,1.543427689
5.780000000,0.822369972,1.546023756
5.800000000,0.824966039,1.548295316
5.820000000,0.826588581,1.549917858
5.840000000,0.828860140,1.552189417
5.860000000,0.830482682,1.554136468
5.880000000,0.832429732,1.556408027
5.900000000,0.834701291,1.558679586
5.920000000,0.835999325,1.560302128
5.940000000,0.837946375,1.561924670
5.960000000,0.839568917,1.563871721
5.980000000,0.841515968,1.566143280
6.000000000,0.842814002,1.567765822
6.020000000,0.844112035,1.568739348
6.040000000,0.846059086,1.570361890
6.060000000,0.847357119,1.572308941
6.080000000,0.848979661,1.573931483
6.100000000,0.850277695,1.574905008
6.120000000,0.851575729,1.576203042
6.140000000,0.852549254,1.577825584
6.160000000,0.854171796,1.579123618
6.180000000,0.855145321,1.579772635
6.200000000,0.856118846,1.581395177
6.220000000,0.857416880,1.582368703
6.240000000,0.858390405,1.583342228
6.260000000,0.859039422,1.584315753
6.280000000,0.860337456,1.585289279
6.300000000,0.860661964,1.585613787
6.320000000,0.861310981,1.586911821
6.340000000,0.862284506,1.587560838
6.360000000,0.862609015,1.588209855
6.380000000,0.863582540,1.589183380
6.400000000,0.863907048,1.589183380
6.420000000,0.864231557,1.589507889
6.440000000,0.864880573,1.590156906
6.460000000,0.865529590,1.590805922
6.480000000,0.865529590,1.591130431
6.500000000,0.865205082,1.591130431
6.520000000,0.865854099,1.591454939
6.540000000,0.866178607,1.591454939
6.560000000,0.866178607,1.591454939
6.580000000,0.866178607,1.591779448
6.600000000,0.866178607,1.591454939
6.620000000,0.866178607,1.591454939
6.640000000,0.866178607,1.590805922
6.660000000,0.865854099,1.590805922
6.680000000,0.865854099,1.590481414
6.700000000,0.865205082,1.590481414
6.720000000,0.864880573,1.589832397
6.740000000,0.864556065,1.589183380
6.760000000,0.864231557,1.588858872
6.780000000,0.863258031,1.588209855
6.800000000,0.863258031,1.587885346
6.820000000,0.862284506,1.587236329
6.840000000,0.861635489,1.585938296
6.860000000,0.860661964,1.585613787
6.880000000,0.860012947,1.584640262
6.900000000,0.859039422,1.583666737
6.920000000,0.858390405,1.582368703
6.940000000,0.857741388,1.581719686
6.960000000,0.856767863,1.580746160
6.980000000,0.855469830,1.579772635
7.000000000,0.854496304,1.578150093
7.020000000,0.853198271,1.577176568
7.040000000,0.851900237,1.575554025
7.060000000,0.851251220,1.574255991
7.080000000,0.849304170,1.572957958
7.100000000,0.848006136,1.571659924
7.120000000,0.846708102,1.570037382
7.140000000,0.845410069,1.567765822
7.160000000,0.843463018,1.566143280
7.180000000,0.842164985,1.564845246
7.200000000,0.840542443,1.562898196
7.220000000,0.838595392,1.561600162
7.240000000,0.836972850,1.559328603
7.260000000,0.835025800,1.557381552
7.280000000,0.833078749,1.555434501
7.300000000,0.831780716,1.553162942
7.320000000,0.829509157,1.551864908
7.340000000,0.827562106,1.548944332
7.360000000,0.825615056,1.546997282
7.380000000,0.823668005,1.544401214
7.400000000,0.821396446,1.542129655
7.420000000,0.818800379,1.539533587
7.440000000,0.816528820,1.536937520
7.460000000,0.814257261,1.534665961
7.480000000,0.811985702,1.532069893
7.500000000,0.809714144,1.529798334
7.520000000,0.807118076,1.526877758
7.540000000,0.804522009,1.523957182
7.560000000,0.801925942,1.521361115
7.580000000,0.799654383,1.518440539
7.600000000,0.796733807,1.515844471
7.620000000,0.794137740,1.512274878
7.640000000,0.791217164,1.509678811
7.660000000,0.788945605,1.507082743
7.680000000,0.785700521,1.503513150
7.700000000,0.782779945,1.500268066
7.720000000,0.779859370,1.497022981
7.740000000,0.776938794,1.493453388
7.760000000,0.773693710,1.490532812
7.780000000,0.770773134,1.487287728
7.800000000,0.767528050,1.483718135
7.820000000,0.764282966,1.480473051
7.840000000,0.760713374,1.476903458
7.860000000,0.757792798,1.473333865
7.880000000,0.754223205,1.469439764
7.900000000,0.750978121,1.465870171
7.920000000,0.747408529,1.461976070
7.940000000,0.743838936,1.458406477
7.960000000,0.740269344,1.454512376
7.980000000,0.736375243,1.450293766
8.000000000,0.733779175,1.446399665
8.020000000,0.729560566,1.442505563
8.040000000,0.725990974,1.438286954
8.060000000,0.722421381,1.434068344
8.080000000,0.718202772,1.429525226
8.100000000,0.714308671,1.425955633
8.120000000,0.710414570,1.421737023
8.140000000,0.706844977,1.417193905
8.160000000,0.702626368,1.412650787
8.180000000,0.698407759,1.408107669
8.200000000,0.694189149,1.403889059
8.220000000,0.689970540,1.399021433
8.240000000,0.685751931,1.395127332
8.260000000,0.681857830,1.390259705
8.280000000,0.676665695,1.385392079
8.300000000,0.672771594,1.380524452
8.320000000,0.668552985,1.375981334
8.340000000,0.663685359,1.370789199
8.360000000,0.659791258,1.366246081
8.380000000,0.654923631,1.361378455
8.400000000,0.650705022,1.356510828
8.420000000,0.645837396,1.351318693
8.440000000,0.641294278,1.345802050
8.460000000,0.636426652,1.341258932
8.480000000,0.631883534,1.335742289
8.500000000,0.627015908,1.330874662
8.520000000,0.622148282,1.325358019
8.540000000,0.617605164,1.319516867
8.560000000,0.612413029,1.314973749
8.580000000,0.607545403,1.309457106
8.600000000,0.602677777,1.303615954
8.620000000,0.597485642,1.298423819
8.640000000,0.592618016,1.292582668
8.660000000,0.587750390,1.286741516
8.680000000,0.581909239,1.281224873
8.700000000,0.576717104,1.275708229
8.720000000,0.571849478,1.269867078
8.740000000,0.566657343,1.264350434
8.760000000,0.560816192,1.258509283
8.780000000,0.555624057,1.252343623
8.800000000,0.550756431,1.246502471
8.820000000,0.544915279,1.240336811
8.840000000,0.540047653,1.234495659
8.860000000,0.534531010,1.228654508
8.880000000,0.528689859,1.222488848
8.900000000,0.523173216,1.215998679
8.920000000,0.517981081,1.209833019
8.940000000,0.511490913,1.203667359
8.960000000,0.506298778,1.197501699
8.980000000,0.500133118,1.191011531
9.000000000,0.494940983,1.184521362
9.020000000,0.489099832,1.178031194
9.040000000,0.483258680,1.171541026
9.060000000,0.477093020,1.165050857
9.080000000,0.471251869,1.158560689
9.100000000,0.465410717,1.152070520
9.120000000,0.459569566,1.145255844
9.140000000,0.453728414,1.138765675
9.160000000,0.447562754,1.132275507
9.180000000,0.441721603,1.125136322
9.200000000,0.435555943,1.118321645
9.220000000,0.429714791,1.111831476
9.240000000,0.423224623,1.104692291
9.260000000,0.417058963,1.097553106
9.280000000,0.411217812,1.090413921
9.300000000,0.405052152,1.083274736
9.320000000,0.398886492,1.076460059
9.340000000,0.392396323,1.069645382
9.360000000,0.386555172,1.062506197
9.380000000,0.380065003,1.055042504
9.400000000,0.373574835,1.047903318
9.420000000,0.367084666,1.040439625
9.440000000,0.361568023,1.033624948
9.460000000,0.354428838,1.026161255
9.480000000,0.347938669,1.018373053
9.500000000,0.342097518,1.011233868
9.520000000,0.335607349,1.003770174
9.540000000,0.329117181,0.996630989
9.560000000,0.322302504,0.988518279
9.580000000,0.315487827,0.981379094
9.600000000,0.309646675,0.973266383
9.620000000,0.302507490,0.966127198
9.640000000,0.296341830,0.958338996
9.660000000,0.289527153,0.950875303
9.680000000,0.283361493,0.942438084
9.700000000,0.276871324,0.934974390
9.720000000,0.270056647,0.927186189
9.740000000,0.262917462,0.919073478
9.760000000,0.256751802,0.911285276
9.780000000,0.250261633,0.903172566
9.800000000,0.243446956,0.895059856
9.820000000,0.236632279,0.887271654
9.840000000,0.230142111,0.879158944
9.860000000,0.223327434,0.870721725
9.880000000,0.216837265,0.862933523
9.900000000,0.210022588,0.854171796
9.920000000,0.203532419,0.846059086
9.940000000,0.197042251,0.837946375
9.960000000,0.190227573,0.829509157
9.980000000,0.183412896,0.821720955
10.000000000,0.177247236,0.812634719
10.020000000,0.170757067,0.804197501
10.040000000,0.163942390,0.795760282
10.060000000,0.157452222,0.786998555
10.080000000,0.150962053,0.778561336
10.100000000,0.144471884,0.769799609
10.120000000,0.137657207,0.761037882
10.140000000,0.131491547,0.752276155
10.160000000,0.125001378,0.743514428
10.180000000,0.118835718,0.735077209
10.200000000,0.112670057,0.726315482
10.220000000,0.105855380,0.716580230
10.240000000,0.100338737,0.707818503
10.260000000,0.094173076,0.699056775
10.280000000,0.088007416,0.689646031
10.300000000,0.082166264,0.680235288
10.320000000,0.076649620,0.670824544
10.340000000,0.070808468,0.661413800
10.360000000,0.065291825,0.652003056
10.380000000,0.060099690,0.642592312
10.400000000,0.054258538,0.632532551
10.420000000,0.049066403,0.622797299
10.440000000,0.044523284,0.612737538
10.460000000,0.039655658,0.603002285
10.480000000,0.035112539,0.592618016
10.500000000,0.031542947,0.582558255
10.520000000,0.026999828,0.572498495
10.540000000,0.023430235,0.561789717
10.560000000,0.020509659,0.550756431
10.580000000,0.016940066,0.540047653
10.600000000,0.014668507,0.529338875
10.620000000,0.012396948,0.517656572
10.640000000,0.010125389,0.506298778
10.660000000,0.007853830,0.494616475
10.680000000,0.006555796,0.482934172
10.700000000,0.005257762,0.470927361
10.720000000,0.004284237,0.459569566
10.740000000,0.003310712,0.447238246
10.760000000,0.002661695,0.434906926
10.780000000,0.002337186,0.422900115
10.800000000,0.002012678,0.410568795
10.820000000,0.001363661,0.398886492
10.840000000,0.001039152,0.386230663
10.860000000,0.001363661,0.373899343
10.880000000,0.001039152,0.361568023
10.900000000,0.000714644,0.349236703
10.920000000,0.000065627,0.336905383
10.940000000,0.000714644,0.324574063
10.960000000,0.000065627,0.311593726
10.980000000,0.000714644,0.299262406
11.000000000,0.000390136,0.286606577
11.020000000,0.000390136,0.274275257
11.040000000,0.000390136,0.261943937
11.060000000,0.000390136,0.249288108
11.080000000,0.000065627,0.236632279
11.100000000,0.000065627,0.224300959
11.120000000,0.001039152,0.211320622
11.140000000,0.000390136,0.198664793
11.160000000,0.000065627,0.186008964
11.180000000,0.000390136,0.173677643
11.200000000,0.000390136,0.161021814
11.220000000,0.000065627,0.148041477
11.240000000,0.000390136,0.135385648
11.260000000,0.000390136,0.122729819
11.280000000,0.000065627,0.109749481
11.300000000,0.000065627,0.097418161
11.320000000,0.000065627,0.084762331
11.340000000,0.000065627,0.072106502
11.360000000,0.000390136,0.059126164
11.380000000,0.000065627,0.046794843
11.400000000,0.000065627,0.034139014
11.420000000,0.000390136,0.021807693
11.440000000,0.000065627,0.008827355
11.460000000,0.000390136,-0.004152983
11.480000000,0.000714644,-0.016808812
11.500000000,0.000065627,-0.028815625
11.520000000,0.000065627,-0.041795963
11.540000000,0.000065627,-0.054451793
11.560000000,0.000714644,-0.067432131
11.580000000,0.000390136,-0.079763452
11.600000000,0.000390136,-0.092419282
11.620000000,0.000390136,-0.105399621
11.640000000,0.000390136,-0.118055451
11.660000000,0.000065627,-0.130711281
11.680000000,0.000390136,-0.143367111
11.700000000,0.000390136,-0.156022941
11.720000000,0.000065627,-0.168354263
11.740000000,0.000390136,-0.181010093
11.760000000,0.000065627,-0.193665923
11.780000000,0.000390136,-0.205672737
11.800000000,0.000390136,-0.218653076
11.820000000,0.000065627,-0.231633415
11.840000000,0.000390136,-0.243964737
11.860000000,0.000390136,-0.256296059
11.880000000,0.000390136,-0.269276398
11.900000000,0.000390136,-0.281932229
11.920000000,0.000065627,-0.294263551
11.940000000,0.000390136,-0.306270365
11.960000000,0.000390136,-0.319250705
11.980000000,0.000390136,-0.331582027
12.000000000,0.000390136,-0.344237858
12.020000000,0.000065627,-0.356569181
12.040000000,0.000390136,-0.368900504
12.060000000,0.000065627,-0.381556335
12.080000000,0.000065627,-0.394212166
12.100000000,0.000390136,-0.405894472
12.120000000,0.000065627,-0.419199321
12.140000000,0.000065627,-0.431206135
12.160000000,0.000390136,-0.443212950
12.180000000,0.000714644,-0.456193290
12.200000000,0.000390136,-0.468200105
12.220000000,0.000390136,-0.481180446
12.240000000,0.000714644,-0.492862752
12.260000000,0.000390136,-0.505194076
12.280000000,0.000065627,-0.517200891
12.300000000,0.000390136,-0.529532214
12.320000000,0.000065627,-0.541863538
12.340000000,0.000390136,-0.553870353
12.360000000,0.000065627,-0.565877169
12.380000000,0.000390136,-0.578208493
12.400000000,-0.000258881,-0.589890800
12.420000000,0.000065627,-0.602222124
12.440000000,0.000390136,-0.614553448
12.460000000,0.000390136,-0.626560264
12.480000000,-0.000258881,-0.637918063
12.500000000,0.000065627,-0.650573896
12.520000000,0.000065627,-0.662256203
12.540000000,0.000065627,-0.673938511
12.560000000,0.000390136,-0.685945327
12.580000000,0.000065627,-0.697952143
12.600000000,0.000714644,-0.709309942
12.620000000,0.000065627,-0.721641267
12.640000000,0.000065627,-0.733323575
12.660000000,0.000390136,-0.744681375
12.680000000,0.000065627,-0.756688191
12.700000000,0.000065627,-0.768695008
12.720000000,0.000390136,-0.780052808
12.740000000,0.000390136,-0.792059625
12.760000000,0.000065627,-0.803741933
12.780000000,0.000065627,-0.814775224
12.800000000,0.000065627,-0.826133024
12.820000000,0.000390136,-0.837815333
12.840000000,0.000065627,-0.848848625
12.860000000,0.000065627,-0.860855442
12.880000000,0.000390136,-0.872213243
12.900000000,0.000065627,-0.883571043
12.920000000,0.000065627,-0.894928843
12.940000000,0.000065627,-0.905962135
12.960000000,0.000065627,-0.916670919
12.980000000,0.000065627,-0.928677737
13.000000000,0.000714644,-0.940035538
13.020000000,0.000390136,-0.950744321
13.040000000,0.000065627,-0.961453105
13.060000000,0.000390136,-0.972486398
13.080000000,0.000390136,-0.983844199
13.100000000,0.000390136,-0.994877492
13.120000000,0.000390136,-1.005910784
13.140000000,0.000390136,-1.016619569
13.160000000,0.000390136,-1.027328353
13.180000000,0.000390136,-1.038037137
13.200000000,0.000065627,-1.048745922
13.220000000,0.000390136,-1.059130198
13.240000000,0.000065627,-1.070163491
13.260000000,0.000714644,-1.081196784
13.280000000,0.000390136,-1.092230078
13.300000000,0.000390136,-1.101965336
13.320000000,0.000065627,-1.112674121
13.340000000,0.000065627,-1.123058398
13.360000000,0.000390136,-1.133442674
13.380000000,0.000065627,-1.143826951
13.400000000,0.000065627,-1.153562210
13.420000000,0.000065627,-1.164270995
13.440000000,0.000714644,-1.174655272
13.460000000,0.000065627,-1.184715040
13.480000000,0.000065627,-1.194125791
13.500000000,0.000390136,-1.204510068
13.520000000,0.000390136,-1.214569837
13.540000000,0.000390136,-1.224954114
13.560000000,0.000065627,-1.234689374
13.580000000,0.000390136,-1.244424634
13.600000000,0.000065627,-1.254159894
13.620000000,0.000390136,-1.263246137
13.640000000,0.000065627,-1.272981397
13.660000000,0.000390136,-1.283041166
13.680000000,0.000390136,-1.292451918
13.700000000,0.000390136,-1.302511687
13.720000000,0.000390136,-1.311273421
13.740000000,0.000065627,-1.321008682
13.760000000,0.000390136,-1.330419434
13.780000000,0.000065627,-1.340154695
13.800000000,0.000390136,-1.349565447
13.820000000,0.000065627,-1.358002673
13.840000000,0.000390136,-1.367737934
13.860000000,0.000390136,-1.376499669
13.880000000,0.000390136,-1.386234930
13.900000000,0.000065627,-1.394347648
13.920000000,-0.000258881,-1.403758400
13.940000000,0.000390136,-1.411871118
13.960000000,0.000714644,-1.420957362
13.980000000,0.000065627,-1.430043606
14.000000000,0.000065627,-1.438156324
14.020000000,0.000390136,-1.447242568
14.040000000,0.000390136,-1.455355286
14.060000000,0.000390136,-1.464441531
14.080000000,0.000065627,-1.473203266
14.100000000,0.000065627,-1.481315984
14.120000000,0.000065627,-1.489753212
14.140000000,0.000065627,-1.497865930
14.160000000,0.000065627,-1.506303157
14.180000000,0.000714644,-1.514091367
14.200000000,0.000065627,-1.522204085
14.220000000,0.000390136,-1.529992295
14.240000000,0.000065627,-1.538105014
14.260000000,0.000390136,-1.546217733
14.280000000,0.000065627,-1.554005943
14.300000000,0.000390136,-1.562118662
14.320000000,0.000390136,-1.569582363
14.340000000,0.000390136,-1.577370573
14.360000000,0.000390136,-1.584509766
14.380000000,0.000065627,-1.591973467
14.400000000,0.000714644,-1.599761678
14.420000000,0.000065627,-1.606900871
14.440000000,0.000390136,-1.614364572
14.460000000,-0.000258881,-1.621828274
14.480000000,0.000390136,-1.628967467
14.500000000,0.000390136,-1.635782151
14.520000000,0.000065627,-1.642921344
14.540000000,0.000714644,-1.650060538
14.560000000,0.000065627,-1.656550713
14.580000000,0.000390136,-1.663689907
14.600000000,0.000065627,-1.670180082
14.620000000,0.000390136,-1.676994767
14.640000000,0.000714644,-1.683809451
14.660000000,0.000390136,-1.690624136
14.680000000,0.000065627,-1.697114312
14.700000000,0.000390136,-1.703279979
14.720000000,0.000390136,-1.709445646
14.740000000,0.000390136,-1.715935822
14.760000000,0.000065627,-1.722101489
14.780000000,0.000390136,-1.728916174
14.800000000,0.000065627,-1.734432824
14.820000000,0.000390136,-1.740598491
14.840000000,0.000390136,-1.746439650
14.860000000,0.000390136,-1.751956300
14.880000000,-0.000258881,-1.758770985
14.900000000,0.000390136,-1.763638617
14.920000000,0.000390136,-1.769804285
14.940000000,0.000390136,-1.774996426
14.960000000,0.000065627,-1.780837585
14.980000000,0.000065627,-1.785705217
15.000000000,-0.000258881,-1.790897358
15.020000000,0.000065627,-1.796414008
15.040000000,0.000065627,-1.801930658
15.060000000,0.000065627,-1.807122799
15.080000000,0.000390136,-1.812314941
15.100000000,0.000390136,-1.816858064
15.120000000,0.000390136,-1.822050206
15.140000000,0.000714644,-1.826268821
15.160000000,0.000065627,-1.831460962
15.180000000,0.000390136,-1.836004086
15.200000000,0.000065627,-1.841196227
15.220000000,0.000714644,-1.845414842
15.240000000,0.000390136,-1.849633457
15.260000000,0.000714644,-1.853852072
15.280000000,0.000065627,-1.858395196
15.300000000,0.000065627,-1.862289302
15.320000000,0.000065627,-1.866832426
15.340000000,0.000390136,-1.871051041
15.360000000,0.000714644,-1.874945147
15.380000000,0.000390136,-1.879163762
15.400000000,0.000390136,-1.882733360
15.420000000,0.000390136,-1.886302957
15.440000000,0.000065627,-1.890197064
15.460000000,0.000065627,-1.894091170
15.480000000,0.000065627,-1.897336258
15.500000000,0.000065627,-1.901230365
15.520000000,0.000065627,-1.904150944
15.540000000,0.000390136,-1.907720542
15.560000000,0.000065627,-1.910641122
15.580000000,0.000714644,-1.913237193
15.600000000,0.000714644,-1.916806790
15.620000000,0.000390136,-1.919727370
15.640000000,0.000390136,-1.922323441
15.660000000,0.000390136,-1.925568530
15.680000000,0.000065627,-1.928489109
15.700000000,0.000065627,-1.931085180
15.720000000,0.000065627,-1.933681251
15.740000000,-0.000258881,-1.935952814
15.760000000,0.000390136,-1.938224376
15.780000000,0.000065627,-1.940820447
15.800000000,0.000065627,-1.943092009
15.820000000,0.000390136,-1.945363571
15.840000000,0.000390136,-1.947635133
15.860000000,0.000065627,-1.950231204
15.880000000,0.000065627,-1.951853748
15.900000000,0.000065627,-1.953151784
15.920000000,0.000390136,-1.955098837
15.940000000,0.000065627,-1.957045891
15.960000000,0.000065627,-1.958992944
15.980000000,0.000390136,-1.960290979
16.000000000,0.000065627,-1.961913524
16.020000000,0.000065627,-1.962887050
16.040000000,0.000065627,-1.964509595
16.060000000,0.000065627,-1.966132139
16.080000000,0.000390136,-1.966781157
16.100000000,0.000714644,-1.968079193
16.120000000,0.000065627,-1.969377228
16.140000000,0.000390136,-1.970026246
16.160000000,0.000390136,-1.970999772
16.180000000,0.000065627,-1.971324281
16.200000000,0.000065627,-1.971648790
16.220000000,0.000390136,-1.972946826
16.240000000,0.000065627,-1.973595844
16.260000000,0.000065627,-1.974244861
16.280000000,0.000390136,-1.973920352
16.300000000,0.000065627,-1.974569370
16.320000000,0.000390136,-1.974244861
16.340000000,0.000065627,-1.975218388
16.360000000,0.000390136,-1.974893879
16.380000000,0.000390136,-1.974893879
16.400000000,0.000065627,-1.974893879
16.420000000,0.000065627,-1.974569370
16.440000000,0.000065627,-1.974244861
16.460000000,0.000390136,-1.973920352
16.480000000,0.000390136,-1.973595844
16.500000000,0.000065627,-1.972622317
16.520000000,0.000065627,-1.971973299
16.540000000,0.000065627,-1.971324281
16.560000000,0.000390136,-1.970675264
16.580000000,0.000390136,-1.970026246
16.600000000,0.000065627,-1.969052719
16.620000000,0.000065627,-1.968079193
16.640000000,0.000065627,-1.967105666
16.660000000,0.000390136,-1.965483121
16.680000000,0.000390136,-1.964509595
16.700000000,0.000065627,-1.963211559
16.720000000,0.000065627,-1.961913524
16.740000000,0.000390136,-1.960615488
16.760000000,0.000065627,-1.958668435
16.780000000,0.000714644,-1.957045891
16.800000000,0.000065627,-1.955423346
16.820000000,0.000065627,-1.953800802
16.840000000,0.000065627,-1.951204731
16.860000000,0.000390136,-1.949906695
16.880000000,0.000065627,-1.947310624
16.900000000,0.000390136,-1.945363571
16.920000000,0.000065627,-1.943092009
16.940000000,0.000065627,-1.940820447
16.960000000,0.000065627,-1.938548885
16.980000000,0.000714644,-1.936277322
17.000000000,0.000390136,-1.933681251
17.020000000,0.000065627,-1.931085180
17.040000000,0.000390136,-1.928813618
17.060000000,0.000390136,-1.925244021
17.080000000,0.000390136,-1.922647950
17.100000000,0.000714644,-1.920051879
17.120000000,0.000065627,-1.917455808
17.140000000,0.000065627,-1.913886210
17.160000000,0.000065627,-1.910965631
17.180000000,0.000065627,-1.907720542
17.200000000,0.000065627,-1.904475453
17.220000000,-0.000258881,-1.900905856
17.240000000,0.000390136,-1.897336258
17.260000000,0.000065627,-1.894091170
17.280000000,0.000390136,-1.890521572
17.300000000,0.000390136,-1.886627466
17.320000000,0.000065627,-1.883057869
17.340000000,0.000065627,-1.878514745
17.360000000,0.000390136,-1.875269656
17.380000000,0.000065627,-1.871051041
17.400000000,0.000065627,-1.867156935
17.420000000,0.000390136,-1.863262829
17.440000000,0.000714644,-1.858395196
17.460000000,0.000065627,-1.854501090
17.480000000,0.000065627,-1.849957966
17.500000000,0.000065627,-1.845414842
17.520000000,0.000065627,-1.841196227
17.540000000,0.000714644,-1.836328595
17.560000000,0.000390136,-1.831785471
17.580000000,0.000390136,-1.826917838
17.600000000,0.000390136,-1.822374715
17.620000000,0.000065627,-1.817182573
17.640000000,0.000390136,-1.812639450
17.660000000,0.000390136,-1.806798291
17.680000000,-0.000258881,-1.802579676
17.700000000,0.000390136,-1.796738517
17.720000000,0.000065627,-1.791870885
17.740000000,0.000390136,-1.786678743
17.760000000,0.000065627,-1.780837585
17.780000000,0.000390136,-1.774996426
17.800000000,0.000390136,-1.769804285
17.820000000,0.000714644,-1.764287635
17.840000000,0.000065627,-1.758121967
17.860000000,0.000390136,-1.753254335
17.880000000,0.000390136,-1.747088668
17.900000000,0.000065627,-1.741247509
17.920000000,0.000390136,-1.734757333
17.940000000,0.000065627,-1.728916174
17.960000000,0.000065627,-1.722750507
17.980000000,0.000714644,-1.716909349
18.000000000,0.000065627,-1.710094664
18.020000000,0.000065627,-1.703928997
18.040000000,0.000065627,-1.697438821
18.060000000,0.000714644,-1.691273154
18.080000000,0.000390136,-1.684458469
18.100000000,0.000390136,-1.677643784
18.120000000,0.000065627,-1.671478117
18.140000000,0.000390136,-1.664338924
18.160000000,0.000390136,-1.657524240
18.180000000,0.000390136,-1.650709555
18.200000000,0.000065627,-1.643570362
18.220000000,0.000390136,-1.636431169
18.240000000,0.000390136,-1.629291976
18.260000000,0.000390136,-1.622477292
18.280000000,0.000390136,-1.615338099
18.300000000,0.000390136,-1.607874397
18.320000000,0.000065627,-1.600410695
18.340000000,0.000390136,-1.592622485
18.360000000,0.000390136,-1.585158783
18.380000000,0.000390136,-1.578344099
18.400000000,0.000390136,-1.570231380
18.420000000,-0.000258881,-1.563092188
18.440000000,0.000065627,-1.555628486
18.460000000,0.000714644,-1.547191259
18.480000000,0.000065627,-1.539727558
18.500000000,0.000390136,-1.531614839
18.520000000,0.000390136,-1.523502120
18.540000000,0.000065627,-1.515389402
18.560000000,0.000390136,-1.507601192
18.580000000,0.000065627,-1.499163965
18.600000000,0.000065627,-1.490402229
18.620000000,0.000065627,-1.482289511
18.640000000,0.000065627,-1.474176792
18.660000000,0.000390136,-1.466064074
18.680000000,0.000065627,-1.456977830
18.700000000,0.000390136,-1.448540603
18.720000000,0.000714644,-1.439454359
18.740000000,0.000390136,-1.431017132
18.760000000,0.000390136,-1.422579906
18.780000000,0.000065627,-1.414142679
18.800000000,0.000714644,-1.405056435
18.820000000,0.000390136,-1.395645682
18.840000000,0.000390136,-1.387532965
18.860000000,0.000065627,-1.378122212
18.880000000,0.000390136,-1.369035969
18.900000000,0.000390136,-1.359300708
18.920000000,0.000390136,-1.350863482
18.940000000,0.000065627,-1.341128221
18.960000000,-0.000258881,-1.332366486
18.980000000,0.000065627,-1.322955734
19.000000000,-0.000258881,-1.313220474
19.020000000,0.000065627,-1.304134230
19.040000000,0.000065627,-1.293749953
19.060000000,0.000065627,-1.284663710
19.080000000,0.000390136,-1.274928449
19.100000000,0.000390136,-1.265842206
19.120000000,0.000390136,-1.255782437
19.140000000,0.000065627,-1.246371686
19.160000000,0.000390136,-1.236311917
19.180000000,-0.000258881,-1.226576657
19.200000000,0.000390136,-1.216516889
19.220000000,0.000390136,-1.206457120
19.240000000,0.000065627,-1.196397352
19.260000000,0.000065627,-1.186662092
19.280000000,0.000390136,-1.176277816
19.300000000,0.000390136,-1.165893539
19.320000000,0.000390136,-1.155509262
19.340000000,0.000390136,-1.146098511
19.360000000,0.000065627,-1.135065217
19.380000000,0.000390136,-1.125005450
19.400000000,0.000390136,-1.114621173
19.420000000,0.000390136,-1.104236897
19.440000000,0.000390136,-1.094501638
19.460000000,0.000390136,-1.082819327
19.480000000,0.000065627,-1.072435051
19.500000000,0.000390136,-1.062050775
19.520000000,0.000065627,-1.050692973
19.540000000,0.000065627,-1.040308698
19.560000000,0.000065627,-1.029599913
19.580000000,0.000390136,-1.018891129
19.600000000,0.000390136,-1.008182345
19.620000000,0.000390136,-0.996824543
19.640000000,0.000065627,-0.986115759
19.660000000,0.000390136,-0.975406975
19.680000000,0.000065627,-0.964373683
19.700000000,0.000065627,-0.953015882
19.720000000,0.000065627,-0.942307098
19.740000000,0.000390136,-0.931273806
19.760000000,0.000065627,-0.919916005
19.780000000,0.000390136,-0.908558204
19.800000000,0.000390136,-0.897200404
19.820000000,0.000065627,-0.886491620
19.840000000,0.000065627,-0.874809311
19.860000000,0.000390136,-0.863451511
19.880000000,0.000065627,-0.852418219
19.900000000,0.000065627,-0.840411402
19.920000000,0.000065627,-0.829053602
19.940000000,0.000390136,-0.817695802
19.960000000,0.000390136,-0.805688985
19.980000000,0.000065627,-0.794655693
