Distance	Impulses
x/cm	Z/

43.0	46.00
52.0	46.00
62.0	57.00
72.0	44.00
82.0	47.00
92.0	62.00
102.0	62.00
112.0	71.00
122.0	103.00
132.0	108.00
142.0	100.00
152.0	125.00
162.0	140.00
172.0	131.00
182.0	144.00
192.0	162.00
202.0	160.00
212.0	166.00
222.0	163.00
232.0	159.00
242.0	153.00
252.0	130.00
262.0	134.00
272.0	102.00
282.0	105.00
292.0	100.00
302.0	85.00
312.0	52.00
322.0	66.00
332.0	58.00
342.0	57.00
352.0	51.00
362.0	34.00
372.0	36.00
382.0	45.00
392.0	39.00
402.0	38.00
412.0	44.00
422.0	43.00
