x_acc, y_acc, z_acc, x_mag, y_mag, z_mag 
0.87, 0.30, 0.32, 42.40, 19.38, -33.24
0.86, 0.32, 0.31, 42.63, 18.86, -34.02
0.89, 0.32, 0.33, 42.65, 19.85, -34.13
0.87, 0.34, 0.32, 42.03, 19.09, -33.03
0.89, 0.33, 0.31, 41.83, 19.41, -34.19
0.87, 0.33, 0.34, 41.64, 18.99, -34.07
0.87, 0.32, 0.31, 42.76, 19.63, -34.34
0.87, 0.32, 0.33, 41.43, 19.45, -34.22
0.88, 0.33, 0.34, 41.77, 19.98, -35.07
0.86, 0.33, 0.34, 41.31, 20.03, -34.47
0.87, 0.32, 0.33, 40.87, 19.96, -34.77
0.85, 0.31, 0.36, 41.31, 20.67, -34.48
0.87, 0.31, 0.36, 40.99, 20.10, -34.35
0.87, 0.32, 0.36, 40.98, 20.17, -34.99
0.87, 0.33, 0.35, 41.21, 19.69, -34.68
0.86, 0.32, 0.36, 41.13, 19.96, -35.89
0.88, 0.31, 0.37, 41.30, 19.82, -34.91
0.86, 0.31, 0.33, 41.09, 20.13, -34.97
0.87, 0.31, 0.35, 41.16, 19.87, -34.40
0.87, 0.31, 0.36, 41.38, 19.96, -34.94
0.86, 0.32, 0.33, 41.25, 20.36, -36.36
0.87, 0.32, 0.36, 41.31, 20.24, -34.46
0.88, 0.32, 0.35, 41.16, 19.82, -35.23
0.86, 0.31, 0.34, 41.04, 20.07, -36.27
0.87, 0.31, 0.37, 40.78, 20.31, -34.95
0.88, 0.31, 0.35, 41.04, 20.26, -34.66
0.85, 0.31, 0.37, 41.30, 19.85, -35.25
0.87, 0.31, 0.35, 41.24, 20.28, -35.39
0.86, 0.31, 0.36, 40.76, 20.21, -35.38
0.87, 0.31, 0.36, 40.60, 20.02, -35.52
0.87, 0.31, 0.34, 41.02, 20.17, -35.07
0.86, 0.32, 0.36, 41.04, 20.09, -35.77
0.87, 0.30, 0.34, 41.30, 20.26, -35.62
0.84, 0.30, 0.40, 41.19, 20.52, -35.07
0.86, 0.31, 0.38, 41.61, 20.29, -36.21
0.87, 0.31, 0.38, 40.86, 20.67, -35.80
0.87, 0.31, 0.35, 40.87, 20.28, -35.13
0.87, 0.31, 0.38, 40.05, 19.75, -36.35
0.85, 0.30, 0.37, 40.69, 20.69, -36.32
0.86, 0.31, 0.38, 40.89, 20.67, -36.40
0.85, 0.30, 0.39, 40.88, 20.41, -36.00
0.85, 0.30, 0.39, 40.26, 20.28, -36.50
0.86, 0.30, 0.38, 40.09, 20.17, -35.68
0.86, 0.31, 0.37, 40.66, 20.69, -36.79
0.87, 0.30, 0.36, 39.92, 20.58, -36.27
0.85, 0.31, 0.39, 40.08, 21.13, -35.93
0.86, 0.31, 0.38, 40.48, 20.42, -36.80
0.85, 0.31, 0.38, 39.90, 21.09, -36.35
0.85, 0.30, 0.38, 39.78, 20.65, -36.50
0.86, 0.31, 0.39, 39.64, 20.86, -36.99
0.85, 0.30, 0.41, 40.22, 20.78, -36.46
0.85, 0.31, 0.38, 40.25, 20.89, -36.06
0.86, 0.29, 0.38, 40.34, 20.86, -37.08
0.85, 0.30, 0.40, 39.95, 20.86, -36.69
0.86, 0.30, 0.38, 40.19, 20.45, -37.01
0.85, 0.30, 0.38, 39.99, 20.32, -37.04
0.87, 0.30, 0.41, 40.11, 20.31, -36.52
0.85, 0.29, 0.37, 40.23, 20.40, -37.41
0.85, 0.31, 0.40, 40.06, 20.96, -36.80
0.86, 0.30, 0.38, 40.32, 21.00, -37.35
0.85, 0.30, 0.41, 39.99, 20.95, -37.84
0.85, 0.29, 0.39, 39.60, 20.75, -38.39
0.85, 0.31, 0.40, 40.10, 20.87, -37.18
0.86, 0.30, 0.38, 40.50, 20.76, -36.99
0.86, 0.30, 0.39, 39.99, 20.36, -37.05
0.85, 0.31, 0.38, 40.01, 20.68, -37.78
0.86, 0.30, 0.40, 39.66, 21.26, -37.35
0.85, 0.29, 0.39, 40.14, 20.83, -37.74
0.86, 0.30, 0.39, 39.75, 20.34, -37.37
0.85, 0.30, 0.39, 40.16, 21.11, -37.48
0.86, 0.30, 0.39, 39.50, 20.87, -36.56
0.85, 0.31, 0.39, 39.86, 20.67, -38.00
0.85, 0.29, 0.41, 39.40, 21.19, -37.39
0.85, 0.31, 0.39, 40.12, 20.62, -36.11
0.86, 0.30, 0.39, 39.79, 20.86, -36.27
0.84, 0.29, 0.39, 40.19, 20.74, -36.34
0.84, 0.29, 0.40, 40.09, 21.26, -36.85
0.85, 0.30, 0.40, 39.54, 20.89, -37.27
0.86, 0.30, 0.40, 39.22, 20.94, -37.70
0.85, 0.30, 0.40, 39.36, 21.04, -35.95
0.85, 0.30, 0.39, 40.14, 20.85, -36.25
0.85, 0.29, 0.39, 40.11, 21.50, -37.55
0.84, 0.31, 0.42, 40.14, 20.90, -37.05
0.85, 0.30, 0.39, 39.90, 21.66, -36.78
0.86, 0.30, 0.39, 40.05, 21.12, -36.56
0.85, 0.31, 0.39, 40.16, 20.58, -37.70
0.86, 0.28, 0.41, 40.44, 21.19, -37.41
0.84, 0.30, 0.40, 39.95, 20.84, -35.91
0.86, 0.30, 0.41, 39.90, 21.14, -37.06
0.85, 0.30, 0.41, 39.78, 20.81, -36.06
0.84, 0.29, 0.40, 40.15, 21.19, -37.52
0.86, 0.30, 0.40, 39.73, 21.19, -37.15
0.85, 0.30, 0.39, 39.86, 21.02, -36.24
0.86, 0.31, 0.40, 39.78, 21.07, -36.77
0.85, 0.30, 0.40, 39.79, 21.14, -36.83
0.84, 0.29, 0.41, 39.37, 20.84, -36.71
0.86, 0.30, 0.39, 39.86, 21.11, -36.58
0.85, 0.30, 0.40, 40.31, 21.09, -37.38
0.85, 0.31, 0.39, 39.84, 21.40, -37.18
0.85, 0.29, 0.39, 39.62, 21.03, -36.35
0.85, 0.30, 0.39, 39.83, 20.79, -37.32
0.86, 0.30, 0.41, 39.81, 21.04, -37.77
0.84, 0.30, 0.39, 40.03, 21.02, -36.34
0.86, 0.30, 0.41, 39.94, 21.59, -37.98
0.84, 0.29, 0.41, 39.84, 21.70, -37.52
0.84, 0.30, 0.40, 40.42, 21.04, -37.52
0.86, 0.30, 0.38, 39.94, 21.62, -37.96
0.86, 0.30, 0.41, 39.77, 21.47, -37.11
0.84, 0.29, 0.40, 40.03, 21.28, -38.27
0.85, 0.30, 0.41, 40.15, 21.23, -37.33
0.85, 0.30, 0.40, 39.93, 20.84, -37.40
0.86, 0.29, 0.40, 40.04, 21.28, -38.44
0.85, 0.30, 0.41, 40.19, 21.07, -36.22
0.86, 0.30, 0.41, 40.08, 21.30, -37.28
0.84, 0.30, 0.40, 40.69, 21.56, -37.65
0.85, 0.29, 0.41, 40.20, 21.00, -37.15
0.86, 0.31, 0.40, 39.67, 20.94, -36.39
0.85, 0.30, 0.42, 39.94, 21.03, -37.16
0.84, 0.29, 0.40, 40.11, 21.06, -37.68
0.85, 0.29, 0.39, 39.86, 20.96, -36.44
0.87, 0.30, 0.40, 40.01, 20.90, -36.89
0.86, 0.30, 0.40, 39.03, 21.80, -36.25
0.85, 0.30, 0.39, 39.76, 21.59, -36.04
0.85, 0.30, 0.40, 39.98, 21.40, -37.00
0.85, 0.30, 0.41, 39.34, 21.04, -37.55
0.85, 0.30, 0.39, 39.93, 21.26, -37.88
0.85, 0.30, 0.40, 40.70, 21.58, -37.56
0.85, 0.30, 0.40, 40.05, 21.62, -37.05
0.86, 0.31, 0.41, 40.20, 21.53, -37.71
0.85, 0.29, 0.40, 39.66, 21.64, -38.29
0.85, 0.30, 0.41, 40.01, 20.59, -37.41
0.84, 0.29, 0.41, 39.37, 21.81, -37.11
0.85, 0.31, 0.40, 39.47, 21.46, -37.43
0.85, 0.30, 0.39, 39.44, 21.01, -37.39
0.85, 0.30, 0.41, 39.84, 21.70, -36.99
0.85, 0.30, 0.42, 39.87, 21.42, -36.88
0.84, 0.30, 0.41, 39.55, 21.29, -36.90
0.84, 0.30, 0.40, 39.22, 21.03, -37.52
0.86, 0.30, 0.41, 40.04, 21.36, -37.57
0.85, 0.30, 0.40, 39.62, 21.85, -36.98
0.85, 0.29, 0.40, 39.29, 21.39, -37.05
0.84, 0.29, 0.42, 39.54, 21.06, -37.12
0.84, 0.30, 0.41, 39.81, 21.62, -37.34
0.87, 0.30, 0.39, 40.22, 21.19, -37.16
0.85, 0.30, 0.40, 40.20, 21.20, -36.90
0.85, 0.29, 0.40, 40.38, 21.30, -37.57
0.85, 0.30, 0.40, 40.30, 21.35, -36.65
0.84, 0.29, 0.40, 40.60, 20.97, -37.70
0.86, 0.28, 0.38, 40.38, 21.01, -36.87
0.87, 0.32, 0.38, 40.66, 20.94, -36.39
0.86, 0.32, 0.39, 40.04, 21.07, -37.32
0.85, 0.30, 0.41, 40.06, 20.85, -36.96
0.84, 0.28, 0.40, 40.45, 20.96, -37.35
0.85, 0.30, 0.42, 39.51, 21.18, -37.56
0.84, 0.28, 0.39, 40.05, 20.89, -36.82
0.86, 0.31, 0.40, 40.49, 20.98, -37.07
0.86, 0.31, 0.37, 40.01, 20.87, -36.80
0.86, 0.30, 0.40, 40.39, 20.95, -35.63
0.84, 0.29, 0.39, 39.93, 20.91, -36.36
0.86, 0.29, 0.41, 39.97, 21.26, -37.30
0.86, 0.30, 0.38, 40.12, 21.14, -36.87
0.87, 0.30, 0.39, 39.90, 20.59, -36.46
0.85, 0.31, 0.39, 39.84, 20.84, -36.33
0.86, 0.29, 0.41, 39.86, 21.34, -36.87
0.85, 0.30, 0.39, 39.95, 20.53, -37.28
0.87, 0.30, 0.38, 40.45, 20.64, -37.12
0.85, 0.30, 0.39, 40.48, 21.20, -37.02
0.86, 0.30, 0.40, 40.53, 21.56, -37.24
0.86, 0.30, 0.40, 40.25, 21.47, -37.05
0.86, 0.30, 0.39, 40.36, 21.42, -36.38
0.86, 0.29, 0.40, 39.95, 21.45, -36.79
0.86, 0.30, 0.39, 40.47, 21.36, -36.77
0.86, 0.29, 0.39, 40.38, 21.37, -36.46
0.86, 0.29, 0.40, 39.86, 21.14, -36.73
0.86, 0.30, 0.40, 39.81, 21.83, -37.27
0.84, 0.28, 0.41, 39.69, 21.18, -36.68
0.86, 0.29, 0.40, 39.51, 20.69, -36.77
0.86, 0.29, 0.41, 39.54, 21.37, -37.15
0.86, 0.29, 0.40, 39.60, 21.89, -35.94
0.85, 0.29, 0.40, 40.22, 21.79, -37.08
0.85, 0.29, 0.40, 40.25, 20.90, -36.69
0.85, 0.29, 0.42, 39.75, 21.48, -36.93
0.85, 0.29, 0.40, 39.28, 21.28, -37.29
0.85, 0.29, 0.40, 39.78, 21.57, -37.16
0.85, 0.30, 0.39, 39.66, 21.45, -37.10
0.85, 0.29, 0.41, 40.30, 21.33, -37.89
0.85, 0.30, 0.40, 39.54, 21.26, -37.59
0.85, 0.30, 0.40, 39.44, 21.45, -37.61
0.86, 0.29, 0.41, 39.45, 20.79, -36.50
0.85, 0.29, 0.41, 39.61, 20.74, -36.51
0.85, 0.32, 0.40, 39.60, 21.15, -37.60
0.84, 0.30, 0.41, 39.17, 20.90, -36.93
0.84, 0.30, 0.39, 39.78, 20.80, -36.47
0.85, 0.30, 0.42, 39.12, 20.83, -36.55
0.83, 0.32, 0.41, 39.23, 20.63, -37.96
0.83, 0.30, 0.41, 39.01, 20.89, -37.55
0.83, 0.30, 0.42, 38.93, 20.28, -38.75
0.84, 0.31, 0.42, 38.76, 20.47, -38.00
0.84, 0.31, 0.43, 39.61, 20.37, -38.68
0.84, 0.31, 0.42, 38.88, 20.26, -38.44
