x_acc, y_acc, z_acc, x_mag, y_mag, z_mag 
-0.06, -0.97, -0.01, 3.08, 59.96, 7.37
-0.07, -1.00, -0.01, 3.25, 59.99, 7.91
-0.05, -0.98, -0.01, 2.77, 59.58, 6.88
-0.07, -0.99, -0.00, 2.77, 59.27, 6.58
-0.06, -0.98, -0.01, 3.19, 59.70, 7.52
-0.06, -0.99, -0.00, 2.27, 59.84, 8.30
-0.05, -0.99, 0.00, 2.47, 59.39, 6.79
-0.06, -1.00, 0.01, 2.73, 59.56, 6.45
-0.05, -0.97, -0.00, 3.26, 59.34, 7.25
-0.07, -0.99, -0.01, 2.62, 59.27, 7.03
-0.05, -0.99, 0.00, 2.97, 59.59, 7.65
-0.06, -1.00, -0.00, 2.81, 60.05, 7.39
-0.06, -0.99, -0.00, 3.65, 59.74, 7.31
-0.06, -0.98, -0.01, 2.82, 59.92, 8.47
-0.07, -1.00, -0.00, 2.67, 59.89, 7.53
-0.05, -0.98, 0.00, 2.80, 60.02, 7.35
-0.06, -0.99, 0.00, 2.87, 59.53, 6.88
-0.06, -0.99, -0.01, 3.42, 60.07, 6.48
-0.06, -0.98, 0.01, 3.05, 60.42, 6.69
-0.06, -1.00, 0.00, 2.73, 60.17, 8.09
-0.06, -0.99, 0.00, 2.61, 60.00, 7.54
-0.06, -1.00, 0.00, 3.30, 60.24, 6.93
-0.06, -0.97, -0.00, 3.15, 60.05, 6.47
-0.04, -0.99, 0.01, 2.64, 60.00, 7.26
-0.06, -0.98, -0.00, 2.75, 59.78, 7.42
-0.07, -0.99, -0.00, 3.47, 59.92, 7.04
-0.05, -0.99, 0.00, 2.87, 60.40, 7.21
-0.05, -0.98, -0.01, 3.14, 59.95, 8.11
-0.07, -0.99, -0.00, 2.92, 59.85, 7.09
-0.05, -0.99, 0.01, 2.94, 60.02, 7.21
-0.06, -0.99, -0.00, 2.76, 60.08, 7.36
-0.05, -0.98, -0.00, 2.87, 59.90, 6.54
-0.06, -0.98, 0.00, 3.39, 59.69, 8.03
-0.05, -0.98, 0.00, 2.88, 60.33, 6.75
-0.06, -1.00, 0.00, 2.69, 60.29, 7.50
-0.06, -0.99, 0.00, 3.20, 59.53, 6.90
-0.06, -0.99, -0.00, 2.72, 59.90, 7.53
-0.07, -1.00, 0.00, 2.92, 59.96, 7.36
-0.04, -0.97, -0.01, 2.89, 59.96, 6.84
-0.06, -1.00, 0.01, 2.53, 59.34, 7.50
-0.06, -0.98, -0.01, 2.54, 59.63, 7.34
-0.06, -0.99, 0.00, 3.09, 59.79, 7.09
-0.07, -0.99, 0.00, 3.28, 59.94, 7.09
-0.05, -0.99, 0.00, 3.21, 59.73, 7.74
-0.05, -0.98, 0.00, 2.80, 59.59, 6.97
-0.02, -0.98, 0.01, 2.91, 60.16, 7.90
-0.08, -1.00, -0.00, 2.89, 60.12, 7.04
-0.06, -0.99, -0.01, 3.41, 59.73, 7.31
-0.07, -0.97, -0.00, 3.08, 60.22, 6.60
-0.06, -1.00, 0.00, 2.92, 59.91, 8.24
-0.05, -0.99, -0.00, 2.28, 60.11, 7.63
-0.07, -1.00, -0.00, 2.61, 59.97, 8.07
-0.05, -0.98, 0.00, 3.17, 60.03, 7.81
-0.06, -1.00, 0.01, 2.81, 59.91, 7.30
-0.05, -0.98, 0.00, 2.87, 59.86, 7.14
-0.06, -1.00, 0.00, 3.10, 59.92, 7.70
-0.05, -0.99, 0.00, 2.55, 59.31, 6.68
-0.06, -0.99, 0.00, 2.93, 60.00, 7.45
-0.05, -0.98, 0.00, 2.72, 59.99, 6.58
-0.05, -0.98, 0.00, 3.37, 60.03, 7.57
-0.05, -0.99, 0.01, 3.17, 59.74, 7.04
-0.05, -0.99, 0.00, 3.02, 60.13, 7.34
-0.05, -0.99, 0.01, 2.39, 60.60, 6.92
-0.06, -0.98, -0.01, 2.82, 59.73, 7.23
-0.05, -0.99, 0.00, 3.34, 60.03, 6.93
-0.06, -0.99, 0.00, 3.30, 59.51, 7.02
-0.05, -0.99, -0.00, 2.66, 60.27, 6.88
-0.05, -0.99, 0.00, 3.08, 60.14, 6.90
-0.05, -0.98, -0.00, 3.37, 59.85, 6.99
-0.05, -0.99, 0.00, 3.43, 60.62, 6.87
-0.05, -1.00, 0.01, 2.84, 60.67, 7.20
-0.05, -0.97, -0.00, 3.65, 60.47, 7.39
-0.06, -0.99, 0.00, 3.32, 60.53, 7.15
-0.05, -0.99, 0.01, 3.14, 60.21, 5.96
-0.04, -0.98, 0.00, 3.43, 60.03, 7.98
-0.05, -0.99, 0.00, 3.28, 60.24, 7.51
-0.05, -0.99, 0.00, 3.44, 60.38, 7.46
-0.05, -0.99, 0.00, 3.38, 60.23, 7.08
-0.05, -0.99, 0.01, 3.11, 60.03, 7.01
-0.05, -1.00, 0.01, 3.89, 60.24, 6.98
-0.06, -0.98, -0.00, 4.10, 59.69, 6.65
-0.04, -0.98, 0.00, 2.93, 60.12, 6.41
-0.06, -1.00, 0.01, 4.15, 60.16, 6.32
-0.03, -0.99, 0.01, 2.86, 59.84, 6.73
-0.05, -0.99, 0.00, 3.20, 59.48, 7.39
-0.05, -0.99, 0.00, 3.15, 59.85, 6.99
-0.04, -0.99, 0.01, 2.97, 60.21, 7.54
-0.05, -1.00, 0.00, 3.16, 60.08, 7.62
-0.05, -0.99, 0.01, 3.52, 60.14, 7.90
-0.03, -0.98, 0.01, 3.71, 60.36, 6.70
-0.05, -1.00, 0.01, 3.27, 60.40, 7.06
-0.06, -0.99, 0.01, 3.17, 60.05, 6.96
-0.04, -0.99, 0.01, 3.78, 59.85, 6.73
-0.03, -0.97, 0.01, 3.30, 59.70, 6.71
-0.07, -1.00, -0.00, 3.44, 60.22, 7.46
-0.03, -0.99, 0.03, 3.75, 60.18, 6.63
-0.04, -0.99, 0.01, 3.44, 59.94, 6.97
-0.04, -1.00, 0.01, 3.15, 60.00, 6.38
-0.05, -0.98, 0.01, 3.25, 60.36, 6.52
-0.04, -0.97, 0.00, 3.92, 60.06, 8.24
-0.05, -0.99, 0.01, 3.28, 60.24, 7.52
-0.04, -0.98, -0.00, 3.04, 59.74, 7.40
-0.05, -1.00, 0.02, 3.10, 60.28, 7.31
-0.04, -0.98, 0.01, 3.20, 61.02, 7.52
-0.04, -0.99, 0.02, 3.38, 60.40, 6.86
-0.04, -0.99, 0.02, 3.59, 60.19, 6.19
-0.05, -0.99, 0.01, 3.70, 60.42, 6.25
-0.03, -0.98, 0.00, 3.59, 59.96, 6.38
-0.05, -1.00, 0.02, 3.78, 59.57, 6.04
-0.04, -0.98, 0.01, 3.41, 60.11, 7.17
-0.05, -0.99, 0.02, 3.44, 60.51, 6.57
-0.05, -0.99, 0.01, 3.11, 60.56, 6.95
-0.04, -0.98, -0.00, 3.26, 60.31, 7.34
-0.03, -0.98, 0.01, 3.69, 60.45, 7.13
-0.04, -0.99, 0.02, 3.17, 60.53, 6.04
-0.03, -0.99, 0.03, 3.63, 60.16, 6.15
-0.03, -0.99, 0.02, 3.43, 60.83, 6.20
-0.05, -1.00, 0.01, 3.30, 60.85, 5.65
-0.02, -0.98, 0.02, 3.92, 60.58, 6.03
-0.04, -1.00, 0.03, 3.72, 60.78, 6.07
-0.04, -0.98, 0.01, 3.60, 60.56, 5.74
-0.04, -0.98, 0.01, 3.50, 60.44, 6.54
-0.04, -0.99, 0.03, 3.44, 60.25, 6.13
-0.04, -1.00, 0.02, 3.92, 60.16, 6.13
-0.02, -0.98, 0.02, 3.23, 60.17, 5.96
-0.04, -0.99, 0.02, 3.86, 60.58, 6.36
-0.03, -0.98, 0.02, 3.66, 60.62, 6.67
-0.05, -1.00, 0.03, 3.56, 60.45, 6.15
-0.02, -0.99, 0.03, 3.48, 59.94, 6.93
-0.04, -0.98, 0.02, 3.65, 60.45, 6.13
-0.04, -0.98, 0.00, 3.21, 60.00, 5.93
-0.04, -0.99, 0.02, 4.10, 60.05, 6.91
-0.04, -1.00, 0.02, 4.13, 60.52, 6.64
-0.00, -0.99, 0.02, 3.61, 60.39, 6.37
-0.04, -0.98, 0.01, 3.70, 60.03, 6.46
-0.05, -0.98, 0.03, 3.34, 60.23, 6.38
-0.03, -0.99, 0.03, 3.91, 60.28, 6.59
-0.04, -0.97, 0.01, 3.45, 60.64, 5.87
-0.06, -0.99, 0.01, 3.91, 60.24, 6.57
-0.04, -0.98, 0.02, 3.96, 60.30, 6.60
-0.03, -0.99, 0.03, 3.43, 60.84, 6.49
-0.05, -1.00, 0.04, 3.66, 59.97, 6.65
-0.05, -0.99, 0.02, 3.89, 60.58, 7.10
-0.03, -0.99, 0.03, 3.61, 60.24, 6.82
-0.04, -0.99, 0.02, 3.72, 60.13, 6.48
-0.04, -0.98, 0.01, 4.39, 60.22, 7.73
-0.05, -1.02, 0.04, 4.44, 60.64, 6.74
-0.02, -0.95, 0.03, 4.14, 60.28, 6.31
-0.04, -1.01, 0.03, 3.83, 59.99, 7.04
-0.04, -0.98, 0.01, 4.02, 60.13, 6.80
-0.04, -0.99, 0.01, 3.42, 60.80, 7.10
-0.03, -0.97, 0.02, 3.60, 60.28, 7.34
-0.03, -1.00, 0.02, 3.58, 60.57, 7.06
-0.03, -0.98, 0.02, 3.76, 60.36, 5.80
-0.04, -0.98, 0.02, 3.76, 59.72, 6.79
-0.04, -1.00, 0.02, 4.00, 60.18, 7.46
-0.03, -0.99, 0.02, 3.48, 59.99, 7.25
-0.04, -0.99, 0.02, 3.80, 60.41, 7.54
-0.03, -0.99, 0.02, 3.85, 60.17, 6.48
-0.04, -1.01, 0.04, 4.14, 60.80, 7.46
-0.02, -0.98, 0.02, 4.42, 60.19, 7.45
-0.03, -0.98, 0.01, 4.49, 60.19, 7.75
-0.03, -0.97, 0.02, 4.30, 60.10, 6.90
-0.02, -1.00, 0.03, 3.93, 60.40, 6.57
-0.03, -1.01, 0.03, 4.43, 60.85, 6.60
-0.01, -0.99, 0.02, 4.64, 60.95, 6.86
-0.03, -0.98, 0.01, 4.13, 60.07, 6.93
-0.03, -0.99, 0.02, 4.66, 60.74, 7.71
-0.01, -0.98, 0.03, 4.33, 60.46, 7.62
-0.03, -0.99, 0.02, 4.61, 60.82, 5.87
-0.01, -1.00, 0.03, 4.38, 60.50, 6.56
-0.01, -0.97, 0.02, 4.44, 60.38, 6.29
-0.05, -0.99, 0.02, 4.14, 60.49, 5.97
-0.01, -0.99, 0.03, 4.61, 60.77, 6.26
-0.02, -0.99, 0.04, 4.60, 60.85, 6.48
-0.04, -0.98, 0.02, 4.21, 60.63, 6.75
-0.01, -1.00, 0.03, 4.77, 60.69, 5.74
0.00, -0.99, 0.04, 4.41, 61.11, 6.63
-0.03, -0.99, 0.01, 4.55, 60.89, 6.91
-0.03, -1.00, 0.03, 4.20, 61.10, 6.62
0.00, -0.97, 0.02, 4.77, 60.60, 7.30
-0.03, -1.01, 0.03, 4.42, 60.88, 7.89
-0.02, -0.98, 0.01, 4.50, 60.40, 6.34
-0.02, -0.99, 0.02, 4.65, 60.64, 6.30
-0.01, -0.98, 0.03, 3.96, 60.18, 6.74
-0.02, -1.00, 0.03, 4.70, 60.90, 6.07
-0.01, -0.97, 0.01, 4.43, 60.99, 6.38
-0.02, -1.00, 0.03, 4.61, 60.80, 7.04
-0.01, -0.98, 0.02, 4.52, 60.36, 6.08
-0.02, -0.99, 0.02, 4.70, 60.66, 6.26
-0.01, -0.99, 0.03, 5.33, 60.73, 6.18
-0.01, -0.98, 0.02, 4.48, 60.39, 5.88
-0.02, -0.98, 0.02, 5.07, 60.33, 5.88
-0.01, -0.99, 0.03, 4.91, 60.72, 6.20
-0.01, -1.00, 0.03, 5.05, 60.24, 6.38
-0.01, -0.99, 0.03, 5.05, 60.78, 6.21
-0.02, -0.98, 0.02, 4.58, 60.41, 6.65
-0.01, -0.99, 0.03, 4.97, 60.52, 5.46
0.00, -0.98, 0.02, 5.05, 60.21, 7.86
-0.03, -0.99, 0.01, 5.37, 60.34, 6.63
