x_acc, y_acc, z_acc, x_mag, y_mag, z_mag 
-1.19, 0.03, -0.13, -20.70, 9.67, -24.85
-0.77, -0.26, 0.08, -24.43, 11.05, -20.06
-1.21, -0.25, -0.20, -26.64, 12.67, -14.73
-1.06, -0.40, -0.19, -27.36, 14.29, -11.04
-1.09, -0.38, -0.24, -27.26, 16.08, -9.57
-1.14, -0.35, -0.18, -28.33, 16.50, -8.39
-0.85, -0.43, -0.01, -28.08, 17.05, -9.66
-0.91, -0.33, -0.08, -28.94, 18.05, -9.47
-0.87, -0.38, -0.07, -28.72, 18.26, -10.82
-0.84, -0.39, 0.02, -28.69, 19.07, -11.87
-1.01, -0.43, 0.04, -28.86, 19.19, -12.84
-0.78, -0.53, 0.16, -28.63, 19.69, -12.22
-1.03, -0.43, -0.03, -28.64, 21.04, -11.93
-0.82, -0.48, 0.02, -28.53, 21.17, -12.44
-0.93, -0.45, -0.02, -28.91, 21.07, -10.49
-0.90, -0.43, -0.05, -29.16, 21.33, -10.00
-0.82, -0.47, 0.02, -29.47, 21.14, -10.44
-0.85, -0.44, -0.09, -28.77, 21.55, -8.75
-0.87, -0.47, -0.11, -29.55, 21.61, -8.83
-0.86, -0.46, -0.06, -29.28, 21.18, -8.70
-0.91, -0.48, -0.06, -29.30, 22.39, -8.51
-0.82, -0.55, 0.01, -29.30, 22.25, -8.39
-0.86, -0.55, -0.06, -28.97, 22.57, -8.96
-0.92, -0.59, -0.14, -29.39, 23.16, -7.58
-0.95, -0.57, -0.03, -29.13, 23.06, -7.54
-0.80, -0.53, -0.09, -29.69, 23.25, -7.69
-0.85, -0.50, -0.15, -29.48, 22.60, -8.15
-0.84, -0.53, -0.02, -30.08, 23.24, -7.59
-0.86, -0.53, -0.06, -29.41, 23.08, -7.41
-0.87, -0.53, -0.02, -29.54, 22.89, -7.93
-0.86, -0.52, -0.02, -29.28, 22.57, -9.25
-0.82, -0.50, -0.04, -29.09, 22.78, -7.82
-0.87, -0.50, -0.07, -29.17, 22.92, -8.69
-0.85, -0.50, -0.06, -29.47, 22.38, -8.63
-0.90, -0.50, -0.05, -29.94, 22.49, -8.74
-0.86, -0.52, -0.00, -29.43, 22.71, -8.69
-0.84, -0.49, -0.06, -29.79, 22.60, -8.23
-0.84, -0.49, -0.05, -29.37, 22.39, -8.33
-0.88, -0.50, -0.06, -29.31, 22.17, -8.03
-0.85, -0.50, -0.07, -29.41, 22.52, -8.19
-0.89, -0.50, -0.04, -29.15, 22.09, -9.12
-0.84, -0.50, -0.03, -29.79, 23.01, -9.30
-0.88, -0.48, -0.04, -29.53, 22.58, -8.50
-0.86, -0.49, -0.06, -29.43, 22.11, -9.06
-0.89, -0.50, -0.02, -29.99, 22.01, -8.92
-0.89, -0.52, -0.00, -29.37, 22.20, -9.13
-0.78, -0.51, -0.07, -29.59, 22.28, -8.90
-0.95, -0.48, -0.00, -29.43, 22.14, -9.67
-0.84, -0.47, -0.07, -29.15, 21.72, -9.86
-0.83, -0.48, -0.03, -29.14, 21.80, -8.87
-0.92, -0.50, -0.00, -29.26, 21.77, -10.25
-0.87, -0.50, -0.03, -29.28, 21.72, -9.45
-0.86, -0.49, -0.03, -28.89, 21.97, -9.22
-0.90, -0.48, -0.05, -29.72, 21.44, -9.74
-0.84, -0.48, -0.03, -29.31, 21.91, -9.59
-0.87, -0.48, -0.04, -29.42, 21.52, -9.12
-0.88, -0.49, -0.01, -29.50, 21.86, -9.66
-0.87, -0.50, -0.02, -29.24, 22.38, -8.63
-0.91, -0.50, -0.03, -29.43, 22.01, -9.56
-0.86, -0.48, -0.08, -29.41, 22.42, -8.72
-0.86, -0.50, -0.05, -29.20, 22.24, -9.48
-0.86, -0.50, -0.01, -29.08, 21.80, -8.09
-0.88, -0.48, -0.10, -29.47, 21.72, -9.88
-0.88, -0.50, -0.03, -29.27, 21.94, -8.48
-0.88, -0.48, -0.04, -29.05, 21.55, -9.56
-0.85, -0.48, -0.05, -29.08, 21.62, -9.23
-0.87, -0.49, -0.05, -29.31, 22.18, -9.47
-0.88, -0.48, -0.06, -29.63, 22.24, -9.59
-0.88, -0.49, -0.04, -29.14, 22.08, -9.33
-0.88, -0.50, -0.00, -29.05, 21.98, -9.80
-0.88, -0.46, -0.08, -29.27, 21.69, -8.97
-0.85, -0.49, -0.03, -29.52, 21.85, -9.34
-0.89, -0.48, -0.04, -29.21, 21.55, -9.97
-0.88, -0.49, -0.04, -29.30, 21.40, -8.65
-0.89, -0.47, -0.07, -29.31, 22.16, -9.08
-0.87, -0.49, -0.00, -28.71, 20.96, -9.20
-0.87, -0.46, -0.07, -29.20, 21.53, -9.47
-0.87, -0.47, -0.03, -29.49, 21.31, -8.97
-0.88, -0.48, -0.02, -29.69, 21.25, -9.97
-0.87, -0.49, -0.04, -29.21, 21.84, -9.33
-0.88, -0.49, -0.04, -29.70, 21.61, -10.18
-0.87, -0.48, -0.05, -29.16, 21.42, -8.86
-0.90, -0.48, -0.03, -29.36, 21.34, -9.55
-0.86, -0.48, -0.04, -28.99, 21.59, -9.12
-0.89, -0.48, -0.02, -29.05, 22.01, -9.20
-0.86, -0.49, -0.04, -29.41, 21.74, -9.74
-0.87, -0.49, -0.04, -29.41, 21.51, -9.22
-0.86, -0.49, -0.00, -28.81, 21.55, -9.33
-0.87, -0.48, -0.05, -28.89, 21.57, -10.24
-0.90, -0.47, -0.04, -29.52, 21.25, -9.92
-0.86, -0.47, -0.06, -29.17, 21.61, -10.10
-0.89, -0.47, -0.04, -29.00, 21.19, -9.91
-0.85, -0.47, -0.01, -29.08, 21.07, -10.11
-0.91, -0.49, -0.01, -29.19, 21.83, -8.90
-0.87, -0.50, -0.03, -29.46, 21.41, -9.51
-0.90, -0.48, -0.03, -29.14, 21.61, -8.90
-0.85, -0.47, -0.04, -29.66, 21.55, -10.19
-0.87, -0.47, -0.04, -29.76, 21.40, -8.52
-0.89, -0.49, -0.01, -29.02, 21.62, -9.05
-0.88, -0.46, -0.05, -29.39, 21.03, -9.74
-0.87, -0.49, -0.01, -29.39, 21.23, -8.94
-0.88, -0.46, -0.05, -29.28, 21.23, -9.24
-0.87, -0.47, -0.02, -29.09, 22.06, -10.28
-0.89, -0.48, -0.04, -29.08, 21.72, -10.61
-0.90, -0.48, -0.01, -29.76, 21.31, -9.92
-0.87, -0.47, -0.05, -29.38, 21.46, -10.01
-0.87, -0.47, -0.03, -29.14, 21.64, -10.78
-0.89, -0.47, -0.00, -29.90, 21.40, -9.44
-0.88, -0.46, -0.04, -29.50, 21.09, -9.72
-0.90, -0.47, 0.01, -29.24, 21.26, -9.42
-0.86, -0.47, -0.04, -29.32, 21.20, -9.11
-0.90, -0.48, -0.02, -28.91, 21.18, -9.36
-0.90, -0.48, -0.02, -29.60, 21.81, -9.61
-0.88, -0.47, -0.05, -29.28, 21.28, -9.58
-0.87, -0.47, -0.00, -29.85, 20.76, -9.88
-0.89, -0.47, -0.03, -29.50, 20.79, -9.01
-0.87, -0.46, -0.01, -29.19, 21.33, -10.73
-0.87, -0.47, -0.03, -29.88, 21.31, -9.66
-0.88, -0.47, -0.04, -29.44, 21.75, -10.83
-0.89, -0.48, -0.02, -29.63, 21.33, -10.31
-0.89, -0.47, -0.03, -29.35, 21.12, -10.18
-0.89, -0.48, -0.02, -29.57, 21.46, -9.75
-0.89, -0.47, -0.02, -29.43, 20.97, -10.64
-0.88, -0.47, -0.05, -29.37, 21.53, -10.33
-0.89, -0.48, -0.00, -29.72, 21.58, -9.88
-0.88, -0.47, -0.04, -29.21, 21.34, -10.49
-0.88, -0.47, -0.03, -29.31, 21.59, -10.99
-0.89, -0.48, -0.02, -28.85, 21.33, -10.36
-0.88, -0.47, -0.02, -29.64, 21.75, -10.53
-0.88, -0.47, -0.01, -29.74, 21.06, -10.68
-0.88, -0.47, -0.02, -29.55, 21.33, -10.99
-0.88, -0.47, -0.02, -28.94, 21.61, -10.16
-0.88, -0.47, -0.03, -29.46, 21.58, -9.66
-0.88, -0.47, -0.04, -29.75, 20.87, -9.89
-0.89, -0.48, -0.03, -29.38, 21.29, -10.50
-0.90, -0.48, -0.02, -29.35, 21.37, -9.86
-0.89, -0.48, -0.02, -29.11, 21.46, -10.84
-0.88, -0.46, -0.04, -28.91, 21.09, -10.84
-0.87, -0.47, -0.00, -29.83, 20.84, -10.88
-0.87, -0.47, -0.02, -29.57, 20.70, -10.08
-0.90, -0.47, -0.04, -29.37, 21.20, -10.03
-0.87, -0.48, -0.03, -29.38, 21.07, -10.49
-0.89, -0.48, -0.02, -29.44, 20.97, -10.36
-0.87, -0.46, -0.05, -29.11, 21.55, -9.56
-0.87, -0.48, -0.00, -29.19, 20.90, -10.28
-0.89, -0.46, -0.04, -29.31, 21.28, -10.16
-0.87, -0.47, -0.06, -29.39, 21.39, -9.29
-0.91, -0.49, 0.04, -29.24, 21.03, -10.05
-0.86, -0.46, -0.09, -29.30, 21.19, -10.63
-0.89, -0.47, -0.00, -29.53, 21.14, -9.53
-0.86, -0.47, -0.02, -29.46, 21.48, -10.11
-0.90, -0.47, -0.04, -29.55, 20.86, -10.27
-0.87, -0.47, -0.05, -29.55, 21.15, -9.95
-0.91, -0.49, 0.01, -29.28, 21.12, -9.72
-0.87, -0.48, -0.03, -29.11, 20.94, -10.12
-0.89, -0.47, -0.02, -29.22, 21.48, -11.39
-0.87, -0.46, -0.03, -29.60, 21.40, -11.15
-0.89, -0.47, -0.01, -29.32, 21.00, -10.27
-0.88, -0.47, -0.06, -29.28, 21.51, -10.61
-0.90, -0.48, -0.00, -29.37, 21.23, -9.96
-0.88, -0.48, -0.01, -29.14, 20.76, -9.91
-0.89, -0.46, -0.04, -29.06, 20.57, -10.12
-0.87, -0.47, -0.02, -29.36, 20.70, -9.58
-0.88, -0.46, -0.04, -28.87, 20.84, -9.86
-0.89, -0.48, -0.00, -28.96, 21.14, -9.78
-0.89, -0.47, -0.04, -29.48, 21.41, -9.34
-0.88, -0.47, -0.02, -29.83, 21.25, -9.88
-0.87, -0.47, -0.03, -29.26, 21.30, -11.06
-0.89, -0.46, -0.03, -29.37, 21.31, -9.94
-0.89, -0.48, -0.01, -29.38, 21.58, -10.71
-0.89, -0.46, -0.03, -30.00, 21.13, -9.20
-0.88, -0.48, -0.03, -29.72, 20.69, -9.31
-0.89, -0.47, -0.04, -29.20, 21.15, -10.31
-0.88, -0.47, -0.02, -29.26, 21.22, -10.25
-0.87, -0.47, -0.02, -29.28, 21.00, -10.38
-0.89, -0.45, -0.04, -29.32, 21.45, -10.50
-0.87, -0.47, -0.00, -29.76, 21.58, -10.95
-0.90, -0.47, -0.03, -29.52, 21.40, -10.67
-0.89, -0.47, -0.03, -29.68, 21.23, -11.08
-0.87, -0.47, -0.02, -30.04, 20.94, -10.50
-0.88, -0.45, -0.03, -30.02, 21.23, -10.71
-0.90, -0.48, -0.02, -29.53, 21.70, -11.22
-0.88, -0.47, -0.04, -29.39, 20.91, -10.25
-0.89, -0.46, -0.01, -29.68, 20.75, -10.78
-0.88, -0.45, -0.03, -29.54, 21.90, -10.47
-0.91, -0.47, -0.01, -29.54, 21.18, -10.05
-0.88, -0.46, -0.04, -29.17, 21.03, -9.27
-0.87, -0.46, -0.03, -29.50, 21.29, -10.66
-0.87, -0.45, -0.05, -29.49, 21.02, -10.27
-0.91, -0.47, -0.01, -30.05, 21.42, -9.74
-0.89, -0.46, -0.03, -29.79, 21.31, -9.63
-0.88, -0.45, -0.03, -29.58, 21.23, -9.75
-0.87, -0.46, -0.04, -29.79, 20.75, -10.89
-0.89, -0.46, -0.01, -29.98, 21.12, -9.86
-0.90, -0.47, -0.03, -29.43, 20.69, -10.08
-0.90, -0.46, -0.04, -29.14, 20.78, -11.11
-0.87, -0.46, -0.01, -29.43, 20.67, -10.14
-0.90, -0.44, -0.05, -29.98, 20.95, -10.85
-0.87, -0.47, -0.01, -28.92, 20.65, -10.34
-0.91, -0.46, -0.03, -29.06, 21.15, -10.47
