x_acc, y_acc, z_acc, x_mag, y_mag, z_mag 
-0.54, -0.59, 0.58, -6.71, 57.58, -23.60
-0.60, -0.64, 0.61, -6.32, 57.42, -22.97
-0.51, -0.60, 0.58, -6.81, 57.75, -22.72
-0.53, -0.59, 0.61, -6.41, 57.13, -22.71
-0.49, -0.60, 0.59, -6.31, 57.56, -23.65
-0.48, -0.68, 0.57, -6.09, 57.69, -23.11
-0.47, -0.55, 0.59, -6.08, 57.06, -23.50
-0.49, -0.56, 0.63, -6.12, 57.39, -24.91
-0.55, -0.58, 0.65, -6.29, 57.53, -24.13
-0.43, -0.56, 0.57, -7.21, 56.74, -23.60
-0.54, -0.66, 0.56, -7.03, 56.96, -24.50
-0.51, -0.60, 0.60, -6.74, 56.60, -24.24
-0.51, -0.55, 0.62, -7.28, 56.12, -25.73
-0.48, -0.55, 0.62, -7.10, 56.73, -24.89
-0.53, -0.57, 0.62, -7.26, 57.40, -25.24
-0.51, -0.58, 0.61, -7.03, 56.98, -25.81
-0.52, -0.61, 0.61, -6.65, 57.01, -24.74
-0.49, -0.58, 0.61, -6.45, 56.95, -25.84
-0.47, -0.56, 0.60, -6.59, 57.73, -24.58
-0.47, -0.56, 0.62, -6.54, 57.24, -24.54
-0.50, -0.56, 0.63, -6.59, 57.70, -24.99
-0.50, -0.60, 0.62, -6.56, 57.20, -24.90
-0.48, -0.59, 0.62, -6.32, 57.17, -24.78
-0.49, -0.57, 0.63, -6.29, 57.56, -25.82
-0.47, -0.58, 0.63, -6.36, 57.31, -25.45
-0.46, -0.59, 0.63, -6.45, 57.41, -24.01
-0.50, -0.58, 0.64, -6.40, 57.01, -25.61
-0.51, -0.57, 0.65, -6.34, 57.01, -24.69
-0.49, -0.56, 0.63, -6.46, 56.98, -25.65
-0.49, -0.58, 0.63, -6.49, 57.36, -25.48
-0.46, -0.55, 0.63, -6.73, 57.26, -26.06
-0.46, -0.59, 0.63, -7.01, 56.84, -24.40
-0.49, -0.58, 0.64, -7.07, 57.08, -24.91
-0.49, -0.59, 0.64, -6.84, 56.16, -25.24
-0.49, -0.59, 0.63, -6.98, 56.37, -25.11
-0.48, -0.57, 0.64, -6.32, 56.35, -26.05
-0.45, -0.55, 0.64, -5.44, 56.46, -25.88
-0.48, -0.58, 0.65, -6.20, 56.60, -25.67
-0.49, -0.58, 0.65, -6.27, 56.63, -25.42
-0.49, -0.56, 0.65, -6.27, 56.95, -25.60
-0.47, -0.57, 0.65, -6.30, 56.70, -25.66
-0.48, -0.57, 0.64, -6.19, 56.23, -26.54
-0.49, -0.59, 0.64, -6.81, 56.08, -24.88
-0.46, -0.57, 0.63, -6.70, 56.81, -26.39
-0.47, -0.57, 0.65, -6.67, 56.20, -26.81
-0.49, -0.57, 0.65, -6.64, 55.99, -25.27
-0.49, -0.57, 0.66, -6.63, 56.80, -25.85
-0.47, -0.56, 0.65, -6.82, 56.82, -26.09
-0.47, -0.55, 0.66, -7.01, 55.90, -26.87
-0.46, -0.54, 0.66, -6.91, 56.31, -25.94
-0.47, -0.56, 0.66, -6.91, 56.04, -25.87
-0.49, -0.55, 0.67, -7.23, 56.02, -26.44
-0.47, -0.56, 0.65, -7.25, 56.45, -26.37
-0.47, -0.58, 0.65, -7.09, 56.08, -26.54
-0.47, -0.54, 0.66, -6.70, 55.75, -27.03
-0.47, -0.56, 0.67, -6.71, 56.19, -25.74
-0.47, -0.55, 0.67, -6.99, 56.12, -26.77
-0.47, -0.54, 0.66, -6.45, 56.16, -25.89
-0.48, -0.56, 0.66, -6.57, 55.96, -26.50
-0.48, -0.57, 0.66, -6.51, 55.57, -26.71
-0.46, -0.56, 0.67, -6.35, 55.64, -26.70
-0.47, -0.55, 0.67, -6.81, 56.16, -26.56
-0.48, -0.54, 0.67, -6.99, 56.20, -26.75
-0.47, -0.54, 0.67, -6.77, 55.88, -25.99
-0.47, -0.54, 0.66, -6.51, 55.60, -27.44
-0.46, -0.55, 0.67, -6.20, 55.80, -26.27
-0.48, -0.56, 0.66, -6.80, 56.15, -26.59
-0.47, -0.56, 0.66, -6.48, 56.31, -27.45
-0.47, -0.56, 0.66, -6.41, 56.09, -29.02
-0.48, -0.54, 0.67, -6.64, 56.38, -27.54
-0.46, -0.55, 0.67, -6.58, 55.86, -28.00
-0.47, -0.54, 0.66, -6.08, 56.08, -27.22
-0.49, -0.54, 0.67, -6.74, 56.14, -26.43
-0.48, -0.56, 0.66, -6.63, 56.46, -26.14
-0.47, -0.55, 0.67, -6.74, 56.34, -26.35
-0.47, -0.56, 0.67, -6.64, 55.59, -26.66
-0.46, -0.54, 0.67, -6.48, 56.29, -27.88
-0.46, -0.56, 0.66, -6.73, 56.70, -27.06
-0.47, -0.57, 0.66, -6.54, 55.74, -27.09
-0.47, -0.56, 0.66, -6.23, 56.54, -26.34
-0.47, -0.56, 0.67, -6.27, 55.94, -26.56
-0.48, -0.52, 0.67, -5.87, 55.68, -27.12
-0.46, -0.57, 0.66, -6.03, 56.36, -27.32
-0.46, -0.56, 0.65, -6.59, 55.94, -27.76
-0.48, -0.58, 0.67, -6.91, 56.30, -26.95
-0.46, -0.55, 0.66, -6.65, 56.49, -26.44
-0.47, -0.56, 0.66, -6.77, 56.36, -26.50
-0.46, -0.55, 0.66, -7.03, 56.14, -27.39
-0.48, -0.56, 0.67, -6.86, 55.88, -26.62
-0.46, -0.55, 0.66, -6.74, 55.54, -26.97
-0.48, -0.55, 0.66, -6.20, 56.01, -27.22
-0.46, -0.56, 0.67, -6.36, 56.51, -25.68
-0.46, -0.56, 0.67, -6.34, 56.42, -27.15
-0.47, -0.56, 0.67, -6.15, 56.27, -26.61
-0.47, -0.55, 0.66, -6.04, 56.04, -26.54
-0.45, -0.56, 0.67, -6.02, 55.93, -27.69
-0.47, -0.55, 0.67, -6.37, 55.85, -26.76
-0.46, -0.56, 0.67, -6.27, 55.93, -26.70
-0.47, -0.57, 0.66, -6.36, 55.71, -26.03
-0.46, -0.56, 0.66, -6.08, 55.81, -26.46
-0.47, -0.57, 0.66, -6.20, 55.91, -27.42
-0.45, -0.56, 0.67, -6.26, 55.88, -27.87
-0.48, -0.56, 0.67, -5.65, 56.27, -26.56
-0.46, -0.55, 0.67, -5.76, 56.08, -27.06
-0.48, -0.55, 0.66, -5.97, 56.19, -26.94
-0.47, -0.55, 0.67, -6.20, 55.68, -26.70
-0.47, -0.56, 0.67, -6.08, 56.12, -26.64
-0.46, -0.56, 0.67, -5.73, 55.77, -26.20
-0.48, -0.55, 0.66, -6.32, 56.24, -26.68
-0.46, -0.56, 0.66, -6.13, 55.73, -26.01
-0.46, -0.54, 0.68, -5.88, 55.48, -26.48
-0.47, -0.55, 0.67, -6.13, 55.82, -26.86
-0.48, -0.53, 0.67, -6.13, 56.14, -26.05
-0.46, -0.55, 0.67, -5.79, 55.88, -26.04
-0.46, -0.56, 0.67, -6.41, 56.23, -26.99
-0.45, -0.54, 0.67, -6.25, 56.48, -26.79
-0.46, -0.57, 0.67, -6.48, 56.38, -27.64
-0.46, -0.56, 0.66, -6.20, 56.47, -26.62
-0.46, -0.57, 0.67, -6.70, 56.25, -26.60
-0.46, -0.56, 0.67, -6.42, 56.07, -26.17
-0.47, -0.56, 0.67, -5.49, 55.80, -26.42
-0.46, -0.55, 0.66, -6.02, 56.16, -27.37
-0.47, -0.56, 0.67, -5.96, 56.53, -28.31
-0.46, -0.55, 0.66, -7.18, 56.34, -27.67
-0.47, -0.55, 0.67, -6.26, 55.77, -27.43
-0.46, -0.57, 0.66, -6.85, 56.75, -27.60
-0.45, -0.56, 0.67, -6.51, 56.24, -26.46
-0.45, -0.56, 0.67, -6.43, 56.34, -26.64
-0.47, -0.56, 0.66, -6.26, 56.77, -27.34
-0.47, -0.57, 0.66, -6.23, 56.12, -26.97
-0.46, -0.55, 0.67, -6.04, 56.24, -26.03
-0.45, -0.55, 0.67, -6.45, 56.32, -26.61
-0.47, -0.57, 0.67, -6.27, 56.24, -26.75
-0.46, -0.55, 0.67, -6.23, 56.59, -25.83
-0.46, -0.57, 0.66, -6.27, 55.80, -27.45
-0.46, -0.56, 0.66, -6.32, 56.31, -26.32
-0.48, -0.56, 0.67, -6.24, 55.69, -26.32
-0.46, -0.56, 0.66, -5.87, 55.57, -26.67
-0.46, -0.56, 0.66, -5.86, 55.81, -27.67
-0.47, -0.56, 0.66, -6.25, 56.36, -26.59
-0.46, -0.54, 0.67, -6.23, 56.59, -27.08
-0.47, -0.56, 0.67, -6.23, 56.52, -27.62
-0.46, -0.56, 0.66, -5.86, 56.19, -27.12
-0.47, -0.58, 0.67, -5.97, 56.67, -27.51
-0.46, -0.55, 0.66, -6.24, 55.97, -26.78
-0.48, -0.56, 0.67, -6.80, 56.08, -26.46
-0.47, -0.55, 0.65, -6.60, 56.46, -27.25
-0.48, -0.55, 0.67, -6.91, 55.64, -27.50
-0.47, -0.55, 0.67, -6.77, 56.29, -28.23
-0.45, -0.56, 0.66, -6.25, 56.45, -27.40
-0.47, -0.56, 0.65, -6.16, 56.21, -25.95
-0.46, -0.57, 0.66, -6.56, 55.92, -26.86
-0.46, -0.57, 0.66, -6.37, 56.36, -26.44
-0.47, -0.56, 0.66, -6.29, 56.04, -27.01
-0.46, -0.56, 0.66, -6.12, 56.84, -26.82
-0.46, -0.57, 0.65, -5.94, 56.96, -27.44
-0.48, -0.57, 0.66, -6.75, 56.82, -26.37
-0.46, -0.54, 0.66, -5.90, 56.05, -27.01
-0.47, -0.56, 0.66, -6.20, 56.35, -26.83
-0.47, -0.55, 0.67, -6.02, 56.12, -28.00
-0.46, -0.56, 0.67, -6.32, 56.75, -26.53
-0.46, -0.56, 0.66, -6.58, 55.97, -27.17
-0.49, -0.55, 0.66, -6.47, 56.14, -27.65
-0.47, -0.56, 0.67, -6.31, 55.92, -26.99
-0.45, -0.56, 0.66, -5.91, 55.73, -27.08
-0.46, -0.56, 0.66, -5.75, 56.43, -27.58
-0.48, -0.55, 0.67, -6.21, 56.47, -27.26
-0.48, -0.55, 0.67, -5.96, 55.96, -26.26
-0.46, -0.55, 0.66, -5.32, 56.52, -27.73
-0.47, -0.56, 0.66, -5.93, 55.83, -26.87
-0.47, -0.57, 0.66, -6.32, 56.02, -27.47
-0.48, -0.57, 0.66, -5.92, 56.15, -27.20
-0.46, -0.56, 0.66, -6.01, 55.76, -27.45
-0.48, -0.55, 0.66, -6.05, 56.05, -26.75
-0.46, -0.55, 0.66, -6.08, 56.32, -28.14
-0.48, -0.57, 0.66, -6.48, 56.43, -26.93
-0.47, -0.57, 0.66, -5.91, 55.97, -26.49
-0.48, -0.55, 0.66, -5.59, 55.96, -27.01
-0.46, -0.55, 0.67, -6.23, 56.42, -26.38
-0.47, -0.56, 0.66, -6.43, 56.47, -26.60
-0.47, -0.56, 0.66, -6.04, 56.26, -27.12
-0.47, -0.57, 0.66, -5.98, 56.96, -25.84
-0.45, -0.56, 0.66, -5.48, 56.04, -27.00
-0.48, -0.55, 0.67, -5.69, 56.24, -26.51
-0.48, -0.56, 0.66, -6.59, 56.34, -27.34
-0.46, -0.55, 0.66, -6.21, 56.75, -27.34
-0.46, -0.56, 0.66, -6.02, 56.08, -26.70
-0.48, -0.56, 0.67, -6.49, 56.81, -26.99
-0.45, -0.55, 0.66, -6.19, 56.75, -27.19
-0.47, -0.57, 0.66, -6.34, 56.12, -26.03
-0.47, -0.55, 0.66, -6.35, 56.31, -27.01
-0.47, -0.56, 0.66, -5.94, 56.16, -27.05
-0.46, -0.55, 0.66, -6.18, 56.60, -26.57
-0.46, -0.57, 0.66, -6.32, 56.36, -26.59
-0.47, -0.57, 0.66, -6.51, 56.27, -26.55
-0.47, -0.56, 0.66, -6.16, 56.04, -26.73
-0.47, -0.55, 0.66, -5.97, 56.12, -26.76
-0.46, -0.55, 0.66, -6.12, 56.07, -26.37
-0.48, -0.57, 0.66, -6.09, 56.19, -26.49
-0.46, -0.56, 0.65, -5.47, 55.64, -27.64
