x_acc, y_acc, z_acc, x_mag, y_mag, z_mag 
-0.14, -0.24, 0.97, 13.17, 40.20, -40.56
-0.21, -0.21, 0.89, 12.66, 39.99, -41.58
-0.22, -0.21, 0.95, 13.43, 39.79, -41.31
-0.25, -0.20, 0.92, 13.53, 40.06, -41.14
-0.20, -0.21, 0.96, 13.59, 39.71, -41.39
-0.20, -0.20, 0.92, 13.49, 39.98, -42.22
-0.19, -0.20, 0.94, 13.29, 40.00, -41.41
-0.18, -0.19, 0.94, 13.44, 39.88, -41.98
-0.17, -0.20, 0.93, 13.83, 39.36, -42.16
-0.21, -0.19, 0.96, 14.18, 39.44, -41.48
-0.17, -0.20, 0.96, 13.38, 39.38, -41.47
-0.21, -0.19, 0.93, 13.38, 39.06, -42.05
-0.20, -0.19, 0.93, 13.32, 39.14, -42.70
-0.21, -0.20, 1.02, 13.49, 39.20, -41.58
-0.20, -0.18, 0.94, 13.88, 38.62, -42.54
-0.16, -0.19, 0.93, 13.44, 38.84, -42.61
-0.18, -0.19, 0.95, 14.00, 38.92, -41.93
-0.21, -0.17, 0.94, 13.90, 38.78, -42.15
-0.19, -0.18, 0.94, 13.24, 39.06, -42.53
-0.21, -0.17, 0.95, 13.46, 38.31, -41.98
-0.18, -0.17, 0.97, 13.66, 38.38, -41.92
-0.20, -0.16, 0.93, 13.34, 38.01, -41.63
-0.20, -0.15, 0.95, 14.15, 37.84, -42.97
-0.19, -0.16, 0.95, 14.18, 38.29, -42.35
-0.19, -0.16, 0.94, 13.61, 37.71, -43.03
-0.19, -0.16, 0.94, 14.14, 37.43, -42.83
-0.17, -0.17, 0.98, 14.14, 37.78, -42.70
-0.19, -0.15, 0.95, 14.12, 36.68, -41.89
-0.19, -0.15, 0.95, 13.72, 37.02, -42.66
-0.19, -0.15, 0.96, 13.78, 37.29, -42.44
-0.18, -0.15, 0.96, 14.12, 37.19, -42.76
-0.21, -0.13, 0.96, 14.60, 36.89, -43.52
-0.21, -0.14, 0.95, 13.84, 37.45, -42.26
-0.17, -0.15, 0.95, 14.00, 37.08, -43.02
-0.17, -0.16, 0.96, 14.00, 36.73, -43.14
-0.19, -0.15, 0.96, 13.92, 37.18, -42.24
-0.19, -0.14, 0.96, 14.03, 37.38, -42.91
-0.19, -0.14, 0.94, 13.77, 37.56, -43.13
-0.20, -0.12, 0.96, 13.78, 37.32, -43.52
-0.18, -0.13, 0.96, 13.76, 36.95, -42.50
-0.19, -0.13, 0.97, 14.06, 37.02, -42.46
-0.19, -0.13, 0.95, 13.90, 37.34, -43.54
-0.19, -0.14, 0.96, 14.39, 37.07, -42.88
-0.19, -0.14, 0.96, 13.94, 37.27, -43.74
-0.19, -0.13, 0.96, 13.89, 36.60, -42.68
-0.20, -0.12, 0.94, 13.93, 36.99, -42.50
-0.18, -0.12, 0.95, 14.12, 36.30, -41.69
-0.19, -0.14, 0.97, 13.72, 37.17, -42.83
-0.16, -0.15, 0.98, 14.04, 36.46, -43.33
-0.21, -0.12, 0.91, 13.96, 36.89, -43.86
-0.17, -0.13, 0.97, 14.07, 36.10, -43.08
-0.21, -0.11, 0.92, 14.44, 36.44, -43.41
-0.18, -0.12, 0.99, 14.48, 36.95, -43.15
-0.19, -0.12, 0.95, 13.85, 36.36, -42.94
-0.17, -0.13, 0.98, 13.89, 36.12, -43.29
-0.18, -0.13, 0.94, 14.56, 36.62, -43.02
-0.20, -0.12, 0.95, 14.01, 36.34, -42.80
-0.17, -0.13, 0.96, 13.79, 36.74, -41.88
-0.19, -0.13, 0.97, 13.82, 36.12, -43.57
-0.18, -0.12, 0.96, 14.43, 36.27, -43.43
-0.19, -0.11, 0.95, 13.88, 35.97, -43.01
-0.19, -0.12, 0.95, 13.77, 36.43, -43.14
-0.18, -0.13, 0.97, 13.92, 35.83, -43.19
-0.19, -0.12, 0.97, 13.82, 36.05, -43.54
-0.19, -0.11, 0.95, 13.83, 36.32, -43.57
-0.18, -0.11, 0.96, 14.09, 36.02, -43.31
-0.17, -0.12, 0.96, 14.65, 35.85, -43.80
-0.20, -0.12, 0.94, 14.73, 36.32, -43.97
-0.16, -0.14, 0.99, 15.10, 36.65, -44.18
-0.20, -0.12, 0.95, 14.49, 36.32, -43.07
-0.15, -0.13, 0.97, 14.42, 36.30, -42.46
-0.21, -0.11, 0.90, 14.49, 36.41, -42.81
-0.18, -0.11, 0.97, 14.32, 36.58, -42.46
-0.19, -0.12, 0.96, 14.51, 36.38, -42.59
-0.17, -0.12, 0.96, 14.31, 36.82, -42.82
-0.18, -0.12, 0.97, 14.11, 36.16, -43.14
-0.19, -0.12, 0.93, 14.45, 35.94, -43.26
-0.20, -0.11, 0.95, 14.39, 36.32, -43.70
-0.15, -0.13, 0.98, 14.60, 36.04, -43.70
-0.20, -0.11, 0.94, 14.11, 36.12, -42.75
-0.17, -0.12, 0.97, 14.06, 35.86, -42.98
-0.20, -0.11, 0.97, 14.21, 35.90, -42.02
-0.20, -0.10, 0.91, 14.29, 36.29, -43.41
-0.18, -0.12, 0.95, 14.45, 36.10, -43.53
-0.19, -0.13, 0.95, 14.40, 36.12, -42.86
-0.17, -0.12, 0.98, 14.11, 36.04, -43.51
-0.18, -0.11, 0.93, 14.38, 36.02, -43.44
-0.18, -0.13, 0.99, 14.78, 36.02, -43.81
-0.21, -0.10, 0.95, 14.77, 36.10, -42.20
-0.18, -0.12, 0.97, 14.06, 36.12, -42.80
-0.17, -0.12, 0.92, 14.29, 36.06, -43.14
-0.18, -0.12, 0.96, 14.06, 35.91, -43.49
-0.15, -0.14, 0.97, 14.10, 35.95, -42.86
-0.21, -0.11, 0.98, 14.39, 35.99, -42.85
-0.20, -0.10, 0.97, 14.15, 36.17, -42.63
-0.18, -0.10, 0.96, 14.42, 36.00, -43.40
-0.16, -0.11, 0.96, 14.83, 35.89, -42.75
-0.16, -0.13, 0.97, 14.60, 35.63, -43.13
-0.21, -0.12, 0.97, 14.32, 35.57, -43.36
-0.19, -0.11, 0.96, 14.61, 36.46, -43.75
-0.18, -0.10, 0.94, 14.98, 35.11, -42.20
-0.18, -0.10, 0.92, 14.17, 35.69, -43.76
-0.19, -0.11, 0.97, 14.17, 35.96, -43.36
-0.19, -0.11, 0.95, 14.15, 36.07, -43.79
-0.18, -0.12, 0.99, 13.67, 35.83, -43.52
-0.19, -0.10, 0.94, 13.45, 36.06, -43.49
-0.20, -0.10, 0.95, 14.34, 35.88, -43.29
-0.19, -0.11, 0.97, 14.03, 35.67, -43.38
-0.18, -0.12, 0.97, 14.59, 35.62, -43.31
-0.17, -0.11, 0.97, 14.21, 36.04, -43.48
-0.17, -0.11, 0.95, 14.44, 35.47, -42.96
-0.21, -0.11, 0.97, 13.84, 35.62, -43.51
-0.19, -0.10, 0.95, 13.81, 35.05, -43.31
-0.18, -0.11, 0.97, 13.71, 35.66, -43.36
-0.17, -0.12, 0.96, 13.81, 35.51, -43.25
-0.20, -0.11, 0.96, 13.89, 36.15, -42.97
-0.17, -0.13, 0.98, 14.17, 34.96, -42.74
-0.20, -0.11, 0.95, 14.10, 35.42, -42.66
-0.17, -0.11, 0.96, 13.99, 35.10, -42.80
-0.19, -0.10, 0.94, 14.09, 35.67, -43.62
-0.18, -0.11, 0.96, 14.04, 35.17, -43.41
-0.18, -0.11, 0.96, 14.53, 35.88, -43.33
-0.18, -0.12, 0.96, 14.29, 35.91, -43.31
-0.18, -0.12, 0.97, 14.14, 35.93, -43.98
-0.18, -0.12, 0.96, 14.66, 35.28, -43.18
-0.20, -0.10, 0.95, 14.39, 35.24, -42.92
-0.17, -0.10, 0.97, 14.69, 35.19, -42.90
-0.17, -0.10, 0.95, 14.53, 35.79, -43.26
-0.19, -0.10, 0.94, 13.93, 35.90, -43.03
-0.15, -0.12, 0.99, 13.79, 35.83, -43.63
-0.19, -0.12, 0.98, 14.56, 35.90, -42.66
-0.17, -0.11, 0.96, 14.25, 35.27, -42.25
-0.20, -0.10, 0.95, 14.17, 35.55, -42.68
-0.16, -0.10, 0.97, 14.36, 35.34, -43.05
-0.18, -0.09, 0.94, 14.33, 35.61, -43.02
-0.18, -0.10, 0.97, 14.49, 35.77, -44.20
-0.18, -0.11, 0.98, 14.79, 35.72, -44.45
-0.18, -0.11, 0.96, 14.77, 35.67, -42.99
-0.16, -0.11, 0.97, 14.48, 35.78, -43.74
-0.18, -0.11, 0.95, 15.37, 35.77, -43.62
-0.17, -0.11, 0.97, 15.15, 35.55, -43.05
-0.21, -0.09, 0.94, 14.81, 35.60, -42.65
-0.17, -0.11, 0.96, 14.71, 35.49, -43.29
-0.20, -0.10, 0.95, 14.44, 35.41, -43.31
-0.15, -0.12, 0.98, 14.54, 35.40, -42.52
-0.20, -0.11, 0.96, 14.14, 35.85, -42.48
-0.16, -0.11, 0.94, 15.14, 35.49, -42.74
-0.19, -0.10, 0.96, 14.65, 35.57, -43.31
-0.16, -0.11, 0.98, 14.79, 35.49, -42.94
-0.19, -0.10, 0.98, 14.69, 35.21, -43.36
-0.18, -0.10, 0.94, 14.78, 35.01, -42.93
-0.16, -0.12, 0.98, 14.36, 35.00, -43.82
-0.20, -0.10, 0.95, 14.67, 35.29, -44.17
-0.18, -0.11, 0.95, 14.77, 35.10, -43.48
-0.19, -0.10, 0.95, 14.62, 35.22, -44.32
-0.17, -0.11, 0.95, 14.69, 35.05, -43.70
-0.17, -0.11, 0.97, 14.56, 34.96, -42.98
-0.17, -0.11, 0.97, 14.54, 35.36, -44.27
-0.17, -0.11, 0.97, 14.93, 35.19, -43.01
-0.19, -0.11, 0.96, 14.87, 35.84, -43.32
-0.17, -0.11, 0.95, 15.06, 35.78, -44.26
-0.18, -0.11, 0.97, 14.94, 35.74, -43.44
-0.16, -0.10, 0.96, 15.03, 35.69, -43.74
-0.20, -0.12, 0.99, 15.31, 35.41, -43.23
-0.19, -0.09, 0.93, 14.77, 35.47, -44.01
-0.17, -0.11, 0.95, 14.55, 35.56, -43.20
-0.17, -0.11, 0.98, 14.12, 35.13, -43.19
-0.16, -0.11, 0.98, 14.86, 35.51, -43.10
-0.17, -0.11, 0.97, 14.84, 35.17, -43.42
-0.17, -0.10, 0.97, 15.00, 35.63, -43.21
-0.19, -0.09, 0.95, 15.04, 35.25, -44.32
-0.21, -0.08, 0.91, 15.22, 35.01, -44.04
-0.17, -0.09, 0.95, 15.38, 35.47, -43.51
-0.19, -0.09, 0.95, 14.28, 35.03, -42.87
-0.17, -0.10, 0.95, 14.94, 35.16, -43.71
-0.15, -0.11, 0.97, 15.00, 35.34, -42.81
-0.17, -0.10, 0.97, 15.27, 35.46, -43.52
-0.14, -0.11, 1.00, 14.92, 35.10, -44.27
0.23, -0.26, 1.13, 14.58, 34.48, -43.97
0.00, -0.28, 1.01, 13.53, 30.40, -44.01
-0.08, -0.32, 1.02, 14.55, 25.43, -45.53
-1.03, 0.31, 0.53, 14.54, 19.51, -45.42
-0.04, -0.11, 1.32, 12.74, 17.92, -44.35
-0.77, 0.26, 0.79, 8.79, 15.54, -44.25
-0.63, 0.22, 0.78, 7.95, 14.66, -44.59
-0.69, 0.27, 0.72, 7.56, 14.48, -45.25
-0.46, 0.18, 0.77, 8.23, 14.23, -44.73
-0.54, 0.23, 0.79, 8.19, 14.36, -44.51
-0.53, 0.23, 0.71, 8.62, 14.78, -43.63
-0.39, 0.14, 0.89, 8.01, 14.94, -44.30
-0.45, 0.17, 0.88, 8.39, 15.84, -44.52
-0.49, 0.17, 0.84, 8.96, 15.20, -44.63
-0.47, 0.16, 0.88, 8.50, 15.80, -44.31
-0.41, 0.16, 0.85, 9.01, 15.64, -44.51
-0.47, 0.19, 0.83, 8.70, 16.09, -44.98
-0.50, 0.19, 0.86, 9.11, 16.52, -44.48
-0.52, 0.21, 0.82, 9.66, 16.78, -44.91
-0.46, 0.17, 0.86, 9.50, 17.94, -45.04
-0.45, 0.17, 0.82, 10.21, 18.71, -45.74
-0.38, 0.13, 0.94, 11.13, 20.02, -44.79
