x_acc, y_acc, z_acc, x_mag, y_mag, z_mag 
0.66, 0.31, 0.63, 26.39, 8.25, -46.57
0.96, 0.72, 0.39, 27.88, 8.72, -45.39
0.58, 0.28, 0.84, 28.71, 13.23, -46.51
0.67, 0.14, 0.83, 27.83, 17.04, -47.49
0.77, 0.09, 0.83, 29.05, 18.41, -45.78
0.80, 0.13, 0.58, 31.52, 19.07, -45.78
0.69, 0.06, 0.70, 30.85, 20.09, -45.51
0.67, 0.12, 0.64, 30.92, 21.90, -45.90
0.52, 0.04, 0.57, 28.76, 23.67, -46.20
0.76, -0.06, 1.01, 24.12, 25.94, -48.91
0.47, -0.05, 0.60, 22.24, 28.50, -48.82
0.49, -0.17, 0.44, 18.57, 34.95, -48.45
0.48, -0.34, 1.46, 17.46, 43.58, -44.36
0.39, -0.17, 0.67, 17.92, 44.74, -43.71
0.55, -0.37, 0.61, 15.67, 46.78, -42.99
0.35, -0.41, 0.86, 14.58, 49.65, -40.76
0.33, -0.58, 1.17, 12.30, 51.66, -40.82
0.36, -0.45, 0.74, 11.68, 51.10, -40.43
0.26, -0.44, 0.84, 10.94, 50.88, -40.61
0.31, -0.46, 0.89, 10.23, 51.17, -41.69
0.29, -0.43, 0.77, 9.38, 50.52, -41.30
0.26, -0.39, 0.87, 9.25, 51.25, -41.19
0.24, -0.45, 0.85, 8.04, 50.98, -41.70
0.21, -0.48, 0.78, 6.51, 51.78, -40.14
0.14, -0.48, 0.94, 5.83, 53.10, -38.75
0.14, -0.51, 0.82, 5.02, 53.39, -37.61
0.17, -0.51, 0.76, 4.77, 54.13, -38.15
0.08, -0.59, 0.94, 4.09, 53.59, -37.12
0.10, -0.50, 0.76, 4.16, 53.52, -37.99
0.10, -0.49, 0.83, 4.03, 53.80, -37.87
0.10, -0.51, 0.97, 3.49, 54.22, -38.43
0.18, -0.50, 0.81, 3.55, 52.95, -38.26
0.07, -0.51, 0.83, 3.33, 53.05, -39.03
0.10, -0.47, 0.83, 3.02, 53.20, -38.49
0.12, -0.50, 0.91, 2.80, 52.82, -38.73
0.12, -0.52, 0.77, 2.37, 52.76, -38.81
0.07, -0.49, 0.87, 2.32, 52.20, -39.00
0.12, -0.49, 0.79, 2.83, 51.68, -39.82
0.09, -0.49, 0.87, 2.27, 52.04, -39.34
0.10, -0.49, 0.84, 2.93, 52.09, -40.23
0.08, -0.50, 0.86, 2.45, 51.98, -38.99
0.10, -0.51, 0.85, 2.22, 52.28, -39.25
0.11, -0.50, 0.84, 2.38, 52.78, -40.09
0.10, -0.50, 0.86, 1.88, 52.25, -39.59
0.08, -0.48, 0.86, 1.88, 51.66, -39.82
0.06, -0.48, 0.86, 1.39, 51.61, -40.33
0.08, -0.49, 0.82, 1.65, 51.92, -39.55
0.10, -0.49, 0.84, 1.89, 51.46, -40.63
0.08, -0.48, 0.87, 0.98, 50.98, -39.83
0.08, -0.48, 0.84, 1.26, 50.73, -39.58
0.08, -0.47, 0.86, 1.22, 50.89, -40.43
0.07, -0.46, 0.89, 1.31, 51.04, -39.70
0.08, -0.47, 0.84, 1.61, 51.37, -39.59
0.12, -0.50, 0.79, 1.68, 51.21, -40.71
0.09, -0.49, 0.84, 1.97, 50.94, -40.21
0.10, -0.49, 0.84, 1.04, 50.77, -40.75
0.09, -0.46, 0.87, 1.76, 51.01, -39.22
0.09, -0.47, 0.86, 1.81, 50.95, -41.02
0.08, -0.48, 0.86, 1.93, 51.20, -39.53
0.09, -0.46, 0.84, 1.94, 50.83, -40.10
0.10, -0.48, 0.86, 2.20, 51.35, -40.60
0.08, -0.46, 0.85, 1.82, 50.83, -40.95
0.09, -0.47, 0.86, 1.50, 51.14, -40.30
0.10, -0.48, 0.85, 1.78, 50.99, -40.64
0.09, -0.47, 0.85, 2.00, 51.17, -40.33
0.11, -0.47, 0.86, 1.71, 50.89, -42.16
0.09, -0.46, 0.89, 2.00, 51.12, -39.56
0.09, -0.47, 0.86, 2.06, 51.06, -40.60
0.08, -0.48, 0.86, 2.04, 50.72, -41.05
0.10, -0.45, 0.85, 1.49, 51.11, -41.02
0.08, -0.46, 0.87, 1.46, 50.99, -41.46
0.08, -0.46, 0.87, 1.65, 50.79, -40.87
0.08, -0.47, 0.86, 1.71, 51.26, -40.64
0.08, -0.47, 0.86, 1.86, 50.52, -39.66
0.10, -0.46, 0.88, 1.98, 50.79, -41.02
0.10, -0.48, 0.86, 1.61, 50.62, -41.85
0.09, -0.48, 0.86, 1.78, 51.34, -40.43
0.10, -0.46, 0.85, 1.98, 50.96, -41.56
0.10, -0.48, 0.88, 1.71, 50.76, -41.09
0.08, -0.45, 0.86, 1.89, 50.81, -40.08
0.08, -0.46, 0.86, 1.16, 50.87, -41.31
0.09, -0.47, 0.87, 1.35, 50.70, -41.67
0.10, -0.47, 0.87, 1.53, 50.96, -41.09
0.10, -0.46, 0.86, 1.54, 50.63, -40.98
0.08, -0.46, 0.87, 1.75, 50.96, -40.22
0.08, -0.46, 0.87, 1.87, 50.71, -41.27
0.08, -0.47, 0.85, 1.92, 50.34, -40.91
0.09, -0.46, 0.88, 1.79, 50.68, -40.76
0.09, -0.46, 0.87, 1.51, 50.51, -41.65
0.07, -0.47, 0.85, 1.22, 50.72, -41.21
0.09, -0.46, 0.87, 1.59, 50.68, -40.54
0.08, -0.45, 0.82, 1.72, 50.62, -40.87
0.08, -0.47, 0.87, 1.84, 50.54, -39.17
0.09, -0.46, 0.86, 1.97, 51.03, -40.23
0.08, -0.47, 0.86, 1.61, 51.06, -39.54
0.09, -0.46, 0.86, 2.00, 51.21, -39.71
0.10, -0.47, 0.85, 1.67, 51.23, -39.79
0.12, -0.49, 0.87, 1.65, 51.54, -40.59
0.09, -0.47, 0.86, 1.09, 51.17, -40.58
0.07, -0.46, 0.85, 1.16, 51.00, -39.84
0.08, -0.46, 0.86, 1.14, 51.60, -40.53
0.09, -0.46, 0.87, 1.54, 51.11, -41.31
0.08, -0.46, 0.87, 1.53, 51.22, -40.63
0.09, -0.47, 0.86, 1.55, 51.12, -41.20
0.09, -0.46, 0.87, 1.56, 51.31, -41.06
0.09, -0.46, 0.86, 1.26, 50.78, -41.08
0.08, -0.47, 0.86, 1.07, 51.37, -41.75
0.08, -0.45, 0.86, 1.98, 50.85, -40.54
0.09, -0.47, 0.87, 0.88, 51.03, -40.63
0.08, -0.46, 0.86, 1.45, 51.12, -39.70
0.09, -0.46, 0.86, 0.78, 51.18, -40.59
0.08, -0.46, 0.87, 1.48, 50.83, -41.09
0.09, -0.46, 0.87, 1.21, 50.85, -40.52
0.08, -0.46, 0.86, 1.22, 50.92, -40.28
0.08, -0.46, 0.86, 1.31, 51.33, -41.09
0.09, -0.46, 0.85, 1.14, 50.83, -40.69
0.10, -0.45, 0.87, 1.42, 51.70, -40.55
0.08, -0.46, 0.87, 1.26, 51.46, -40.56
0.08, -0.46, 0.86, 0.84, 51.23, -40.45
0.08, -0.47, 0.87, 1.73, 50.63, -39.86
0.08, -0.45, 0.86, 0.73, 50.94, -40.72
0.10, -0.46, 0.86, 1.38, 51.06, -41.00
0.08, -0.46, 0.88, 1.46, 50.31, -41.56
0.09, -0.46, 0.87, 1.54, 50.70, -41.54
0.08, -0.45, 0.86, 1.21, 51.04, -41.71
0.09, -0.46, 0.87, 1.32, 50.40, -41.13
0.08, -0.46, 0.91, 1.20, 50.57, -40.59
0.08, -0.46, 0.88, 1.39, 50.57, -41.15
0.09, -0.46, 0.86, 1.57, 50.76, -40.63
0.08, -0.45, 0.87, 1.21, 50.92, -40.19
0.08, -0.46, 0.87, 1.23, 50.38, -41.10
0.08, -0.46, 0.87, 1.77, 50.60, -40.77
0.09, -0.46, 0.86, 1.17, 51.27, -41.78
0.08, -0.46, 0.87, 1.65, 50.90, -41.24
0.09, -0.46, 0.87, 1.42, 50.78, -41.59
0.08, -0.46, 0.87, 1.18, 50.66, -40.71
0.09, -0.46, 0.86, 1.32, 50.27, -40.42
0.07, -0.46, 0.88, 0.90, 50.59, -40.69
0.09, -0.45, 0.86, 1.18, 50.63, -41.11
0.08, -0.46, 0.86, 0.52, 50.66, -41.72
0.08, -0.46, 0.87, 1.21, 50.33, -40.43
0.08, -0.46, 0.86, 0.94, 50.83, -40.81
0.08, -0.46, 0.87, 1.22, 51.29, -39.95
0.08, -0.45, 0.86, 1.03, 50.56, -40.73
0.09, -0.47, 0.88, 1.59, 50.92, -40.49
0.08, -0.47, 0.86, 0.61, 51.12, -40.09
0.08, -0.45, 0.88, 0.05, 51.34, -40.76
0.07, -0.46, 0.87, 0.28, 50.71, -41.47
0.06, -0.46, 0.86, 1.28, 51.07, -39.56
0.07, -0.46, 0.85, 1.14, 50.72, -40.34
0.08, -0.47, 0.86, 0.96, 50.60, -41.02
0.07, -0.46, 0.88, 1.29, 50.49, -40.38
0.08, -0.45, 0.87, 0.98, 50.38, -40.22
0.07, -0.47, 0.87, 1.00, 50.76, -40.41
0.08, -0.45, 0.86, 0.48, 51.20, -40.58
0.09, -0.46, 0.87, 1.50, 50.78, -40.55
0.08, -0.46, 0.86, 1.57, 50.60, -39.86
0.08, -0.46, 0.87, 0.99, 50.95, -40.50
0.09, -0.47, 0.86, 1.23, 50.56, -40.93
0.08, -0.47, 0.87, 1.43, 50.81, -40.75
0.09, -0.45, 0.86, 0.83, 50.26, -40.65
0.08, -0.46, 0.87, 1.54, 50.50, -40.53
0.07, -0.46, 0.86, 1.73, 50.65, -39.98
0.09, -0.47, 0.87, 1.14, 50.46, -40.38
0.09, -0.47, 0.86, 1.35, 51.11, -40.67
0.08, -0.46, 0.88, 0.98, 50.39, -40.59
0.08, -0.46, 0.86, 1.03, 50.98, -39.93
0.08, -0.46, 0.86, 1.01, 50.65, -40.31
0.09, -0.47, 0.87, 1.50, 50.71, -40.06
0.09, -0.47, 0.86, 1.15, 50.92, -40.56
0.08, -0.46, 0.87, 1.18, 50.60, -40.54
0.09, -0.46, 0.86, 0.82, 51.04, -41.72
0.11, -0.45, 0.79, 1.37, 50.95, -40.21
0.08, -0.46, 0.84, 1.22, 51.12, -41.39
0.08, -0.47, 0.86, 1.44, 51.10, -39.98
0.08, -0.47, 0.86, 1.37, 51.01, -41.13
0.09, -0.46, 0.86, 0.77, 50.84, -40.14
0.08, -0.47, 0.86, 1.55, 50.95, -40.17
0.08, -0.46, 0.87, 1.42, 50.84, -40.45
0.09, -0.47, 0.86, 1.72, 51.06, -40.64
0.09, -0.47, 0.86, 1.90, 51.03, -40.16
0.09, -0.46, 0.86, 1.20, 51.06, -40.19
0.08, -0.48, 0.91, 1.70, 50.83, -40.43
0.09, -0.46, 0.86, 1.49, 50.89, -41.44
0.10, -0.46, 0.87, 0.95, 51.20, -40.38
0.08, -0.47, 0.86, 1.44, 50.61, -40.70
0.09, -0.46, 0.86, 1.32, 50.85, -40.80
0.09, -0.46, 0.87, 1.05, 51.17, -40.99
0.08, -0.47, 0.85, 1.28, 51.23, -40.92
0.09, -0.46, 0.87, 1.39, 50.96, -40.76
0.09, -0.46, 0.86, 1.64, 50.90, -39.95
0.08, -0.46, 0.86, 2.31, 50.89, -40.14
0.09, -0.47, 0.87, 1.67, 51.23, -40.91
0.09, -0.46, 0.88, 1.33, 50.77, -40.55
0.09, -0.46, 0.86, 1.76, 51.06, -41.38
0.08, -0.47, 0.86, 1.82, 51.03, -39.83
0.09, -0.46, 0.87, 1.05, 50.78, -40.87
0.09, -0.47, 0.89, 1.55, 50.93, -39.44
0.08, -0.46, 0.86, 1.48, 50.79, -40.61
0.09, -0.47, 0.86, 1.32, 51.33, -40.99
