x_acc, y_acc, z_acc, x_mag, y_mag, z_mag 
0.15, -0.02, 0.96, 4.14, 34.52, -49.89
0.15, -0.02, 0.97, 3.55, 33.94, -48.85
0.16, -0.01, 0.98, 3.96, 33.90, -49.95
0.15, -0.03, 0.96, 3.74, 33.96, -48.41
0.14, -0.02, 0.98, 3.91, 34.00, -48.75
0.17, -0.01, 0.98, 4.25, 33.97, -48.55
0.16, -0.02, 0.96, 3.99, 34.02, -48.93
0.14, -0.02, 0.98, 3.69, 33.76, -48.54
0.16, -0.02, 0.96, 3.89, 34.39, -49.04
0.16, -0.01, 0.99, 3.96, 34.36, -49.58
0.14, -0.03, 0.96, 3.87, 34.03, -49.56
0.16, -0.02, 0.97, 3.80, 34.01, -49.06
0.15, -0.02, 0.97, 3.56, 34.16, -49.76
0.16, -0.02, 0.97, 3.92, 34.39, -48.82
0.16, -0.01, 0.98, 4.19, 33.91, -49.21
0.15, -0.03, 0.96, 4.04, 33.45, -49.91
0.15, -0.02, 0.98, 4.00, 34.05, -48.03
0.15, -0.02, 0.97, 3.71, 34.28, -49.27
0.15, -0.03, 0.96, 3.83, 34.30, -49.07
0.15, -0.01, 0.97, 3.66, 34.06, -48.97
0.15, -0.02, 0.97, 4.05, 34.22, -48.61
0.17, -0.01, 0.97, 4.05, 34.12, -49.22
0.13, -0.03, 0.95, 3.89, 34.00, -49.30
0.16, -0.00, 1.00, 4.28, 33.84, -48.55
0.16, -0.02, 0.96, 3.86, 33.98, -49.33
0.15, -0.02, 0.98, 3.80, 33.75, -48.25
0.14, -0.02, 0.96, 3.93, 33.67, -48.85
0.16, -0.02, 0.97, 3.67, 33.83, -48.43
0.15, -0.02, 0.96, 4.04, 33.90, -48.46
0.16, -0.01, 0.98, 3.86, 33.63, -50.04
0.15, -0.03, 0.97, 3.80, 33.94, -49.44
0.15, -0.01, 0.98, 4.38, 33.29, -49.11
0.15, -0.03, 0.95, 3.96, 33.90, -49.11
0.16, -0.01, 0.98, 3.41, 34.24, -49.43
0.15, -0.02, 0.96, 3.93, 33.63, -49.58
0.16, -0.01, 0.98, 3.76, 33.72, -48.99
0.15, -0.03, 0.96, 4.26, 33.98, -49.38
0.16, -0.01, 0.99, 3.92, 33.84, -49.61
0.15, -0.03, 0.95, 4.08, 34.42, -49.54
0.15, -0.01, 0.99, 3.81, 33.91, -49.95
0.15, -0.03, 0.96, 3.66, 34.31, -49.35
0.15, -0.01, 0.99, 3.64, 33.96, -49.10
0.17, -0.02, 0.96, 3.86, 33.78, -49.54
0.15, -0.02, 0.98, 4.31, 34.44, -49.57
0.16, -0.02, 0.97, 4.19, 33.50, -49.68
0.15, -0.02, 0.97, 3.70, 33.91, -49.12
0.17, -0.00, 0.98, 4.16, 34.36, -49.55
0.15, -0.04, 0.95, 3.82, 34.06, -48.33
0.16, -0.01, 0.99, 4.28, 34.31, -47.71
0.16, -0.02, 0.95, 4.24, 34.06, -50.16
0.16, -0.01, 0.99, 4.30, 34.05, -48.96
0.15, -0.03, 0.95, 4.77, 34.05, -49.13
0.17, -0.00, 0.99, 4.11, 34.08, -49.45
0.17, -0.02, 0.95, 4.31, 34.30, -49.23
0.15, -0.02, 0.98, 4.68, 34.38, -49.08
0.16, -0.02, 0.96, 4.33, 34.38, -48.50
0.16, -0.01, 0.98, 4.97, 34.01, -49.08
0.16, -0.02, 0.96, 4.10, 34.18, -49.65
0.15, -0.02, 0.97, 4.33, 34.17, -48.00
0.19, 0.00, 0.98, 4.74, 34.17, -47.97
0.15, -0.03, 0.95, 4.86, 34.29, -49.28
0.14, 0.01, 0.97, 4.15, 33.81, -49.23
0.17, -0.03, 0.94, 4.20, 33.90, -49.54
0.15, -0.02, 0.96, 4.53, 33.42, -49.11
0.19, 0.01, 0.99, 4.85, 33.84, -49.33
0.17, -0.02, 0.95, 5.08, 33.62, -50.56
0.16, -0.01, 0.98, 4.69, 33.35, -49.83
0.17, -0.01, 0.96, 4.47, 33.50, -49.41
0.17, -0.01, 0.97, 3.97, 33.48, -49.55
0.16, -0.02, 0.96, 4.53, 33.81, -49.29
0.17, -0.01, 0.97, 4.63, 33.52, -49.60
0.17, -0.01, 0.97, 4.68, 33.67, -49.37
0.16, -0.01, 0.97, 4.46, 33.92, -49.46
0.17, -0.01, 0.98, 4.66, 33.75, -49.60
0.17, -0.01, 0.97, 4.39, 33.35, -49.24
0.16, -0.02, 0.97, 4.90, 33.25, -49.57
0.17, -0.01, 0.98, 4.47, 33.68, -49.34
0.17, -0.02, 0.96, 4.79, 34.16, -50.65
0.17, -0.01, 0.97, 5.30, 33.72, -49.84
0.17, -0.01, 0.97, 4.65, 33.26, -48.71
0.17, -0.02, 0.96, 4.48, 33.56, -49.66
0.17, -0.02, 0.97, 4.77, 34.12, -49.93
0.18, -0.01, 0.97, 4.68, 33.83, -49.72
0.17, -0.02, 0.97, 5.20, 33.36, -49.46
0.17, -0.01, 0.97, 4.41, 33.45, -50.07
0.17, -0.01, 0.97, 4.70, 33.83, -48.29
0.17, -0.02, 0.96, 4.50, 33.94, -49.18
0.17, -0.01, 0.98, 4.90, 34.13, -50.40
0.18, -0.01, 0.96, 5.02, 33.85, -49.08
0.16, -0.02, 0.97, 5.24, 33.57, -49.27
0.17, -0.01, 0.97, 4.91, 33.94, -48.94
0.16, -0.03, 0.96, 5.35, 33.91, -49.98
0.17, -0.01, 0.98, 5.54, 33.64, -49.43
0.18, -0.01, 0.97, 4.98, 33.63, -49.72
0.17, -0.01, 0.97, 4.94, 33.51, -48.94
0.16, -0.03, 0.96, 5.21, 33.83, -49.34
0.17, -0.01, 0.98, 4.93, 33.40, -50.63
0.17, -0.02, 0.96, 5.03, 33.45, -49.98
0.18, -0.01, 0.98, 5.08, 33.50, -50.17
0.16, -0.02, 0.96, 5.05, 33.56, -50.42
0.17, -0.01, 0.98, 4.68, 33.39, -49.01
0.18, -0.02, 0.96, 4.76, 33.69, -49.34
0.15, -0.04, 0.96, 5.20, 34.00, -49.43
0.18, -0.00, 0.99, 5.03, 34.25, -49.68
0.18, -0.01, 0.96, 4.79, 34.08, -50.43
0.18, -0.01, 0.97, 4.74, 33.84, -49.15
0.16, -0.02, 0.96, 4.91, 33.56, -50.29
0.17, -0.01, 0.98, 4.96, 33.69, -50.61
0.17, -0.03, 0.95, 4.70, 33.45, -49.65
0.17, -0.01, 0.98, 4.48, 33.94, -49.54
0.17, -0.03, 0.96, 5.13, 32.93, -50.50
0.18, -0.01, 0.97, 5.47, 33.39, -49.21
0.17, -0.01, 0.97, 4.90, 33.13, -49.40
0.17, -0.02, 0.97, 5.36, 33.18, -48.77
0.18, -0.01, 0.97, 4.90, 33.28, -49.17
0.17, -0.03, 0.96, 5.14, 33.89, -49.57
0.18, -0.00, 0.98, 5.07, 33.57, -50.24
0.17, -0.03, 0.95, 5.24, 33.80, -49.63
0.18, -0.01, 0.97, 5.36, 33.69, -49.45
0.17, -0.02, 0.96, 4.77, 33.54, -48.88
0.18, -0.02, 0.97, 5.32, 33.89, -49.28
0.19, -0.00, 0.97, 5.30, 33.76, -50.04
0.18, -0.00, 0.99, 5.76, 33.48, -49.56
0.17, -0.03, 0.97, 5.54, 33.92, -48.54
0.17, -0.02, 0.97, 5.08, 33.76, -49.34
0.18, -0.01, 0.97, 5.27, 33.18, -49.45
0.17, -0.02, 0.96, 5.27, 33.40, -49.33
0.18, -0.01, 0.97, 5.30, 33.35, -49.56
0.19, -0.01, 0.97, 5.03, 32.63, -49.07
0.18, -0.01, 0.96, 4.90, 33.14, -49.17
0.19, -0.01, 0.98, 5.08, 33.52, -48.90
0.16, -0.04, 0.94, 5.15, 33.24, -50.38
0.18, -0.01, 0.98, 4.94, 33.59, -48.54
0.19, -0.01, 0.96, 5.49, 33.69, -49.54
0.18, -0.02, 0.97, 5.10, 32.95, -50.28
0.17, -0.02, 0.96, 5.24, 33.47, -49.40
0.19, -0.01, 0.97, 5.51, 33.79, -49.50
0.19, -0.01, 0.98, 5.33, 33.67, -49.93
0.17, -0.02, 0.96, 5.13, 33.19, -49.38
0.19, -0.00, 0.99, 5.16, 33.86, -49.65
0.18, -0.03, 0.95, 5.19, 33.83, -50.29
0.17, -0.01, 0.98, 6.03, 33.90, -49.93
0.18, -0.02, 0.95, 5.26, 33.57, -49.68
0.17, -0.02, 0.97, 5.85, 33.36, -49.73
0.17, -0.01, 0.96, 5.44, 33.20, -50.17
0.18, -0.02, 0.96, 5.48, 33.75, -49.78
0.19, -0.00, 0.98, 6.01, 33.29, -49.50
0.17, -0.02, 0.95, 5.18, 33.79, -49.99
0.19, -0.01, 0.97, 4.91, 33.94, -49.93
0.18, -0.01, 0.96, 5.37, 33.73, -49.63
0.17, -0.01, 0.97, 4.99, 33.28, -49.91
0.18, -0.01, 0.97, 5.07, 33.28, -49.15
0.17, -0.02, 0.96, 5.35, 33.79, -49.77
0.17, -0.01, 0.98, 5.32, 33.51, -49.11
0.17, -0.02, 0.96, 5.21, 33.94, -48.69
0.18, -0.02, 0.97, 5.14, 33.62, -49.43
0.17, -0.02, 0.97, 5.47, 33.57, -50.62
0.18, -0.02, 0.97, 5.05, 33.45, -49.16
0.18, -0.02, 0.96, 5.14, 33.36, -49.63
0.16, -0.02, 0.98, 4.96, 33.41, -50.13
0.19, -0.02, 0.95, 5.96, 34.48, -49.66
0.17, -0.01, 0.98, 5.00, 33.41, -50.15
0.16, -0.03, 0.96, 5.33, 33.65, -50.07
0.18, -0.01, 0.97, 5.40, 33.73, -49.71
0.18, -0.02, 0.96, 5.07, 33.37, -50.66
0.19, -0.02, 0.96, 5.35, 33.57, -49.51
0.19, -0.00, 0.98, 5.68, 33.45, -49.38
0.17, -0.03, 0.95, 5.35, 33.86, -49.88
0.16, -0.02, 0.97, 5.68, 33.75, -49.18
0.18, -0.01, 0.96, 5.36, 33.59, -49.34
0.17, -0.01, 0.97, 4.82, 33.65, -49.29
0.16, -0.03, 0.96, 4.77, 33.04, -48.90
0.18, -0.00, 0.98, 5.11, 33.58, -49.96
0.17, -0.02, 0.95, 4.60, 33.84, -49.39
0.18, -0.01, 0.98, 4.76, 33.25, -49.19
0.16, -0.02, 0.95, 5.54, 33.23, -49.35
0.17, -0.01, 0.97, 5.27, 33.47, -50.24
0.18, -0.02, 0.97, 4.94, 33.37, -49.87
0.17, -0.01, 0.97, 5.22, 33.26, -49.48
0.18, -0.01, 0.97, 5.05, 32.82, -49.23
0.18, -0.02, 0.96, 5.19, 33.28, -49.39
0.17, -0.01, 0.97, 4.91, 33.40, -49.74
0.17, -0.02, 0.96, 5.13, 33.76, -49.90
0.18, -0.02, 0.97, 4.98, 33.67, -49.33
0.18, -0.01, 0.97, 5.11, 33.53, -49.83
0.17, -0.02, 0.96, 5.80, 33.76, -49.50
0.18, -0.01, 0.98, 5.51, 33.42, -48.82
0.18, -0.02, 0.95, 5.29, 33.11, -49.62
0.17, -0.01, 0.97, 5.05, 33.25, -49.29
0.17, -0.02, 0.97, 5.57, 33.65, -49.72
0.18, -0.01, 0.97, 5.32, 33.54, -49.68
0.18, -0.02, 0.97, 5.29, 34.08, -48.80
0.17, -0.02, 0.96, 5.37, 34.01, -50.05
0.18, -0.01, 0.98, 4.98, 33.96, -49.60
0.17, -0.02, 0.96, 5.20, 34.14, -49.45
0.18, -0.02, 0.97, 4.33, 33.96, -49.28
0.17, -0.02, 0.97, 5.09, 33.69, -49.50
0.18, -0.02, 0.97, 4.81, 33.78, -50.26
0.18, -0.02, 0.97, 4.59, 33.91, -50.23
0.18, -0.01, 0.97, 5.47, 33.87, -50.88
