x_acc, y_acc, z_acc, x_mag, y_mag, z_mag 
-0.62, -0.43, 0.53, -15.89, 53.09, -19.24
-0.73, -0.44, 0.51, -14.93, 52.75, -19.92
-0.75, -0.43, 0.53, -15.89, 52.55, -20.65
-0.66, -0.38, 0.64, -16.05, 52.56, -20.50
-0.68, -0.43, 0.55, -15.63, 52.94, -20.81
-0.70, -0.43, 0.56, -15.30, 52.99, -20.58
-0.76, -0.43, 0.55, -15.86, 52.77, -19.10
-0.74, -0.44, 0.49, -16.17, 52.14, -19.15
-0.71, -0.42, 0.57, -15.43, 52.58, -19.07
-0.73, -0.44, 0.55, -15.41, 52.78, -19.86
-0.68, -0.42, 0.56, -15.55, 52.60, -20.31
-0.68, -0.42, 0.57, -15.36, 52.36, -20.39
-0.69, -0.43, 0.58, -15.28, 53.32, -20.54
-0.68, -0.44, 0.54, -14.67, 52.82, -19.97
-0.68, -0.45, 0.55, -15.19, 52.95, -20.84
-0.67, -0.45, 0.55, -14.56, 53.41, -20.62
-0.69, -0.45, 0.56, -14.94, 53.20, -20.39
-0.68, -0.44, 0.55, -15.34, 52.70, -20.09
-0.68, -0.44, 0.57, -14.75, 52.56, -19.84
-0.68, -0.44, 0.57, -14.54, 52.82, -20.97
-0.70, -0.44, 0.56, -14.60, 52.26, -20.41
-0.67, -0.45, 0.54, -15.17, 53.14, -20.30
-0.69, -0.43, 0.55, -14.50, 52.94, -21.11
-0.70, -0.44, 0.56, -14.90, 52.60, -20.80
-0.69, -0.42, 0.58, -14.44, 52.49, -21.15
-0.67, -0.43, 0.58, -14.87, 52.65, -20.89
-0.68, -0.43, 0.56, -14.94, 52.92, -20.54
-0.69, -0.44, 0.55, -14.78, 52.92, -20.80
-0.66, -0.43, 0.57, -14.58, 51.87, -20.07
-0.71, -0.44, 0.56, -14.70, 52.80, -20.41
-0.68, -0.42, 0.57, -14.77, 52.72, -20.75
-0.67, -0.44, 0.56, -14.99, 52.92, -21.11
-0.67, -0.43, 0.58, -14.51, 52.50, -21.03
-0.69, -0.44, 0.57, -15.08, 52.47, -20.90
-0.68, -0.42, 0.58, -14.55, 52.17, -21.14
-0.68, -0.44, 0.56, -14.61, 52.99, -20.92
-0.68, -0.43, 0.59, -14.81, 52.21, -21.17
-0.68, -0.43, 0.57, -14.66, 52.38, -21.51
-0.68, -0.43, 0.58, -14.78, 52.62, -20.81
-0.68, -0.44, 0.58, -14.49, 52.50, -20.92
-0.68, -0.44, 0.57, -14.84, 52.58, -19.62
-0.67, -0.43, 0.57, -14.42, 52.61, -21.07
-0.68, -0.43, 0.57, -15.26, 52.99, -20.76
-0.69, -0.44, 0.58, -14.76, 52.64, -21.25
-0.67, -0.43, 0.57, -14.78, 52.25, -20.26
-0.67, -0.43, 0.57, -14.48, 52.93, -21.31
-0.68, -0.44, 0.57, -14.45, 52.32, -20.79
-0.67, -0.43, 0.58, -14.34, 52.25, -21.01
-0.68, -0.44, 0.58, -15.11, 52.76, -20.31
-0.68, -0.43, 0.59, -14.75, 52.48, -21.50
-0.68, -0.43, 0.58, -14.94, 52.58, -21.70
-0.67, -0.43, 0.58, -14.36, 52.94, -21.37
-0.67, -0.44, 0.57, -14.86, 53.21, -21.42
-0.67, -0.42, 0.59, -14.65, 52.73, -21.04
-0.67, -0.43, 0.58, -14.43, 52.66, -22.19
-0.67, -0.44, 0.59, -14.76, 52.48, -21.53
-0.66, -0.44, 0.58, -14.51, 52.31, -22.06
-0.67, -0.42, 0.59, -14.40, 52.39, -20.91
-0.67, -0.43, 0.60, -14.76, 52.65, -20.48
-0.65, -0.44, 0.57, -14.55, 52.05, -21.23
-0.67, -0.43, 0.59, -14.86, 52.69, -21.56
-0.67, -0.43, 0.59, -14.67, 52.33, -21.64
-0.66, -0.42, 0.60, -14.59, 52.84, -21.15
-0.67, -0.43, 0.59, -14.37, 52.53, -22.24
-0.66, -0.43, 0.60, -14.40, 52.05, -22.09
-0.66, -0.43, 0.59, -14.64, 52.43, -21.56
-0.68, -0.44, 0.60, -14.78, 52.37, -22.55
-0.66, -0.43, 0.59, -14.83, 52.33, -21.72
-0.67, -0.43, 0.59, -14.55, 51.92, -22.16
-0.67, -0.43, 0.59, -14.50, 52.10, -21.06
-0.66, -0.43, 0.59, -14.18, 51.67, -21.81
-0.66, -0.43, 0.59, -14.43, 52.44, -21.47
-0.66, -0.42, 0.60, -14.47, 52.66, -22.81
-0.66, -0.43, 0.59, -14.07, 52.23, -21.57
-0.65, -0.44, 0.59, -14.10, 52.53, -22.63
-0.67, -0.43, 0.59, -14.51, 52.19, -22.57
-0.67, -0.43, 0.61, -14.51, 52.03, -21.36
-0.65, -0.43, 0.60, -14.77, 52.45, -21.19
-0.66, -0.43, 0.59, -14.51, 52.59, -20.96
-0.66, -0.43, 0.60, -15.01, 52.15, -21.97
-0.66, -0.43, 0.60, -15.11, 52.60, -21.29
-0.66, -0.42, 0.59, -14.75, 52.25, -21.96
-0.65, -0.43, 0.60, -14.26, 52.37, -22.02
-0.67, -0.43, 0.59, -14.69, 52.11, -22.78
-0.66, -0.43, 0.60, -14.78, 52.15, -22.17
-0.66, -0.42, 0.60, -14.87, 51.95, -22.57
-0.66, -0.42, 0.60, -14.70, 51.81, -22.25
-0.66, -0.42, 0.60, -14.70, 52.61, -22.57
-0.65, -0.43, 0.60, -14.62, 52.28, -21.72
-0.67, -0.44, 0.60, -14.17, 52.66, -22.60
-0.66, -0.43, 0.60, -14.43, 51.99, -22.58
-0.65, -0.42, 0.60, -14.44, 52.12, -22.44
-0.66, -0.42, 0.60, -14.77, 52.08, -21.68
-0.66, -0.43, 0.61, -14.84, 52.15, -22.55
-0.65, -0.42, 0.60, -14.33, 52.48, -22.08
-0.66, -0.42, 0.61, -14.10, 51.93, -21.17
-0.65, -0.42, 0.61, -14.50, 52.21, -21.98
-0.66, -0.43, 0.60, -14.22, 52.33, -21.70
-0.66, -0.42, 0.60, -14.43, 52.05, -21.79
-0.66, -0.43, 0.60, -14.56, 52.22, -21.80
-0.65, -0.42, 0.60, -14.36, 52.42, -22.17
-0.65, -0.43, 0.60, -14.28, 52.59, -22.66
-0.66, -0.42, 0.61, -14.16, 52.27, -21.96
-0.65, -0.43, 0.60, -14.37, 52.69, -22.69
-0.66, -0.42, 0.60, -13.85, 52.11, -22.89
-0.65, -0.42, 0.61, -13.93, 52.65, -22.45
-0.65, -0.42, 0.61, -14.38, 52.49, -23.22
-0.66, -0.43, 0.60, -14.12, 52.10, -23.05
-0.65, -0.42, 0.61, -14.27, 52.97, -23.02
-0.64, -0.43, 0.60, -13.82, 52.19, -22.52
-0.66, -0.43, 0.62, -13.87, 52.28, -22.86
-0.65, -0.42, 0.61, -14.07, 52.89, -23.36
-0.66, -0.42, 0.61, -13.94, 52.20, -22.75
-0.65, -0.42, 0.62, -14.18, 51.92, -22.62
-0.64, -0.42, 0.61, -14.48, 51.89, -22.99
-0.65, -0.42, 0.62, -14.36, 51.46, -22.88
-0.65, -0.42, 0.61, -14.05, 51.54, -23.10
-0.64, -0.42, 0.61, -14.01, 51.87, -22.84
-0.66, -0.41, 0.62, -14.18, 52.38, -23.95
-0.65, -0.42, 0.62, -13.98, 51.89, -22.83
-0.64, -0.41, 0.62, -14.29, 52.50, -23.61
-0.66, -0.42, 0.62, -13.65, 52.64, -23.38
-0.64, -0.41, 0.63, -14.05, 52.38, -22.40
-0.65, -0.42, 0.63, -14.14, 52.05, -23.38
-0.65, -0.41, 0.62, -14.28, 52.08, -24.11
-0.64, -0.41, 0.63, -13.87, 52.09, -23.62
-0.65, -0.41, 0.63, -14.50, 52.36, -23.16
-0.65, -0.41, 0.63, -14.15, 52.36, -23.78
-0.65, -0.42, 0.62, -14.11, 51.94, -23.46
-0.63, -0.42, 0.62, -14.27, 51.86, -24.52
-0.65, -0.41, 0.62, -14.20, 52.29, -23.05
-0.63, -0.40, 0.63, -14.11, 51.83, -23.13
-0.67, -0.42, 0.63, -14.50, 51.72, -22.75
-0.65, -0.41, 0.63, -14.31, 51.61, -23.89
-0.63, -0.40, 0.64, -14.48, 51.79, -22.84
-0.63, -0.40, 0.64, -14.32, 52.03, -23.60
-0.64, -0.41, 0.63, -14.55, 51.60, -24.05
-0.64, -0.41, 0.63, -14.44, 52.12, -23.41
-0.64, -0.41, 0.64, -14.09, 51.98, -23.50
-0.64, -0.41, 0.63, -14.33, 51.95, -23.39
-0.64, -0.40, 0.64, -14.65, 52.38, -23.88
-0.64, -0.40, 0.63, -14.93, 52.25, -23.46
-0.65, -0.40, 0.63, -14.94, 52.37, -23.25
-0.65, -0.41, 0.63, -14.51, 52.12, -23.85
-0.64, -0.40, 0.63, -14.70, 52.00, -23.99
-0.64, -0.40, 0.64, -14.31, 51.79, -22.57
-0.64, -0.40, 0.64, -14.54, 51.48, -23.43
-0.64, -0.40, 0.63, -14.69, 51.37, -22.88
-0.64, -0.41, 0.64, -14.20, 52.16, -24.13
-0.64, -0.42, 0.63, -14.07, 52.31, -24.33
-0.63, -0.41, 0.63, -14.09, 52.15, -24.60
-0.64, -0.41, 0.64, -14.11, 52.50, -23.75
-0.65, -0.40, 0.64, -14.39, 52.21, -24.24
-0.64, -0.40, 0.65, -14.55, 51.90, -24.10
-0.64, -0.41, 0.63, -13.93, 52.01, -24.06
-0.63, -0.41, 0.64, -14.92, 52.62, -23.21
-0.63, -0.40, 0.63, -14.10, 51.77, -23.43
-0.65, -0.41, 0.64, -13.90, 52.84, -23.50
-0.63, -0.40, 0.64, -14.21, 52.28, -24.30
-0.65, -0.40, 0.65, -14.15, 51.88, -25.00
-0.64, -0.41, 0.66, -14.37, 52.17, -24.63
-0.63, -0.40, 0.64, -14.04, 52.16, -24.58
-0.64, -0.40, 0.64, -14.07, 52.08, -23.60
-0.63, -0.40, 0.64, -14.10, 52.70, -25.06
-0.63, -0.41, 0.63, -14.55, 52.43, -24.44
-0.65, -0.40, 0.65, -14.22, 51.92, -23.75
-0.61, -0.40, 0.64, -13.90, 52.06, -23.89
-0.63, -0.41, 0.66, -14.14, 51.77, -24.11
-0.64, -0.40, 0.64, -14.23, 51.82, -24.54
-0.63, -0.40, 0.65, -14.27, 51.79, -23.21
-0.64, -0.41, 0.64, -14.10, 52.53, -23.13
-0.64, -0.39, 0.65, -14.31, 52.11, -23.79
-0.63, -0.40, 0.64, -14.39, 51.99, -24.18
-0.64, -0.40, 0.65, -14.59, 52.00, -23.61
-0.63, -0.40, 0.65, -14.38, 51.99, -23.60
-0.63, -0.40, 0.64, -14.28, 52.81, -22.90
-0.63, -0.40, 0.63, -14.36, 52.15, -24.45
-0.63, -0.40, 0.64, -14.44, 52.76, -23.62
-0.64, -0.40, 0.65, -14.40, 52.50, -24.66
-0.62, -0.40, 0.65, -14.21, 52.36, -23.96
-0.63, -0.39, 0.65, -14.05, 52.16, -24.24
-0.63, -0.40, 0.64, -14.05, 51.87, -24.61
-0.63, -0.40, 0.65, -14.14, 51.76, -23.89
-0.63, -0.39, 0.67, -14.43, 51.57, -24.56
-0.62, -0.37, 0.66, -14.39, 51.59, -24.76
-0.63, -0.39, 0.65, -14.22, 51.93, -25.42
-0.63, -0.40, 0.64, -14.49, 51.27, -25.29
-0.62, -0.38, 0.65, -13.67, 51.50, -25.02
-0.63, -0.38, 0.67, -14.05, 51.39, -24.15
-0.64, -0.39, 0.67, -14.10, 51.50, -25.24
-0.62, -0.39, 0.65, -14.49, 51.76, -24.68
-0.63, -0.39, 0.67, -14.38, 51.32, -25.01
-0.63, -0.38, 0.65, -14.17, 51.61, -24.62
-0.63, -0.38, 0.67, -14.86, 51.31, -25.09
-0.62, -0.39, 0.66, -14.67, 51.75, -24.22
-0.63, -0.38, 0.66, -13.88, 51.57, -24.16
-0.63, -0.39, 0.66, -14.17, 51.56, -24.57
-0.63, -0.38, 0.66, -14.25, 51.39, -23.99
-0.63, -0.38, 0.65, -14.14, 51.72, -24.77
-0.63, -0.38, 0.65, -15.14, 51.05, -24.37
