x_acc, y_acc, z_acc, x_mag, y_mag, z_mag 
0.22, -0.54, 0.80, 6.47, 48.79, -36.57
0.30, -0.54, 0.77, 7.18, 48.73, -37.41
0.29, -0.56, 0.77, 7.47, 48.78, -37.16
0.27, -0.59, 0.69, 7.51, 48.93, -38.37
0.26, -0.59, 0.73, 6.65, 48.69, -37.76
0.29, -0.55, 0.72, 7.24, 48.97, -37.28
0.26, -0.59, 0.72, 6.98, 49.30, -36.88
0.25, -0.58, 0.73, 6.85, 49.02, -37.48
0.27, -0.60, 0.74, 6.93, 48.90, -37.60
0.27, -0.56, 0.75, 6.76, 48.93, -37.88
0.25, -0.58, 0.78, 6.93, 48.89, -36.44
0.25, -0.57, 0.76, 6.70, 48.96, -37.33
0.25, -0.59, 0.75, 6.79, 48.79, -37.08
0.25, -0.56, 0.75, 7.06, 49.10, -37.04
0.27, -0.57, 0.75, 6.92, 48.99, -36.99
0.26, -0.52, 0.76, 7.32, 48.80, -37.41
0.28, -0.55, 0.76, 7.35, 48.55, -37.56
0.29, -0.54, 0.75, 7.24, 48.47, -37.93
0.28, -0.53, 0.77, 7.34, 48.82, -36.90
0.28, -0.55, 0.76, 7.70, 48.91, -37.57
0.27, -0.56, 0.76, 7.25, 48.00, -38.02
0.25, -0.56, 0.76, 6.91, 48.50, -37.65
0.26, -0.56, 0.77, 7.23, 48.44, -36.74
0.27, -0.55, 0.77, 7.01, 48.65, -37.24
0.26, -0.55, 0.77, 7.03, 48.23, -37.63
0.25, -0.55, 0.76, 7.20, 48.79, -36.94
0.27, -0.56, 0.77, 6.97, 48.50, -37.11
0.28, -0.54, 0.76, 7.54, 48.51, -37.49
0.27, -0.55, 0.77, 6.87, 49.01, -36.32
0.26, -0.54, 0.78, 7.01, 48.47, -36.46
0.26, -0.58, 0.76, 7.31, 48.57, -36.95
0.27, -0.55, 0.76, 7.60, 48.55, -35.97
0.27, -0.56, 0.76, 7.69, 48.33, -36.33
0.28, -0.55, 0.77, 7.78, 48.66, -36.44
0.28, -0.55, 0.77, 7.19, 48.63, -37.10
0.27, -0.55, 0.76, 7.64, 48.50, -36.68
0.28, -0.57, 0.76, 7.45, 48.38, -37.11
0.27, -0.55, 0.77, 7.26, 48.71, -37.28
0.27, -0.55, 0.77, 7.24, 48.45, -36.56
0.27, -0.55, 0.77, 7.20, 48.45, -36.91
0.27, -0.55, 0.77, 7.21, 48.08, -37.85
0.27, -0.55, 0.77, 8.11, 48.57, -37.10
0.27, -0.56, 0.77, 7.74, 47.79, -36.78
0.27, -0.55, 0.77, 8.13, 48.75, -36.71
0.28, -0.53, 0.78, 7.19, 48.27, -37.39
0.28, -0.56, 0.77, 7.65, 48.22, -37.02
0.28, -0.53, 0.77, 7.21, 47.66, -36.18
0.28, -0.55, 0.76, 7.80, 47.96, -36.65
0.28, -0.55, 0.77, 7.65, 47.60, -36.89
0.29, -0.53, 0.77, 7.17, 48.18, -37.29
0.27, -0.55, 0.77, 7.89, 48.03, -37.12
0.28, -0.54, 0.77, 7.89, 48.18, -37.35
0.28, -0.55, 0.77, 7.68, 47.99, -37.94
0.27, -0.56, 0.76, 7.34, 47.50, -37.59
0.28, -0.54, 0.77, 7.46, 47.67, -37.11
0.27, -0.55, 0.78, 7.52, 48.08, -38.56
0.29, -0.54, 0.77, 7.70, 48.12, -36.87
0.28, -0.55, 0.77, 7.09, 47.97, -37.50
0.29, -0.54, 0.76, 7.50, 48.06, -37.60
0.27, -0.55, 0.78, 7.64, 47.80, -37.95
0.26, -0.55, 0.77, 7.67, 48.03, -37.59
0.25, -0.54, 0.78, 7.37, 48.30, -38.10
0.27, -0.55, 0.78, 7.81, 48.00, -38.16
0.28, -0.54, 0.77, 7.64, 47.74, -37.79
0.29, -0.54, 0.77, 8.08, 47.52, -37.87
0.30, -0.54, 0.77, 7.64, 47.84, -37.82
0.30, -0.55, 0.76, 7.97, 48.40, -37.55
0.28, -0.54, 0.77, 7.58, 47.97, -37.96
0.26, -0.55, 0.78, 7.57, 47.61, -38.09
0.28, -0.53, 0.78, 6.79, 48.41, -38.92
0.27, -0.56, 0.78, 6.98, 47.46, -37.94
0.29, -0.53, 0.77, 7.46, 48.17, -37.67
0.28, -0.52, 0.77, 7.42, 48.07, -37.49
0.26, -0.55, 0.78, 7.58, 47.78, -38.20
0.26, -0.54, 0.79, 7.12, 48.00, -37.43
0.27, -0.53, 0.78, 7.58, 47.90, -38.42
0.27, -0.54, 0.78, 7.69, 48.12, -37.34
0.29, -0.51, 0.78, 7.98, 47.41, -38.46
0.30, -0.54, 0.77, 8.34, 47.99, -37.35
0.28, -0.51, 0.77, 7.52, 48.41, -38.65
0.28, -0.52, 0.77, 7.64, 48.89, -38.99
0.27, -0.54, 0.77, 7.47, 48.10, -37.27
0.23, -0.54, 0.78, 7.54, 48.03, -37.76
0.27, -0.53, 0.78, 7.70, 48.05, -37.27
0.26, -0.54, 0.78, 7.64, 48.47, -37.96
0.28, -0.54, 0.77, 7.92, 48.23, -37.52
0.28, -0.55, 0.78, 7.87, 47.94, -37.65
0.29, -0.52, 0.77, 7.78, 48.00, -37.98
0.28, -0.54, 0.77, 8.15, 48.10, -38.51
0.28, -0.53, 0.78, 7.58, 47.62, -38.67
0.27, -0.55, 0.77, 7.92, 48.29, -37.40
0.28, -0.53, 0.78, 8.12, 47.96, -38.13
0.28, -0.54, 0.78, 8.24, 47.81, -37.40
0.30, -0.53, 0.77, 8.14, 47.69, -37.48
0.28, -0.51, 0.77, 8.09, 47.64, -38.45
0.28, -0.52, 0.76, 7.89, 48.03, -38.40
0.29, -0.51, 0.80, 8.45, 47.90, -37.45
0.29, -0.51, 0.78, 7.95, 47.55, -37.41
0.28, -0.51, 0.77, 8.00, 47.78, -38.72
0.28, -0.55, 0.77, 8.26, 47.99, -38.09
0.28, -0.53, 0.77, 8.12, 47.67, -38.96
0.28, -0.54, 0.79, 7.96, 47.84, -38.15
0.27, -0.52, 0.79, 8.15, 47.53, -38.35
0.28, -0.54, 0.78, 7.86, 47.44, -36.95
0.28, -0.54, 0.77, 7.74, 47.17, -38.02
0.29, -0.52, 0.78, 7.37, 47.81, -37.43
0.30, -0.51, 0.77, 7.58, 47.63, -38.89
0.29, -0.54, 0.78, 7.48, 47.71, -36.87
0.28, -0.53, 0.77, 8.00, 47.08, -38.20
0.28, -0.54, 0.78, 7.80, 47.39, -37.38
0.27, -0.53, 0.79, 8.22, 47.69, -38.18
0.28, -0.53, 0.78, 8.50, 47.90, -37.35
0.29, -0.53, 0.77, 7.96, 47.89, -37.66
0.29, -0.53, 0.78, 7.97, 47.28, -37.61
0.29, -0.53, 0.79, 7.96, 47.71, -37.83
0.28, -0.53, 0.78, 7.98, 46.90, -37.92
0.28, -0.53, 0.77, 7.75, 47.83, -37.45
0.29, -0.51, 0.79, 7.68, 47.47, -37.90
0.26, -0.53, 0.79, 7.70, 47.60, -38.50
0.26, -0.53, 0.78, 7.79, 47.64, -38.02
0.30, -0.52, 0.78, 7.97, 47.63, -38.12
0.29, -0.52, 0.77, 8.26, 47.45, -38.37
0.30, -0.52, 0.78, 7.71, 47.39, -37.98
0.29, -0.52, 0.79, 8.36, 47.29, -37.38
0.30, -0.52, 0.78, 8.01, 47.61, -38.04
0.28, -0.52, 0.78, 7.86, 48.01, -37.34
0.28, -0.53, 0.78, 8.30, 47.77, -37.33
0.28, -0.53, 0.78, 7.97, 47.74, -38.23
0.26, -0.53, 0.79, 8.26, 47.41, -37.54
0.30, -0.52, 0.78, 8.24, 47.71, -38.92
0.31, -0.52, 0.79, 8.22, 47.58, -38.24
0.30, -0.52, 0.78, 7.69, 47.61, -38.42
0.29, -0.54, 0.78, 8.30, 47.30, -38.38
0.27, -0.53, 0.77, 8.28, 48.10, -38.59
0.27, -0.51, 0.78, 8.04, 47.28, -37.93
0.27, -0.53, 0.78, 7.93, 47.38, -37.71
0.29, -0.52, 0.78, 8.28, 47.51, -38.22
0.30, -0.53, 0.78, 7.95, 46.96, -38.49
0.30, -0.53, 0.78, 7.51, 47.29, -37.79
0.29, -0.53, 0.76, 7.85, 47.52, -37.52
0.28, -0.54, 0.77, 7.57, 47.67, -37.39
0.27, -0.54, 0.77, 7.20, 47.38, -37.67
0.29, -0.51, 0.78, 7.48, 47.41, -37.51
0.29, -0.51, 0.80, 7.65, 47.78, -37.98
0.30, -0.53, 0.78, 7.80, 48.03, -38.33
0.29, -0.54, 0.76, 7.56, 47.81, -36.96
0.27, -0.55, 0.77, 7.90, 47.42, -37.95
0.26, -0.50, 0.79, 7.60, 46.95, -38.11
0.28, -0.52, 0.80, 7.70, 47.55, -38.18
0.28, -0.53, 0.77, 7.80, 47.57, -38.44
0.30, -0.51, 0.75, 7.95, 46.86, -38.37
0.30, -0.52, 0.78, 8.04, 47.61, -38.46
0.28, -0.51, 0.78, 7.32, 47.14, -38.48
0.29, -0.54, 0.78, 7.97, 47.17, -37.81
0.27, -0.54, 0.77, 7.73, 47.27, -36.60
0.29, -0.53, 0.78, 8.56, 47.41, -37.79
0.28, -0.53, 0.79, 7.69, 47.78, -37.63
0.29, -0.52, 0.79, 7.90, 47.34, -38.12
0.28, -0.53, 0.78, 7.68, 47.73, -37.56
0.29, -0.54, 0.77, 8.09, 47.39, -37.48
0.28, -0.55, 0.77, 7.69, 47.12, -37.67
0.29, -0.52, 0.79, 8.25, 47.31, -38.29
0.29, -0.53, 0.78, 7.86, 47.53, -37.90
0.27, -0.54, 0.78, 7.63, 47.64, -39.18
0.30, -0.52, 0.78, 7.58, 47.68, -38.10
0.27, -0.54, 0.79, 7.97, 47.41, -37.29
0.29, -0.52, 0.77, 7.92, 47.29, -37.68
0.29, -0.54, 0.77, 7.92, 47.27, -36.45
0.29, -0.52, 0.77, 8.23, 47.24, -37.67
0.28, -0.52, 0.79, 8.19, 47.39, -37.41
0.27, -0.54, 0.78, 8.31, 47.50, -37.04
0.29, -0.52, 0.77, 7.84, 47.47, -37.92
0.28, -0.53, 0.77, 8.01, 47.66, -37.72
0.29, -0.53, 0.78, 8.03, 47.20, -36.90
0.29, -0.52, 0.78, 8.01, 47.53, -37.67
0.29, -0.53, 0.78, 8.07, 47.19, -37.99
0.29, -0.52, 0.78, 8.39, 46.69, -37.77
0.28, -0.53, 0.78, 8.39, 47.06, -38.13
0.29, -0.49, 0.77, 7.90, 47.13, -38.39
0.27, -0.53, 0.78, 7.71, 47.52, -37.49
0.29, -0.53, 0.77, 7.82, 47.67, -37.78
0.28, -0.52, 0.78, 7.81, 47.44, -37.51
0.29, -0.53, 0.79, 8.06, 48.35, -37.74
0.28, -0.52, 0.79, 7.70, 47.81, -36.45
0.28, -0.52, 0.77, 7.42, 47.68, -37.27
0.28, -0.53, 0.78, 7.97, 47.83, -37.26
0.28, -0.52, 0.79, 7.79, 47.69, -36.60
0.29, -0.54, 0.78, 7.78, 47.40, -37.18
0.28, -0.52, 0.78, 7.76, 47.80, -37.65
0.29, -0.53, 0.78, 7.71, 47.79, -38.16
0.28, -0.53, 0.78, 8.07, 47.66, -37.08
0.29, -0.52, 0.78, 7.69, 47.55, -38.39
0.28, -0.52, 0.78, 7.96, 47.77, -38.78
0.29, -0.52, 0.78, 7.84, 47.31, -37.10
0.27, -0.54, 0.78, 7.58, 47.35, -38.27
0.27, -0.52, 0.79, 8.12, 47.63, -38.05
0.28, -0.53, 0.78, 7.71, 47.83, -37.12
0.27, -0.54, 0.78, 7.86, 47.44, -36.89
0.29, -0.54, 0.79, 8.29, 47.41, -37.11
0.28, -0.52, 0.78, 7.80, 47.57, -37.12
