x_acc, y_acc, z_acc, x_mag, y_mag, z_mag 
0.00, 0.52, 0.84, 8.36, 15.78, -52.56
0.01, 0.52, 0.83, 7.86, 14.93, -53.71
-0.00, 0.50, 0.84, 8.22, 15.65, -52.98
0.00, 0.53, 0.84, 8.56, 15.22, -52.91
0.01, 0.51, 0.83, 8.58, 15.20, -52.84
-0.00, 0.52, 0.84, 8.37, 15.17, -52.91
0.01, 0.52, 0.83, 8.37, 15.38, -53.39
0.00, 0.50, 0.83, 8.63, 14.82, -52.92
0.02, 0.53, 0.83, 8.41, 14.81, -52.87
-0.00, 0.51, 0.84, 8.31, 15.14, -52.65
-0.00, 0.51, 0.84, 8.52, 15.25, -52.67
0.01, 0.52, 0.83, 8.68, 14.89, -52.99
0.01, 0.52, 0.84, 8.52, 15.44, -52.87
0.00, 0.51, 0.84, 8.23, 14.98, -51.56
0.01, 0.52, 0.83, 8.56, 14.88, -52.67
-0.00, 0.53, 0.84, 8.73, 15.58, -52.00
0.00, 0.50, 0.83, 8.36, 15.22, -52.77
0.00, 0.53, 0.84, 8.20, 15.69, -52.78
0.01, 0.50, 0.82, 8.68, 14.99, -52.84
0.00, 0.52, 0.84, 8.63, 15.16, -51.66
0.01, 0.52, 0.83, 8.59, 15.34, -53.17
0.01, 0.52, 0.83, 8.18, 15.05, -52.69
0.00, 0.51, 0.83, 8.59, 14.77, -52.58
0.01, 0.53, 0.85, 8.61, 15.80, -52.62
0.02, 0.52, 0.83, 8.45, 15.33, -52.43
0.01, 0.52, 0.83, 9.02, 15.10, -52.70
0.00, 0.50, 0.84, 9.03, 15.26, -52.39
0.01, 0.52, 0.84, 9.13, 15.22, -53.19
0.01, 0.52, 0.83, 9.05, 15.16, -53.47
0.00, 0.53, 0.83, 8.89, 14.72, -52.49
0.00, 0.51, 0.83, 9.18, 15.16, -52.99
0.01, 0.51, 0.83, 9.47, 15.27, -52.81
0.01, 0.52, 0.82, 8.59, 14.86, -52.14
0.00, 0.52, 0.83, 8.96, 14.90, -52.72
0.01, 0.52, 0.83, 8.54, 15.41, -52.28
0.01, 0.52, 0.83, 9.08, 14.97, -51.38
0.00, 0.52, 0.84, 8.98, 15.15, -52.00
0.01, 0.52, 0.83, 8.91, 14.42, -52.97
-0.00, 0.52, 0.83, 8.78, 15.04, -52.10
0.00, 0.52, 0.82, 9.18, 14.73, -52.54
0.00, 0.53, 0.83, 8.31, 14.90, -53.25
0.00, 0.52, 0.83, 8.89, 14.84, -52.19
0.01, 0.53, 0.83, 8.61, 14.87, -51.94
0.00, 0.51, 0.83, 8.89, 14.97, -53.21
0.01, 0.52, 0.83, 8.72, 15.12, -52.39
0.01, 0.51, 0.83, 8.76, 14.51, -53.26
-0.00, 0.53, 0.83, 9.13, 14.75, -53.47
0.01, 0.52, 0.83, 8.68, 14.76, -53.03
0.01, 0.52, 0.83, 9.02, 14.45, -54.03
0.00, 0.53, 0.83, 9.25, 15.14, -52.71
0.01, 0.52, 0.83, 8.85, 14.71, -52.38
0.01, 0.52, 0.83, 9.20, 15.04, -51.73
0.01, 0.52, 0.82, 9.45, 14.65, -52.93
-0.00, 0.52, 0.84, 9.24, 15.48, -52.76
0.01, 0.50, 0.83, 9.50, 14.93, -51.56
0.02, 0.55, 0.84, 8.40, 14.67, -51.39
-0.00, 0.51, 0.83, 9.02, 15.16, -52.92
0.01, 0.52, 0.83, 8.98, 15.11, -53.22
0.01, 0.54, 0.84, 9.33, 15.47, -51.42
0.01, 0.51, 0.82, 8.51, 15.16, -52.47
-0.01, 0.52, 0.84, 9.23, 14.70, -52.86
0.01, 0.52, 0.83, 8.90, 14.81, -52.92
0.01, 0.52, 0.83, 9.07, 15.09, -53.11
0.00, 0.52, 0.83, 9.45, 15.64, -51.71
0.01, 0.52, 0.83, 8.68, 15.09, -52.97
0.01, 0.53, 0.84, 8.62, 15.08, -52.54
0.00, 0.50, 0.82, 9.00, 15.45, -52.94
-0.00, 0.53, 0.84, 9.11, 14.90, -52.31
0.00, 0.50, 0.82, 8.80, 15.11, -53.25
0.01, 0.53, 0.84, 8.84, 15.11, -51.62
0.00, 0.52, 0.82, 8.98, 14.70, -53.20
-0.00, 0.52, 0.83, 9.13, 14.99, -53.00
0.01, 0.53, 0.83, 9.19, 14.56, -52.72
0.01, 0.51, 0.83, 8.86, 14.66, -52.99
0.01, 0.53, 0.83, 9.38, 14.20, -51.92
0.00, 0.52, 0.83, 8.63, 14.34, -52.47
0.01, 0.52, 0.83, 8.89, 14.38, -52.31
0.01, 0.52, 0.83, 8.94, 14.81, -53.00
0.01, 0.52, 0.83, 9.27, 15.03, -52.93
0.01, 0.51, 0.83, 9.18, 14.60, -53.25
0.01, 0.52, 0.83, 8.91, 14.87, -53.14
0.01, 0.52, 0.82, 8.84, 14.58, -52.33
0.01, 0.53, 0.83, 9.03, 14.84, -52.95
0.01, 0.53, 0.83, 9.06, 14.79, -53.31
0.00, 0.51, 0.84, 8.69, 14.51, -51.66
0.02, 0.52, 0.83, 8.85, 14.65, -52.62
0.00, 0.51, 0.83, 9.18, 14.95, -52.72
-0.02, 0.53, 0.84, 8.91, 14.98, -52.27
0.02, 0.50, 0.82, 8.37, 15.37, -52.56
0.01, 0.53, 0.84, 8.85, 14.60, -53.16
0.02, 0.52, 0.82, 8.94, 14.78, -52.67
0.01, 0.51, 0.84, 9.20, 15.14, -53.72
0.00, 0.52, 0.84, 8.92, 14.51, -52.78
0.01, 0.52, 0.83, 9.14, 14.38, -53.13
0.01, 0.53, 0.84, 8.72, 15.04, -52.89
0.01, 0.52, 0.82, 9.48, 14.72, -52.45
-0.00, 0.54, 0.85, 9.45, 14.44, -53.30
0.00, 0.50, 0.83, 8.46, 14.86, -52.70
0.00, 0.52, 0.83, 8.85, 14.60, -52.54
0.01, 0.51, 0.83, 9.20, 14.89, -52.38
0.01, 0.51, 0.83, 9.35, 14.75, -52.39
0.00, 0.52, 0.83, 9.01, 14.87, -52.43
0.01, 0.52, 0.83, 9.69, 15.03, -52.10
0.02, 0.52, 0.82, 8.79, 14.59, -52.61
0.01, 0.52, 0.84, 8.73, 14.43, -52.04
0.01, 0.51, 0.82, 9.11, 15.01, -53.49
0.02, 0.53, 0.83, 9.20, 14.25, -53.75
0.01, 0.52, 0.83, 9.33, 15.04, -52.60
0.01, 0.52, 0.83, 8.90, 14.22, -53.44
0.02, 0.51, 0.83, 8.87, 14.61, -52.60
-0.00, 0.53, 0.84, 8.73, 15.39, -52.61
0.01, 0.51, 0.83, 8.96, 15.12, -52.80
0.01, 0.52, 0.84, 8.80, 15.32, -52.60
0.00, 0.51, 0.83, 8.64, 15.36, -53.05
0.02, 0.53, 0.84, 9.17, 14.66, -52.32
0.01, 0.52, 0.83, 8.41, 14.67, -53.43
0.01, 0.52, 0.84, 9.46, 14.55, -53.20
0.01, 0.52, 0.83, 8.80, 14.72, -53.10
0.02, 0.53, 0.83, 9.48, 14.28, -54.06
0.01, 0.52, 0.83, 9.05, 15.11, -53.38
0.01, 0.53, 0.84, 9.34, 14.53, -54.17
0.02, 0.51, 0.82, 9.01, 14.51, -54.06
0.01, 0.53, 0.84, 9.11, 14.18, -52.93
0.02, 0.52, 0.82, 9.33, 14.84, -52.20
0.01, 0.53, 0.84, 9.35, 13.85, -52.70
0.01, 0.51, 0.82, 8.76, 14.98, -52.28
0.01, 0.53, 0.84, 8.53, 13.85, -52.32
0.02, 0.51, 0.83, 8.64, 14.33, -53.54
0.01, 0.52, 0.84, 8.29, 14.67, -52.28
0.02, 0.52, 0.82, 8.78, 14.84, -52.71
0.02, 0.53, 0.83, 8.90, 14.17, -52.66
0.01, 0.52, 0.83, 8.84, 14.71, -52.53
0.01, 0.52, 0.84, 8.44, 15.14, -52.55
0.01, 0.53, 0.83, 8.67, 14.55, -52.23
0.00, 0.52, 0.83, 8.94, 14.93, -52.23
0.01, 0.53, 0.84, 8.65, 14.84, -52.81
0.01, 0.52, 0.83, 9.24, 14.93, -52.33
0.02, 0.51, 0.83, 8.69, 14.60, -52.53
0.02, 0.54, 0.82, 9.12, 15.01, -52.82
0.01, 0.54, 0.84, 9.01, 14.66, -52.73
0.01, 0.52, 0.83, 9.06, 14.18, -52.17
0.01, 0.50, 0.83, 8.73, 14.32, -54.09
0.02, 0.53, 0.83, 9.00, 14.56, -52.95
0.01, 0.53, 0.84, 9.01, 14.61, -52.93
0.01, 0.52, 0.83, 9.03, 14.38, -52.49
0.02, 0.52, 0.83, 9.67, 14.29, -53.05
0.02, 0.53, 0.83, 9.69, 14.26, -53.03
0.01, 0.52, 0.83, 9.33, 14.95, -52.43
0.02, 0.53, 0.83, 9.46, 14.93, -53.64
0.02, 0.52, 0.83, 9.72, 14.36, -53.82
0.01, 0.52, 0.83, 9.20, 14.70, -53.19
0.03, 0.53, 0.81, 9.11, 15.11, -54.08
0.01, 0.52, 0.83, 9.23, 14.92, -53.87
0.02, 0.51, 0.82, 8.89, 14.72, -53.32
0.01, 0.54, 0.84, 8.94, 14.16, -52.91
0.01, 0.52, 0.83, 9.56, 14.21, -52.94
0.02, 0.52, 0.83, 9.61, 14.34, -52.64
0.02, 0.52, 0.82, 9.25, 14.60, -53.13
0.02, 0.52, 0.83, 8.81, 14.79, -53.28
0.02, 0.52, 0.82, 9.67, 14.54, -53.14
0.03, 0.53, 0.83, 9.48, 14.61, -52.97
0.02, 0.52, 0.83, 9.51, 14.58, -53.50
0.02, 0.52, 0.83, 9.25, 14.20, -52.36
0.02, 0.54, 0.83, 9.33, 14.77, -52.50
0.01, 0.52, 0.83, 9.48, 15.14, -52.43
0.02, 0.51, 0.83, 9.16, 14.49, -52.60
0.02, 0.53, 0.84, 9.25, 14.25, -52.53
0.03, 0.53, 0.84, 9.58, 14.65, -52.33
0.02, 0.52, 0.83, 9.40, 14.10, -53.22
0.01, 0.54, 0.84, 9.91, 14.37, -53.14
0.03, 0.51, 0.82, 9.42, 14.60, -52.67
0.01, 0.52, 0.83, 9.80, 14.81, -53.59
0.02, 0.53, 0.82, 9.56, 14.26, -53.14
0.01, 0.51, 0.83, 9.33, 14.10, -53.60
0.02, 0.54, 0.84, 9.51, 14.11, -52.66
0.02, 0.52, 0.83, 9.27, 14.44, -52.49
0.02, 0.53, 0.83, 9.58, 14.55, -52.72
0.02, 0.52, 0.82, 9.53, 14.29, -52.34
0.01, 0.54, 0.83, 9.13, 14.59, -53.02
0.03, 0.50, 0.81, 9.06, 14.39, -53.38
0.01, 0.51, 0.86, 9.09, 14.01, -53.66
0.00, 0.48, 0.83, 9.23, 14.56, -53.04
0.02, 0.56, 0.83, 9.08, 13.85, -52.92
0.02, 0.55, 0.82, 9.78, 14.26, -51.98
0.02, 0.53, 0.84, 9.83, 14.31, -53.03
0.02, 0.51, 0.83, 9.81, 14.22, -53.02
0.02, 0.52, 0.83, 9.63, 14.11, -51.93
0.01, 0.52, 0.83, 9.20, 14.09, -52.15
0.02, 0.53, 0.84, 9.72, 14.16, -53.02
0.02, 0.51, 0.83, 9.00, 14.50, -52.77
0.02, 0.53, 0.83, 9.80, 14.21, -53.41
0.01, 0.52, 0.84, 9.66, 14.82, -53.81
0.02, 0.52, 0.82, 9.78, 14.47, -52.27
0.02, 0.52, 0.83, 9.80, 14.07, -53.69
0.02, 0.52, 0.84, 9.06, 14.66, -52.73
0.03, 0.54, 0.82, 9.53, 14.56, -53.28
0.02, 0.53, 0.83, 9.25, 14.87, -53.04
0.02, 0.52, 0.83, 9.27, 14.26, -52.40
0.01, 0.53, 0.83, 9.19, 14.40, -53.72
0.02, 0.52, 0.83, 9.42, 14.14, -52.99
