x_acc, y_acc, z_acc, x_mag, y_mag, z_mag 
-0.54, -0.83, 0.27, -1.73, 58.48, -10.73
-0.53, -0.84, 0.26, -1.76, 58.31, -12.10
-0.57, -0.75, 0.30, -1.56, 58.68, -11.65
-0.51, -0.77, 0.32, -2.06, 58.24, -10.57
-0.46, -0.74, 0.31, -1.38, 58.30, -11.68
-0.46, -0.77, 0.31, -2.03, 58.44, -11.36
-0.50, -0.79, 0.30, -1.50, 59.02, -12.23
-0.55, -0.80, 0.29, -1.48, 58.68, -11.89
-0.54, -0.80, 0.28, -1.64, 58.62, -11.52
-0.51, -0.80, 0.28, -1.70, 58.31, -11.10
-0.51, -0.79, 0.30, -2.48, 58.17, -11.79
-0.51, -0.77, 0.30, -2.25, 58.97, -11.32
-0.52, -0.78, 0.30, -2.77, 58.54, -12.16
-0.51, -0.78, 0.30, -2.48, 58.31, -11.98
-0.53, -0.79, 0.31, -2.58, 58.44, -11.02
-0.53, -0.78, 0.31, -2.56, 57.74, -13.11
-0.55, -0.78, 0.32, -2.54, 58.20, -12.13
-0.52, -0.79, 0.31, -2.32, 58.26, -11.89
-0.50, -0.78, 0.30, -2.78, 58.02, -12.41
-0.50, -0.78, 0.30, -2.71, 58.09, -12.13
-0.53, -0.79, 0.32, -2.19, 57.74, -12.77
-0.53, -0.78, 0.30, -2.39, 58.15, -13.09
-0.55, -0.79, 0.31, -2.26, 57.65, -13.42
-0.54, -0.79, 0.31, -1.99, 57.36, -12.74
-0.53, -0.77, 0.33, -2.87, 58.35, -13.35
-0.52, -0.76, 0.32, -2.76, 57.96, -12.40
-0.50, -0.78, 0.32, -2.39, 57.92, -11.39
-0.52, -0.77, 0.32, -2.11, 57.73, -12.71
-0.51, -0.79, 0.31, -2.11, 57.95, -13.48
-0.52, -0.78, 0.32, -2.12, 58.30, -11.88
-0.51, -0.79, 0.31, -2.00, 58.51, -12.79
-0.54, -0.78, 0.33, -2.23, 58.01, -12.85
-0.52, -0.77, 0.31, -2.12, 58.26, -12.48
-0.53, -0.79, 0.32, -2.11, 58.44, -13.33
-0.52, -0.77, 0.32, -2.06, 58.25, -12.94
-0.52, -0.77, 0.33, -2.20, 58.56, -12.59
-0.52, -0.78, 0.33, -2.19, 58.17, -13.04
-0.52, -0.77, 0.34, -2.04, 57.89, -12.94
-0.52, -0.77, 0.33, -2.27, 57.91, -12.88
-0.53, -0.76, 0.34, -2.77, 58.08, -12.48
-0.52, -0.76, 0.33, -2.62, 58.53, -14.47
-0.53, -0.77, 0.34, -2.33, 58.31, -13.23
-0.51, -0.77, 0.33, -2.60, 58.40, -13.42
-0.50, -0.77, 0.32, -2.36, 57.76, -12.87
-0.53, -0.78, 0.33, -2.25, 58.00, -13.51
-0.53, -0.76, 0.33, -2.64, 58.20, -13.61
-0.52, -0.77, 0.34, -2.70, 57.65, -13.68
-0.53, -0.78, 0.35, -2.14, 57.91, -13.50
-0.52, -0.77, 0.34, -2.61, 58.03, -12.90
-0.52, -0.76, 0.32, -2.25, 57.92, -13.07
-0.51, -0.78, 0.33, -2.73, 58.61, -12.33
-0.53, -0.79, 0.33, -1.97, 57.95, -13.23
-0.52, -0.77, 0.33, -2.08, 57.74, -13.82
-0.51, -0.78, 0.33, -2.55, 57.97, -13.81
-0.53, -0.76, 0.34, -1.93, 58.24, -13.16
-0.51, -0.76, 0.34, -1.83, 58.79, -13.02
-0.52, -0.77, 0.33, -1.86, 58.52, -13.13
-0.51, -0.79, 0.32, -1.72, 58.23, -12.67
-0.52, -0.80, 0.32, -1.88, 58.24, -11.74
-0.51, -0.77, 0.32, -1.73, 58.22, -11.68
-0.51, -0.78, 0.33, -1.92, 58.33, -12.38
-0.51, -0.75, 0.34, -1.98, 58.41, -12.81
-0.52, -0.78, 0.35, -2.12, 58.24, -13.37
-0.52, -0.76, 0.35, -1.82, 57.80, -12.34
-0.51, -0.76, 0.35, -2.03, 58.06, -12.70
-0.51, -0.77, 0.34, -1.68, 58.67, -13.22
-0.51, -0.78, 0.34, -1.49, 58.30, -13.06
-0.51, -0.78, 0.33, -1.75, 58.46, -12.88
-0.52, -0.79, 0.33, -1.66, 58.36, -14.87
-0.50, -0.77, 0.33, -1.97, 57.45, -13.67
-0.51, -0.77, 0.34, -2.09, 58.46, -13.20
-0.52, -0.76, 0.34, -1.84, 58.07, -13.16
-0.52, -0.76, 0.35, -1.59, 57.95, -13.15
-0.52, -0.80, 0.34, -1.87, 58.12, -12.99
-0.52, -0.76, 0.34, -2.62, 58.09, -14.01
-0.50, -0.78, 0.34, -1.83, 58.48, -12.39
-0.51, -0.78, 0.35, -2.73, 58.34, -14.09
-0.50, -0.79, 0.36, -1.95, 58.45, -13.16
-0.50, -0.76, 0.34, -1.78, 57.85, -13.39
-0.51, -0.76, 0.35, -1.77, 58.52, -14.12
-0.50, -0.77, 0.35, -1.77, 58.34, -13.35
-0.50, -0.77, 0.35, -1.94, 58.40, -13.26
-0.51, -0.76, 0.36, -2.17, 58.26, -12.83
-0.51, -0.76, 0.37, -2.22, 58.35, -13.71
-0.50, -0.78, 0.34, -2.09, 58.11, -12.59
-0.50, -0.78, 0.33, -1.97, 58.59, -13.27
-0.50, -0.80, 0.33, -1.26, 58.20, -13.75
-0.50, -0.77, 0.33, -1.99, 57.80, -13.20
-0.52, -0.78, 0.35, -2.17, 58.14, -11.99
-0.51, -0.77, 0.35, -1.86, 58.62, -12.63
-0.50, -0.76, 0.36, -2.36, 57.64, -13.73
-0.50, -0.76, 0.36, -2.06, 57.82, -13.07
-0.51, -0.76, 0.36, -2.17, 58.04, -13.43
-0.50, -0.77, 0.35, -2.10, 57.65, -13.62
-0.51, -0.78, 0.35, -1.73, 57.84, -13.10
-0.50, -0.78, 0.34, -1.23, 58.15, -13.83
-0.51, -0.77, 0.35, -2.38, 58.57, -13.27
-0.50, -0.77, 0.35, -1.82, 58.68, -13.02
-0.50, -0.77, 0.36, -2.17, 57.90, -14.29
-0.49, -0.76, 0.35, -1.92, 58.11, -13.32
-0.50, -0.76, 0.36, -2.61, 58.37, -14.37
-0.51, -0.76, 0.36, -2.28, 58.17, -14.56
-0.50, -0.79, 0.35, -2.65, 58.00, -13.59
-0.50, -0.78, 0.34, -1.93, 58.28, -13.00
-0.50, -0.78, 0.35, -2.21, 58.09, -13.66
-0.51, -0.77, 0.35, -2.09, 57.73, -13.49
-0.48, -0.78, 0.35, -1.83, 57.59, -13.40
-0.50, -0.76, 0.36, -2.73, 57.80, -14.17
-0.50, -0.74, 0.38, -2.47, 57.84, -13.89
-0.50, -0.74, 0.37, -1.66, 58.02, -13.78
-0.51, -0.77, 0.37, -1.99, 58.78, -13.37
-0.51, -0.78, 0.36, -2.38, 58.30, -13.54
-0.50, -0.77, 0.35, -2.11, 57.59, -14.04
-0.50, -0.78, 0.35, -1.92, 58.25, -13.64
-0.51, -0.77, 0.35, -2.10, 58.41, -13.40
-0.51, -0.78, 0.37, -2.31, 58.06, -12.55
-0.50, -0.76, 0.36, -1.87, 57.92, -13.17
-0.50, -0.76, 0.36, -1.92, 58.13, -14.73
-0.50, -0.76, 0.36, -2.43, 58.19, -13.79
-0.52, -0.78, 0.36, -2.09, 58.40, -13.12
-0.51, -0.76, 0.37, -2.15, 57.57, -13.64
-0.50, -0.75, 0.37, -2.45, 57.57, -14.17
-0.50, -0.76, 0.36, -2.04, 58.01, -13.85
-0.54, -0.77, 0.38, -2.23, 58.30, -12.62
-0.49, -0.76, 0.37, -2.22, 58.14, -13.29
-0.50, -0.76, 0.37, -2.23, 58.09, -13.33
-0.49, -0.76, 0.36, -1.76, 58.34, -12.57
-0.51, -0.76, 0.37, -2.19, 57.91, -14.73
-0.52, -0.77, 0.36, -2.29, 57.85, -14.48
-0.53, -0.78, 0.38, -2.26, 57.75, -14.11
-0.49, -0.76, 0.37, -1.83, 57.74, -13.78
-0.48, -0.76, 0.37, -2.14, 58.17, -14.82
-0.50, -0.77, 0.37, -2.25, 57.09, -14.14
-0.51, -0.79, 0.37, -2.55, 57.86, -14.44
-0.51, -0.76, 0.37, -1.38, 57.84, -13.71
-0.50, -0.76, 0.36, -1.89, 57.82, -14.53
-0.50, -0.77, 0.37, -2.38, 57.71, -14.03
-0.50, -0.78, 0.37, -1.33, 58.45, -14.25
-0.50, -0.76, 0.38, -2.08, 57.96, -15.19
-0.50, -0.77, 0.37, -1.87, 58.17, -14.83
-0.50, -0.77, 0.36, -2.16, 58.02, -14.04
-0.52, -0.78, 0.36, -2.36, 57.64, -13.26
-0.51, -0.77, 0.36, -1.67, 58.33, -15.17
-0.50, -0.77, 0.36, -2.40, 58.24, -14.17
-0.50, -0.75, 0.38, -2.28, 57.71, -14.42
-0.49, -0.75, 0.37, -1.78, 58.06, -13.73
-0.52, -0.77, 0.37, -2.15, 57.82, -14.47
-0.50, -0.77, 0.36, -2.53, 57.80, -14.37
-0.50, -0.78, 0.36, -2.38, 58.53, -13.01
-0.49, -0.78, 0.36, -2.20, 57.90, -14.29
-0.50, -0.77, 0.37, -2.22, 57.80, -13.61
-0.51, -0.76, 0.38, -1.93, 58.06, -13.20
-0.50, -0.75, 0.38, -1.66, 57.47, -12.62
-0.50, -0.76, 0.37, -2.31, 57.84, -15.26
-0.49, -0.78, 0.35, -2.05, 58.47, -15.06
-0.50, -0.77, 0.36, -1.66, 57.10, -13.16
-0.51, -0.78, 0.37, -1.84, 57.81, -14.11
-0.50, -0.77, 0.37, -2.17, 57.91, -14.37
-0.50, -0.76, 0.37, -2.15, 57.79, -14.54
-0.50, -0.76, 0.37, -1.97, 57.97, -13.71
-0.51, -0.76, 0.37, -1.99, 57.74, -13.71
-0.50, -0.77, 0.37, -1.68, 57.91, -14.33
-0.50, -0.76, 0.37, -1.67, 57.53, -13.57
-0.50, -0.77, 0.36, -1.49, 57.24, -14.47
-0.50, -0.77, 0.36, -2.00, 57.74, -14.51
-0.49, -0.77, 0.36, -1.98, 57.48, -13.54
-0.50, -0.77, 0.36, -2.20, 58.09, -14.10
-0.51, -0.77, 0.37, -2.14, 58.15, -14.38
-0.50, -0.77, 0.37, -1.76, 57.71, -13.42
-0.50, -0.76, 0.38, -2.33, 57.53, -14.09
-0.49, -0.76, 0.37, -1.94, 57.51, -14.51
-0.51, -0.77, 0.37, -2.12, 57.92, -14.09
-0.50, -0.77, 0.36, -2.04, 57.71, -14.22
-0.50, -0.77, 0.36, -1.89, 57.39, -14.07
-0.49, -0.77, 0.36, -2.28, 58.15, -14.27
-0.50, -0.76, 0.36, -2.09, 58.13, -14.25
-0.51, -0.77, 0.37, -2.49, 57.69, -15.06
-0.53, -0.78, 0.37, -2.37, 57.70, -13.12
-0.50, -0.76, 0.37, -2.64, 58.12, -15.04
-0.49, -0.77, 0.37, -2.45, 57.71, -13.78
-0.50, -0.77, 0.37, -1.87, 58.26, -14.62
-0.50, -0.77, 0.36, -1.73, 57.31, -14.49
-0.51, -0.77, 0.37, -2.36, 57.89, -14.75
-0.50, -0.76, 0.37, -2.83, 58.08, -15.17
-0.51, -0.76, 0.38, -2.39, 57.80, -14.07
-0.50, -0.77, 0.37, -2.16, 58.31, -14.14
-0.49, -0.76, 0.37, -2.16, 58.41, -13.88
-0.51, -0.78, 0.37, -1.97, 57.56, -14.40
-0.51, -0.77, 0.37, -2.22, 58.01, -14.98
-0.50, -0.76, 0.36, -2.69, 57.96, -14.87
-0.50, -0.79, 0.37, -2.10, 58.11, -14.67
-0.49, -0.76, 0.37, -1.86, 57.98, -15.17
-0.49, -0.77, 0.37, -1.89, 57.64, -14.10
-0.50, -0.77, 0.37, -2.06, 57.79, -14.18
-0.51, -0.77, 0.37, -1.93, 58.29, -14.49
-0.50, -0.76, 0.37, -2.10, 57.82, -14.44
-0.50, -0.77, 0.38, -2.14, 58.45, -14.47
-0.50, -0.76, 0.37, -1.77, 58.12, -14.70
-0.51, -0.77, 0.37, -2.08, 58.26, -14.14
-0.50, -0.76, 0.37, -1.81, 57.52, -14.97
