x_acc, y_acc, z_acc, x_mag, y_mag, z_mag 
0.89, -0.29, -0.20, 39.50, 21.97, 11.61
1.02, -0.25, -0.22, 39.42, 22.55, 12.23
1.03, -0.24, -0.10, 39.06, 22.31, 11.32
0.90, -0.31, -0.08, 38.75, 22.13, 11.77
0.99, -0.23, -0.19, 39.10, 22.38, 11.63
0.99, -0.23, -0.12, 38.90, 21.68, 12.11
0.87, -0.27, -0.22, 38.62, 21.86, 11.54
0.93, -0.27, -0.13, 38.98, 21.83, 13.21
0.98, -0.26, -0.19, 38.85, 21.96, 11.28
0.95, -0.26, -0.18, 38.17, 21.66, 11.63
0.99, -0.23, -0.17, 38.43, 21.72, 12.46
0.91, -0.28, -0.17, 38.64, 21.29, 11.34
0.96, -0.23, -0.17, 38.76, 21.23, 11.88
0.94, -0.26, -0.25, 38.95, 21.69, 12.41
0.96, -0.27, -0.11, 38.76, 21.47, 13.02
0.92, -0.26, -0.23, 38.42, 21.67, 12.10
0.98, -0.25, -0.18, 38.17, 21.33, 12.79
0.93, -0.29, -0.15, 38.50, 21.19, 11.89
0.96, -0.25, -0.22, 38.75, 21.68, 12.70
0.96, -0.27, -0.16, 38.37, 21.29, 11.61
0.90, -0.29, -0.21, 38.82, 21.62, 11.79
0.97, -0.26, -0.17, 38.51, 21.50, 11.57
0.95, -0.28, -0.16, 38.65, 21.79, 11.40
0.93, -0.26, -0.22, 38.85, 21.75, 12.21
0.96, -0.27, -0.13, 38.94, 21.91, 12.21
0.93, -0.27, -0.23, 38.89, 21.41, 11.72
0.96, -0.26, -0.15, 38.50, 21.42, 11.94
0.93, -0.27, -0.24, 38.83, 21.02, 11.94
0.94, -0.27, -0.15, 38.68, 21.90, 11.98
0.96, -0.25, -0.21, 38.65, 21.19, 11.83
0.93, -0.26, -0.17, 38.42, 21.13, 11.99
0.97, -0.25, -0.21, 38.40, 20.97, 12.89
0.93, -0.28, -0.16, 38.21, 20.89, 13.24
0.95, -0.26, -0.20, 38.67, 21.61, 11.17
0.93, -0.26, -0.17, 38.34, 21.08, 12.49
0.94, -0.26, -0.22, 38.92, 20.98, 12.65
0.94, -0.26, -0.21, 38.13, 21.29, 12.30
0.93, -0.27, -0.17, 38.26, 20.84, 12.41
0.95, -0.25, -0.23, 39.03, 20.75, 12.45
0.96, -0.27, -0.15, 38.67, 21.07, 12.38
0.93, -0.27, -0.20, 38.35, 21.24, 12.07
0.95, -0.26, -0.18, 38.28, 20.86, 12.73
0.93, -0.26, -0.19, 38.53, 21.18, 12.38
0.92, -0.28, -0.19, 38.94, 21.03, 12.44
0.99, -0.26, -0.12, 38.55, 20.78, 11.88
0.92, -0.28, -0.23, 38.38, 21.08, 10.75
0.94, -0.26, -0.20, 38.49, 20.59, 11.30
0.97, -0.27, -0.11, 37.68, 20.20, 12.48
0.90, -0.29, -0.25, 38.54, 20.41, 13.11
1.01, -0.24, -0.12, 38.53, 20.31, 12.02
0.91, -0.31, -0.25, 38.20, 20.73, 11.96
0.98, -0.25, -0.13, 38.39, 20.35, 12.27
0.94, -0.27, -0.21, 38.96, 20.79, 11.91
0.91, -0.29, -0.26, 38.76, 20.50, 11.51
1.02, -0.23, -0.07, 38.53, 21.08, 10.97
0.86, -0.29, -0.30, 38.73, 20.84, 11.96
0.98, -0.25, -0.11, 38.83, 21.18, 12.10
0.92, -0.27, -0.23, 39.28, 20.94, 11.33
0.95, -0.27, -0.19, 38.49, 21.41, 12.40
0.94, -0.27, -0.20, 38.59, 21.07, 13.31
0.96, -0.25, -0.19, 38.57, 20.87, 11.93
0.91, -0.28, -0.24, 38.39, 21.06, 12.39
0.96, -0.25, -0.15, 38.64, 21.08, 13.09
0.92, -0.27, -0.21, 38.38, 21.47, 12.40
0.94, -0.28, -0.20, 38.64, 21.02, 12.06
0.95, -0.27, -0.19, 38.38, 20.96, 12.06
0.90, -0.28, -0.26, 38.12, 20.96, 12.00
1.01, -0.25, -0.06, 37.88, 20.68, 12.50
0.91, -0.29, -0.30, 38.43, 20.80, 11.74
0.96, -0.27, -0.14, 37.70, 20.85, 11.76
0.92, -0.28, -0.21, 38.24, 20.26, 12.61
0.93, -0.27, -0.20, 38.00, 20.81, 11.16
0.98, -0.26, -0.16, 38.31, 21.01, 12.08
0.90, -0.29, -0.26, 38.43, 21.34, 11.55
0.98, -0.26, -0.15, 38.13, 20.76, 13.02
0.92, -0.28, -0.22, 38.28, 20.84, 10.99
0.95, -0.26, -0.20, 38.37, 20.90, 11.49
0.95, -0.28, -0.19, 38.26, 21.23, 12.34
0.95, -0.27, -0.21, 37.77, 20.92, 11.94
0.95, -0.27, -0.17, 38.38, 20.90, 11.85
0.90, -0.29, -0.26, 38.13, 20.81, 12.26
0.99, -0.25, -0.15, 38.38, 20.81, 13.02
0.90, -0.29, -0.24, 38.45, 20.59, 12.22
0.97, -0.26, -0.19, 38.54, 20.64, 11.57
0.92, -0.29, -0.18, 38.28, 20.73, 11.57
0.96, -0.26, -0.22, 38.59, 20.78, 13.22
0.96, -0.27, -0.13, 38.24, 20.30, 11.55
0.88, -0.28, -0.31, 38.53, 20.58, 11.62
1.01, -0.25, -0.12, 37.88, 20.24, 11.44
0.90, -0.29, -0.29, 38.07, 20.36, 12.04
0.95, -0.26, -0.16, 38.07, 20.39, 11.62
0.94, -0.26, -0.19, 37.96, 20.56, 12.08
0.94, -0.26, -0.23, 38.44, 20.63, 12.10
0.97, -0.27, -0.16, 38.29, 20.24, 12.48
0.93, -0.27, -0.26, 38.44, 20.57, 12.63
0.92, -0.27, -0.18, 38.17, 20.52, 12.59
0.96, -0.26, -0.19, 37.79, 20.58, 12.46
0.95, -0.27, -0.22, 38.32, 19.79, 12.81
0.96, -0.26, -0.17, 37.51, 19.89, 12.13
0.90, -0.28, -0.23, 37.98, 20.20, 11.82
0.97, -0.24, -0.17, 38.29, 20.14, 11.82
0.92, -0.29, -0.22, 37.49, 20.26, 12.99
0.97, -0.27, -0.19, 37.49, 20.67, 12.51
0.94, -0.27, -0.19, 37.49, 20.21, 12.54
0.92, -0.27, -0.23, 38.54, 20.36, 11.54
0.97, -0.26, -0.18, 38.15, 20.36, 10.89
0.92, -0.28, -0.19, 38.27, 20.04, 12.28
0.96, -0.26, -0.22, 37.68, 20.24, 12.41
0.94, -0.28, -0.17, 37.94, 19.96, 11.54
0.94, -0.26, -0.24, 38.06, 20.13, 11.46
0.96, -0.27, -0.15, 37.76, 20.09, 11.25
0.95, -0.27, -0.23, 38.31, 20.30, 12.08
0.93, -0.27, -0.22, 38.37, 20.32, 12.43
0.96, -0.27, -0.17, 38.00, 19.98, 13.15
0.93, -0.27, -0.24, 38.35, 20.41, 11.94
0.95, -0.27, -0.18, 38.10, 20.21, 12.19
0.99, -0.26, -0.18, 38.53, 20.58, 11.41
0.91, -0.29, -0.14, 38.28, 19.84, 12.41
0.95, -0.26, -0.22, 38.53, 20.18, 11.69
0.92, -0.27, -0.22, 38.35, 20.30, 11.23
0.98, -0.25, -0.17, 38.12, 19.74, 11.85
0.90, -0.28, -0.26, 38.46, 20.15, 11.51
0.99, -0.25, -0.15, 38.42, 19.67, 12.35
0.91, -0.28, -0.24, 38.35, 20.37, 11.87
0.95, -0.26, -0.18, 38.24, 19.89, 12.26
0.96, -0.25, -0.17, 38.51, 20.08, 11.45
0.92, -0.27, -0.22, 38.55, 19.32, 11.45
0.94, -0.26, -0.16, 38.55, 20.07, 11.54
0.92, -0.27, -0.20, 38.51, 19.84, 12.26
0.96, -0.26, -0.22, 38.34, 19.57, 11.76
0.90, -0.30, -0.25, 38.93, 19.78, 11.02
1.00, -0.25, -0.17, 38.32, 19.69, 12.32
0.91, -0.27, -0.17, 38.53, 20.47, 11.87
0.94, -0.25, -0.22, 38.81, 19.87, 12.32
0.98, -0.26, -0.15, 38.35, 20.61, 11.71
0.90, -0.28, -0.25, 38.98, 20.34, 13.02
0.94, -0.27, -0.21, 39.00, 20.18, 12.12
0.94, -0.30, -0.21, 38.53, 20.80, 12.10
0.98, -0.27, -0.19, 38.53, 20.41, 12.49
0.92, -0.28, -0.17, 38.35, 20.75, 12.60
0.94, -0.27, -0.22, 38.64, 20.20, 11.93
0.93, -0.29, -0.18, 38.68, 20.90, 12.15
0.96, -0.27, -0.20, 38.61, 20.57, 12.76
0.93, -0.29, -0.24, 38.87, 20.28, 12.15
0.95, -0.28, -0.16, 38.20, 20.98, 11.24
0.92, -0.28, -0.23, 38.35, 20.52, 12.34
0.93, -0.28, -0.18, 38.38, 20.29, 12.00
0.98, -0.27, -0.17, 38.85, 20.96, 12.55
0.92, -0.29, -0.22, 38.21, 20.31, 11.23
0.94, -0.28, -0.20, 38.28, 20.53, 10.57
0.94, -0.28, -0.18, 38.50, 20.19, 12.37
0.93, -0.28, -0.24, 38.70, 20.75, 12.49
0.94, -0.28, -0.17, 38.29, 20.56, 12.16
0.94, -0.28, -0.22, 38.70, 20.63, 11.62
0.94, -0.28, -0.16, 38.37, 20.74, 11.58
0.93, -0.27, -0.22, 38.17, 20.37, 12.07
0.95, -0.28, -0.18, 38.59, 20.14, 12.43
0.94, -0.29, -0.19, 38.53, 20.12, 11.90
0.95, -0.28, -0.20, 38.82, 20.80, 11.63
0.93, -0.28, -0.21, 38.20, 20.57, 11.36
0.94, -0.28, -0.19, 38.71, 20.43, 12.41
0.94, -0.28, -0.20, 38.87, 20.46, 13.02
0.95, -0.28, -0.17, 38.34, 20.20, 13.00
0.93, -0.28, -0.23, 38.55, 20.73, 11.78
0.92, -0.29, -0.16, 38.82, 20.65, 12.52
0.97, -0.27, -0.21, 38.57, 20.74, 11.99
0.92, -0.30, -0.21, 38.78, 20.14, 12.34
0.94, -0.28, -0.18, 38.75, 20.94, 11.87
0.93, -0.29, -0.20, 38.65, 20.54, 11.19
0.94, -0.28, -0.21, 38.44, 20.10, 12.00
0.93, -0.28, -0.22, 38.65, 20.40, 11.85
0.95, -0.29, -0.17, 38.61, 20.43, 11.89
0.93, -0.28, -0.23, 38.56, 20.67, 11.51
0.94, -0.29, -0.18, 38.53, 20.39, 12.29
0.94, -0.29, -0.22, 38.62, 20.30, 11.91
0.95, -0.29, -0.18, 38.07, 20.76, 11.58
0.93, -0.29, -0.25, 38.11, 20.17, 12.93
0.92, -0.30, -0.18, 38.49, 20.59, 12.01
0.96, -0.30, -0.20, 38.48, 21.09, 11.21
0.93, -0.31, -0.22, 38.68, 21.22, 12.12
0.93, -0.28, -0.18, 38.33, 20.07, 11.91
0.94, -0.29, -0.20, 38.33, 20.85, 12.11
0.93, -0.30, -0.21, 38.51, 20.31, 11.94
0.93, -0.30, -0.22, 38.85, 21.17, 12.05
0.94, -0.29, -0.17, 38.84, 20.76, 12.05
0.94, -0.29, -0.25, 38.66, 20.73, 11.83
0.91, -0.30, -0.20, 38.98, 20.54, 13.01
0.93, -0.30, -0.16, 38.34, 20.63, 12.77
0.94, -0.30, -0.22, 38.59, 20.54, 12.61
0.99, -0.29, -0.16, 38.67, 20.78, 11.45
0.89, -0.31, -0.25, 38.51, 21.25, 11.34
0.95, -0.29, -0.15, 38.48, 20.95, 11.52
0.92, -0.30, -0.23, 38.53, 20.90, 12.07
0.93, -0.31, -0.21, 38.51, 21.23, 11.28
0.96, -0.30, -0.17, 38.82, 20.52, 11.52
0.92, -0.30, -0.22, 38.56, 20.80, 11.51
0.94, -0.30, -0.16, 38.20, 21.12, 12.59
0.93, -0.30, -0.24, 38.73, 20.91, 11.85
0.94, -0.30, -0.17, 38.43, 20.81, 11.93
0.93, -0.31, -0.22, 38.29, 20.94, 12.52
